digraph {
    bgcolor=transparent;

    //node [shape=hexagon, fontsize=10, fontname="Ume P Gothic Balsa", margin=0, style=filled, fillcolor=black, fontcolor=white];
    //edge [arrowhead=lnormal, arrowsize=1, weight=1, len=1];

    node [shape=none, fontsize=10, fontname="Ume P Gothic Balsa", margin=0, style=filled, fillcolor=transparent, fontcolor=black];
    edge [arrowhead=lnormal, arrowsize=1, weight=1, len=1, color=transparent];

	labelfloat=true;
	nodesep=0.28;
	ranksep=0.28;
	sep=0.28;
	overlap="compress"
	K=0.14

The->Darling->Scenes->reprend->la->trajectoire->d->un->couple->à->la->fin->de->leur->vie->En->retraçant->l->évolution->de->cette->longue->histoire->d->amour->on->explore->un->lieu->clos->intime->De->leur->rencontre->aux->premiers->émois->du->désir->irrépressible->de->fusion->antidote->provisoire->à->la->solitude->intrinsèque->de->l->être->jusqu->à->la->dissolution->la->vieillesse->et->la->mort->Chorégraphie->et->interprétation->Éléonore->Valère->Lachky->et->Jorge->Jauregi->Allue->Une->coproduction->de->la->Balsamine->avec->l’aide->de->la->Fédération->Wallonie->Bruxelles->Service->de->la->Danse->et->le->soutien->de->Charleroi->Danses
}
