digraph {
    bgcolor=transparent;

    //node [shape=triangle, fontsize=10, fontname="Ume P Gothic Balsa", margin=0, style="filled", fillcolor=black, fontcolor=white];
    //edge [arrowhead=lnormal, arrowsize=1, weight=1, len=1];

    node [shape=none, fontsize=10, fontname="Ume P Gothic Balsa", margin=0, style=filled, fillcolor=transparent, fontcolor=black];
    edge [arrowhead=lnormal, arrowsize=1, weight=1, len=1, color=transparent];

	labelfloat=true;
	nodesep=0.28;
	ranksep=0.28;
	sep=0.28;
	overlap="compress"
	K=0.1

Enfant->Zéro->un->oratorio->électronique->ou->encore->une->calligraphie->scénique->et->sonore->à->mi->chemin->entre->la->fable->enfantine->et->l’allégorie->mythologique->L’enfant->est->en->prise->avec->son->petit->monde->intérieur->et->la->grande->histoire->des->hommes->Un->0->après->des->milliers->Un->0->avant->des->milliers->L’enfant->décrypte->et->reconstruit->la->réalité->Autour->de->lui->la->mère->le->père->et->l’amoureux->alias->Déméter->Sisyphe->et->Phaéton->La->Terre->le->travail->la->révolte->autant->de->visages->que->l’un->ou->l’autre->défend->et->impose->propose->à->l’enfant->Texte->et->mise->en->scène->Céline->Ohrel->Avec->Anna->Moysan->Anaïs->Moreau->Adeline->Rosenstein->Fabien->Magry->et->Philippe->Grand’Henry->Création->sonore->Arnaud->Poirier->Création->lumière->Ledicia->Garcia->Scénographie->Hélène->Bessero->Régie->générale->Pauline->Chevallier->Une->création->de->Diplex->Hôtel->en->coproduction->avec->la->Balsamine

}
