digraph {
    bgcolor=transparent;

    node [shape=invtrapezium, fontsize=10, fontname="Ume P Gothic Balsa", margin=0, style=filled, fillcolor=black, fontcolor=white];
    edge [arrowhead=lnormal, arrowsize=1, weight=1, len=1];

    //node [shape=none, fontsize=10, fontname="Ume P Gothic Balsa", margin=0, style=filled, fillcolor=transparent, fontcolor=black];
    //edge [arrowhead=lnormal, arrowsize=1, weight=1, len=1, color=transparent];

	labelfloat=true;
	nodesep=0.28;
	ranksep=0.28;
	sep=0.28;
	overlap="compress"
	K=0.15

Vision->tout->en->s’intéressant->aux->mythes->futuristes->proposés->par->Hollywood->dans->d’infinies->variations->depuis->des->décennies->nous->livre->en->temps->réel->une->confrontation->inédite->théâtre->cinéma->Avec->Vision->Pierre->Megos->nous->propose->une->conception->personnelle->d’un->futur->fantasmé->une->conception->poétique->de->ce->à->quoi->l’homme->pourrait->être->confronté->dans->un->avenir->proche->Il->se->met->en->scène->dans->le->rôle->de->Mister->John->un->homme->ordinaire->destiné->à->vivre->des->aventures->extra­ordinaires->dans->un->monde->réel->aux->allures->de->rêve->Cette->surréalité->utilise->les->codes->théâtraux->et->cinématographiques->et->confronte->inconscient->et->concient->réel->et->imaginaire->le->tout->soutenu->par->un->concept->scénique->fort->qui->permet->aux->spectateurs->de->regarder->simultanément->un->film->et->sa->fabrication->en->temps->réel->Mise->en->scène->Pierre->Megos->Écriture->Pierre->Megos->et->Florence->Minder->Avec->Pierre->Megos->Florence->Minder->distribution->en cours->Assistant->Doublure->Alessandro->de Pascale->Scénographie->en->cours->Création->vidéo->Caroline->De->Decker->Création->son->Iannis->Heaulme->Création->lumière->Julie->Petit->Étienne->Une->création->de->Pierre->Megos->en->coproduction->avec->la->Balsamine->et->avec->l’aide->de->la->Fédération->Wallonie->Bruxelles->Service->du->Théâtre->et->le->soutien->du->WBTD->aide->à->la->diffusion
}
