<?xml version="1.0" encoding="UTF-8" standalone="no"?>
<!DOCTYPE svg PUBLIC "-//W3C//DTD SVG 1.1//EN"
 "http://www.w3.org/Graphics/SVG/1.1/DTD/svg11.dtd">
<!-- Generated by graphviz version 2.28.0 (20120426.1432)
 -->
<!-- Title: _anonymous_0 Pages: 1 -->
<svg width="388pt" height="326pt"
 viewBox="0.00 0.00 388.00 326.00" xmlns="http://www.w3.org/2000/svg" xmlns:xlink="http://www.w3.org/1999/xlink">
<g id="graph1" class="graph" transform="scale(1 1) rotate(0) translate(4 322)">
<title>_anonymous_0</title>
<!-- The -->
<g id="node1" class="node"><title>The</title>
<polygon fill="black" stroke="black" points="131.339,-18.1211 117.839,-36.1211 90.8385,-36.1211 77.3385,-18.1211 90.8385,-0.121098 117.839,-0.121098 131.339,-18.1211"/>
<text text-anchor="middle" x="104.339" y="-15.6211" font-family="Ume P Gothic Balsa" font-size="10.00" fill="white">The</text>
</g>
<!-- Darling -->
<g id="node3" class="node"><title>Darling</title>
<polygon fill="black" stroke="black" points="176.748,-78.2368 163.248,-96.2368 136.248,-96.2368 122.748,-78.2368 136.248,-60.2368 163.248,-60.2368 176.748,-78.2368"/>
<text text-anchor="middle" x="149.748" y="-75.7368" font-family="Ume P Gothic Balsa" font-size="10.00" fill="white">Darling</text>
</g>
<!-- The&#45;&gt;Darling -->
<g id="edge2" class="edge"><title>The&#45;&gt;Darling</title>
<path fill="none" stroke="black" d="M117.963,-36.1578C121.735,-41.151 125.907,-46.6741 129.953,-52.0312"/>
<polygon fill="black" stroke="black" points="130.106,-52.2334 127.313,-54.343 136.133,-60.2128 130.106,-52.2334"/>
</g>
<!-- Scenes -->
<g id="node4" class="node"><title>Scenes</title>
<polygon fill="black" stroke="black" points="180.177,-181.537 166.677,-199.537 139.677,-199.537 126.177,-181.537 139.677,-163.537 166.677,-163.537 180.177,-181.537"/>
<text text-anchor="middle" x="153.177" y="-179.037" font-family="Ume P Gothic Balsa" font-size="10.00" fill="white">Scenes</text>
</g>
<!-- Darling&#45;&gt;Scenes -->
<g id="edge3" class="edge"><title>Darling&#45;&gt;Scenes</title>
<path fill="none" stroke="black" d="M150.361,-96.7048C150.881,-112.349 151.634,-135.037 152.231,-153.014"/>
<polygon fill="black" stroke="black" points="152.238,-153.234 148.74,-153.35 152.57,-163.229 152.238,-153.234"/>
</g>
<!-- reprend -->
<g id="node5" class="node"><title>reprend</title>
<polygon fill="black" stroke="black" points="231.871,-237.888 218.371,-255.888 191.371,-255.888 177.871,-237.888 191.371,-219.888 218.371,-219.888 231.871,-237.888"/>
<text text-anchor="middle" x="204.871" y="-235.388" font-family="Ume P Gothic Balsa" font-size="10.00" fill="white">reprend</text>
</g>
<!-- Scenes&#45;&gt;reprend -->
<g id="edge4" class="edge"><title>Scenes&#45;&gt;reprend</title>
<path fill="none" stroke="black" d="M168.129,-197.836C172.697,-202.815 177.821,-208.401 182.759,-213.783"/>
<polygon fill="black" stroke="black" points="183.014,-214.061 180.435,-216.427 189.774,-221.43 183.014,-214.061"/>
</g>
<!-- la -->
<g id="node6" class="node"><title>la</title>
<polygon fill="black" stroke="black" points="183.904,-201.22 170.404,-219.22 143.404,-219.22 129.904,-201.22 143.404,-183.22 170.404,-183.22 183.904,-201.22"/>
<text text-anchor="middle" x="156.904" y="-198.72" font-family="Ume P Gothic Balsa" font-size="10.00" fill="white">la</text>
</g>
<!-- reprend&#45;&gt;la -->
<g id="edge5" class="edge"><title>reprend&#45;&gt;la</title>
<path fill="none" stroke="black" d="M187.554,-224.65C185.944,-223.419 184.29,-222.155 182.625,-220.883"/>
<polygon fill="black" stroke="black" points="182.302,-220.635 184.427,-217.854 174.357,-214.562 182.302,-220.635"/>
</g>
<!-- trajectoire -->
<g id="node7" class="node"><title>trajectoire</title>
<polygon fill="black" stroke="black" points="143.373,-137.871 129.703,-155.871 102.363,-155.871 88.6927,-137.871 102.363,-119.871 129.703,-119.871 143.373,-137.871"/>
<text text-anchor="middle" x="116.033" y="-135.371" font-family="Ume P Gothic Balsa" font-size="10.00" fill="white">trajectoire</text>
</g>
<!-- la&#45;&gt;trajectoire -->
<g id="edge6" class="edge"><title>la&#45;&gt;trajectoire</title>
<path fill="none" stroke="black" d="M145.083,-182.897C141.408,-177.201 137.278,-170.8 133.311,-164.651"/>
<polygon fill="black" stroke="black" points="133.108,-164.337 136.049,-162.44 127.687,-155.934 133.108,-164.337"/>
</g>
<!-- fin -->
<g id="node12" class="node"><title>fin</title>
<polygon fill="black" stroke="black" points="229.459,-144.915 215.959,-162.915 188.959,-162.915 175.459,-144.915 188.959,-126.915 215.959,-126.915 229.459,-144.915"/>
<text text-anchor="middle" x="202.459" y="-142.415" font-family="Ume P Gothic Balsa" font-size="10.00" fill="white">fin</text>
</g>
<!-- la&#45;&gt;fin -->
<g id="edge12" class="edge"><title>la&#45;&gt;fin</title>
<path fill="none" stroke="black" d="M171.068,-183.714C174.464,-179.517 178.159,-174.95 181.782,-170.472"/>
<polygon fill="black" stroke="black" points="181.857,-170.379 184.578,-172.581 188.147,-162.605 181.857,-170.379"/>
</g>
<!-- solitude -->
<g id="node40" class="node"><title>solitude</title>
<polygon fill="black" stroke="black" points="163.306,-269.302 149.806,-287.302 122.806,-287.302 109.306,-269.302 122.806,-251.302 149.806,-251.302 163.306,-269.302"/>
<text text-anchor="middle" x="136.306" y="-266.802" font-family="Ume P Gothic Balsa" font-size="10.00" fill="white">solitude</text>
</g>
<!-- la&#45;&gt;solitude -->
<g id="edge47" class="edge"><title>la&#45;&gt;solitude</title>
<path fill="none" stroke="black" d="M151.384,-219.465C149.352,-226.18 147.002,-233.95 144.77,-241.327"/>
<polygon fill="black" stroke="black" points="144.737,-241.435 141.387,-240.422 141.841,-251.007 144.737,-241.435"/>
</g>
<!-- dissolution -->
<g id="node44" class="node"><title>dissolution</title>
<polygon fill="black" stroke="black" points="134.059,-267.66 120.389,-285.66 93.0487,-285.66 79.3785,-267.66 93.0487,-249.66 120.389,-249.66 134.059,-267.66"/>
<text text-anchor="middle" x="106.719" y="-265.16" font-family="Ume P Gothic Balsa" font-size="10.00" fill="white">dissolution</text>
</g>
<!-- la&#45;&gt;dissolution -->
<g id="edge55" class="edge"><title>la&#45;&gt;dissolution</title>
<path fill="none" stroke="black" d="M138.963,-213.999C131.939,-221.688 124.175,-231.678 117.933,-240.978"/>
<polygon fill="black" stroke="black" points="117.835,-241.134 114.877,-239.263 112.489,-249.585 117.835,-241.134"/>
</g>
<!-- vieillesse -->
<g id="node45" class="node"><title>vieillesse</title>
<polygon fill="black" stroke="black" points="208.404,-265.975 194.904,-283.975 167.904,-283.975 154.404,-265.975 167.904,-247.975 194.904,-247.975 208.404,-265.975"/>
<text text-anchor="middle" x="181.404" y="-263.475" font-family="Ume P Gothic Balsa" font-size="10.00" fill="white">vieillesse</text>
</g>
<!-- la&#45;&gt;vieillesse -->
<g id="edge57" class="edge"><title>la&#45;&gt;vieillesse</title>
<path fill="none" stroke="black" d="M163.729,-219.258C165.922,-225.054 168.405,-231.618 170.803,-237.955"/>
<polygon fill="black" stroke="black" points="170.907,-238.231 167.634,-239.47 174.446,-247.584 170.907,-238.231"/>
</g>
<!-- mort -->
<g id="node47" class="node"><title>mort</title>
<polygon fill="black" stroke="black" points="202.805,-137.418 189.305,-155.418 162.305,-155.418 148.805,-137.418 162.305,-119.418 189.305,-119.418 202.805,-137.418"/>
<text text-anchor="middle" x="175.805" y="-134.918" font-family="Ume P Gothic Balsa" font-size="10.00" fill="white">mort</text>
</g>
<!-- la&#45;&gt;mort -->
<g id="edge60" class="edge"><title>la&#45;&gt;mort</title>
<path fill="none" stroke="black" d="M162.27,-183.108C163.892,-177.632 165.713,-171.486 167.481,-165.519"/>
<polygon fill="black" stroke="black" points="167.52,-165.386 170.876,-166.38 170.361,-155.797 167.52,-165.386"/>
</g>
<!-- Balsamine -->
<g id="node58" class="node"><title>Balsamine</title>
<polygon fill="black" stroke="black" points="112.458,-185.404 98.9584,-203.404 71.9584,-203.404 58.4584,-185.404 71.9584,-167.404 98.9584,-167.404 112.458,-185.404"/>
<text text-anchor="middle" x="85.4584" y="-182.904" font-family="Ume P Gothic Balsa" font-size="10.00" fill="white">Balsamine</text>
</g>
<!-- la&#45;&gt;Balsamine -->
<g id="edge75" class="edge"><title>la&#45;&gt;Balsamine</title>
<path fill="none" stroke="black" d="M133.51,-196.041C128.774,-194.993 123.709,-193.872 118.708,-192.765"/>
<polygon fill="black" stroke="black" points="118.425,-192.702 119.181,-189.285 108.661,-190.541 118.425,-192.702"/>
</g>
<!-- Fédération -->
<g id="node61" class="node"><title>Fédération</title>
<polygon fill="black" stroke="black" points="101.024,-212.402 87.3544,-230.402 60.0141,-230.402 46.344,-212.402 60.0141,-194.402 87.3544,-194.402 101.024,-212.402"/>
<text text-anchor="middle" x="73.6842" y="-209.902" font-family="Ume P Gothic Balsa" font-size="10.00" fill="white">Fédération</text>
</g>
<!-- la&#45;&gt;Fédération -->
<g id="edge80" class="edge"><title>la&#45;&gt;Fédération</title>
<path fill="none" stroke="black" d="M131.935,-204.575C124.678,-205.55 116.613,-206.634 108.853,-207.677"/>
<polygon fill="black" stroke="black" points="108.834,-207.679 108.368,-204.21 98.923,-209.011 108.834,-207.679"/>
</g>
<!-- Danse -->
<g id="node65" class="node"><title>Danse</title>
<polygon fill="black" stroke="black" points="246.217,-275.524 232.717,-293.524 205.717,-293.524 192.217,-275.524 205.717,-257.524 232.717,-257.524 246.217,-275.524"/>
<text text-anchor="middle" x="219.217" y="-273.024" font-family="Ume P Gothic Balsa" font-size="10.00" fill="white">Danse</text>
</g>
<!-- la&#45;&gt;Danse -->
<g id="edge86" class="edge"><title>la&#45;&gt;Danse</title>
<path fill="none" stroke="black" d="M171.357,-218.454C179.379,-228.019 189.498,-240.086 198.363,-250.657"/>
<polygon fill="black" stroke="black" points="198.417,-250.721 195.735,-252.97 204.843,-258.384 198.417,-250.721"/>
</g>
<!-- d -->
<g id="node8" class="node"><title>d</title>
<polygon fill="black" stroke="black" points="207.457,-158.887 193.957,-176.887 166.957,-176.887 153.457,-158.887 166.957,-140.887 193.957,-140.887 207.457,-158.887"/>
<text text-anchor="middle" x="180.457" y="-156.387" font-family="Ume P Gothic Balsa" font-size="10.00" fill="white">d</text>
</g>
<!-- trajectoire&#45;&gt;d -->
<g id="edge7" class="edge"><title>trajectoire&#45;&gt;d</title>
<path fill="none" stroke="black" d="M138.204,-145.103C141.582,-146.205 145.124,-147.361 148.659,-148.514"/>
<polygon fill="black" stroke="black" points="148.956,-148.611 147.871,-151.938 158.463,-151.712 148.956,-148.611"/>
</g>
<!-- un -->
<g id="node9" class="node"><title>un</title>
<polygon fill="black" stroke="black" points="281.227,-178.675 267.727,-196.675 240.727,-196.675 227.227,-178.675 240.727,-160.675 267.727,-160.675 281.227,-178.675"/>
<text text-anchor="middle" x="254.227" y="-176.175" font-family="Ume P Gothic Balsa" font-size="10.00" fill="white">un</text>
</g>
<!-- d&#45;&gt;un -->
<g id="edge8" class="edge"><title>d&#45;&gt;un</title>
<path fill="none" stroke="black" d="M202.992,-164.932C208.942,-166.528 215.483,-168.283 221.843,-169.989"/>
<polygon fill="black" stroke="black" points="221.918,-170.009 221.012,-173.389 231.577,-172.6 221.918,-170.009"/>
</g>
<!-- amour -->
<g id="node23" class="node"><title>amour</title>
<polygon fill="black" stroke="black" points="253.296,-206.911 239.796,-224.911 212.796,-224.911 199.296,-206.911 212.796,-188.911 239.796,-188.911 253.296,-206.911"/>
<text text-anchor="middle" x="226.296" y="-204.411" font-family="Ume P Gothic Balsa" font-size="10.00" fill="white">amour</text>
</g>
<!-- d&#45;&gt;amour -->
<g id="edge25" class="edge"><title>d&#45;&gt;amour</title>
<path fill="none" stroke="black" d="M195.721,-174.878C198.322,-177.604 201.072,-180.484 203.813,-183.357"/>
<polygon fill="black" stroke="black" points="204.038,-183.592 201.507,-186.009 210.943,-190.826 204.038,-183.592"/>
</g>
<!-- couple -->
<g id="node10" class="node"><title>couple</title>
<polygon fill="black" stroke="black" points="300.625,-97.7519 287.125,-115.752 260.125,-115.752 246.625,-97.7519 260.125,-79.7519 287.125,-79.7519 300.625,-97.7519"/>
<text text-anchor="middle" x="273.625" y="-95.2519" font-family="Ume P Gothic Balsa" font-size="10.00" fill="white">couple</text>
</g>
<!-- un&#45;&gt;couple -->
<g id="edge9" class="edge"><title>un&#45;&gt;couple</title>
<path fill="none" stroke="black" d="M258.629,-160.313C261.077,-150.102 264.173,-137.182 266.917,-125.738"/>
<polygon fill="black" stroke="black" points="266.976,-125.488 270.38,-126.304 269.308,-115.763 266.976,-125.488"/>
</g>
<!-- lieu -->
<g id="node26" class="node"><title>lieu</title>
<polygon fill="black" stroke="black" points="339.364,-215.662 325.864,-233.662 298.864,-233.662 285.364,-215.662 298.864,-197.662 325.864,-197.662 339.364,-215.662"/>
<text text-anchor="middle" x="312.364" y="-213.162" font-family="Ume P Gothic Balsa" font-size="10.00" fill="white">lieu</text>
</g>
<!-- un&#45;&gt;lieu -->
<g id="edge29" class="edge"><title>un&#45;&gt;lieu</title>
<path fill="none" stroke="black" d="M272.622,-190.378C276.652,-192.942 280.999,-195.707 285.288,-198.436"/>
<polygon fill="black" stroke="black" points="285.452,-198.541 283.573,-201.494 293.889,-203.908 285.452,-198.541"/>
</g>
<!-- à -->
<g id="node11" class="node"><title>à</title>
<polygon fill="black" stroke="black" points="249.827,-150.511 236.327,-168.511 209.327,-168.511 195.827,-150.511 209.327,-132.511 236.327,-132.511 249.827,-150.511"/>
<text text-anchor="middle" x="222.827" y="-148.011" font-family="Ume P Gothic Balsa" font-size="10.00" fill="white">à</text>
</g>
<!-- couple&#45;&gt;à -->
<g id="edge10" class="edge"><title>couple&#45;&gt;à</title>
<path fill="none" stroke="black" d="M258.384,-113.581C254.265,-117.859 249.72,-122.58 245.295,-127.176"/>
<polygon fill="black" stroke="black" points="244.993,-127.489 242.472,-125.061 238.057,-134.693 244.993,-127.489"/>
</g>
<!-- à&#45;&gt;la -->
<g id="edge46" class="edge"><title>à&#45;&gt;la</title>
<path fill="none" stroke="black" d="M197.346,-153.225C187.126,-158.554 176.024,-166.922 167.811,-175.428"/>
<polygon fill="black" stroke="black" points="167.677,-175.585 165.013,-173.314 161.189,-183.195 167.677,-175.585"/>
</g>
<!-- à&#45;&gt;la -->
<g id="edge54" class="edge"><title>à&#45;&gt;la</title>
<path fill="none" stroke="black" d="M218.48,-168.621C212.204,-177.159 201.686,-186.478 190.997,-193.443"/>
<polygon fill="black" stroke="black" points="190.697,-193.618 188.929,-190.598 182.068,-198.671 190.697,-193.618"/>
</g>
<!-- à&#45;&gt;la -->
<g id="edge11" class="edge"><title>à&#45;&gt;la</title>
<path fill="none" stroke="black" d="M205.507,-163.834C198.447,-169.265 190.141,-175.654 182.412,-181.599"/>
<polygon fill="black" stroke="black" points="182.264,-181.713 180.13,-178.938 174.338,-187.81 182.264,-181.713"/>
</g>
<!-- de -->
<g id="node13" class="node"><title>de</title>
<polygon fill="black" stroke="black" points="158.003,-150.604 144.503,-168.604 117.503,-168.604 104.003,-150.604 117.503,-132.604 144.503,-132.604 158.003,-150.604"/>
<text text-anchor="middle" x="131.003" y="-148.104" font-family="Ume P Gothic Balsa" font-size="10.00" fill="white">de</text>
</g>
<!-- fin&#45;&gt;de -->
<g id="edge13" class="edge"><title>fin&#45;&gt;de</title>
<path fill="none" stroke="black" d="M176.662,-146.969C173.384,-147.23 169.984,-147.5 166.587,-147.771"/>
<polygon fill="black" stroke="black" points="166.491,-147.778 166.213,-144.29 156.523,-148.572 166.491,-147.778"/>
</g>
<!-- de&#45;&gt;la -->
<g id="edge74" class="edge"><title>de&#45;&gt;la</title>
<path fill="none" stroke="black" d="M125.644,-168.807C126.576,-173.64 128.496,-178.804 131.043,-183.594"/>
<polygon fill="black" stroke="black" points="131.164,-183.78 128.231,-185.69 136.621,-192.16 131.164,-183.78"/>
</g>
<!-- de&#45;&gt;la -->
<g id="edge79" class="edge"><title>de&#45;&gt;la</title>
<path fill="none" stroke="black" d="M151.326,-159.714C154.426,-163.617 157.153,-168.291 159.179,-173.096"/>
<polygon fill="black" stroke="black" points="159.271,-173.391 155.93,-174.433 162.248,-182.938 159.271,-173.391"/>
</g>
<!-- de&#45;&gt;la -->
<g id="edge85" class="edge"><title>de&#45;&gt;la</title>
<path fill="none" stroke="black" d="M140.354,-168.877C141.245,-170.619 142.161,-172.409 143.083,-174.21"/>
<polygon fill="black" stroke="black" points="143.098,-174.241 139.982,-175.835 147.654,-183.143 143.098,-174.241"/>
</g>
<!-- leur -->
<g id="node14" class="node"><title>leur</title>
<polygon fill="black" stroke="black" points="228.702,-163.173 215.202,-181.173 188.202,-181.173 174.702,-163.173 188.202,-145.173 215.202,-145.173 228.702,-163.173"/>
<text text-anchor="middle" x="201.702" y="-160.673" font-family="Ume P Gothic Balsa" font-size="10.00" fill="white">leur</text>
</g>
<!-- de&#45;&gt;leur -->
<g id="edge14" class="edge"><title>de&#45;&gt;leur</title>
<path fill="none" stroke="black" d="M154.938,-154.859C159.084,-155.596 163.465,-156.375 167.816,-157.148"/>
<polygon fill="black" stroke="black" points="167.946,-157.171 167.333,-160.617 177.791,-158.922 167.946,-157.171"/>
</g>
<!-- l -->
<g id="node18" class="node"><title>l</title>
<polygon fill="black" stroke="black" points="190.245,-102.615 176.745,-120.615 149.745,-120.615 136.245,-102.615 149.745,-84.6147 176.745,-84.6147 190.245,-102.615"/>
<text text-anchor="middle" x="163.245" y="-100.115" font-family="Ume P Gothic Balsa" font-size="10.00" fill="white">l</text>
</g>
<!-- de&#45;&gt;l -->
<g id="edge50" class="edge"><title>de&#45;&gt;l</title>
<path fill="none" stroke="black" d="M143.192,-132.461C143.914,-131.386 144.648,-130.295 145.386,-129.196"/>
<polygon fill="black" stroke="black" points="145.462,-129.084 148.367,-131.035 151.039,-120.783 145.462,-129.084"/>
</g>
<!-- cette -->
<g id="node20" class="node"><title>cette</title>
<polygon fill="black" stroke="black" points="102.062,-136.947 88.5625,-154.947 61.5625,-154.947 48.0625,-136.947 61.5625,-118.947 88.5625,-118.947 102.062,-136.947"/>
<text text-anchor="middle" x="75.0625" y="-134.447" font-family="Ume P Gothic Balsa" font-size="10.00" fill="white">cette</text>
</g>
<!-- de&#45;&gt;cette -->
<g id="edge21" class="edge"><title>de&#45;&gt;cette</title>
<path fill="none" stroke="black" d="M107.927,-144.97C107.825,-144.946 107.723,-144.921 107.622,-144.896"/>
<polygon fill="black" stroke="black" points="107.8,-144.94 108.63,-141.539 98.0854,-142.568 107.8,-144.94"/>
</g>
<!-- fusion -->
<g id="node37" class="node"><title>fusion</title>
<polygon fill="black" stroke="black" points="236.986,-92.2943 223.486,-110.294 196.486,-110.294 182.986,-92.2943 196.486,-74.2943 223.486,-74.2943 236.986,-92.2943"/>
<text text-anchor="middle" x="209.986" y="-89.7943" font-family="Ume P Gothic Balsa" font-size="10.00" fill="white">fusion</text>
</g>
<!-- de&#45;&gt;fusion -->
<g id="edge42" class="edge"><title>de&#45;&gt;fusion</title>
<path fill="none" stroke="black" d="M148.532,-137.663C159.064,-129.887 172.653,-119.856 184.373,-111.203"/>
<polygon fill="black" stroke="black" points="184.461,-111.138 186.54,-113.954 192.506,-105.199 184.461,-111.138"/>
</g>
<!-- Charleroi -->
<g id="node68" class="node"><title>Charleroi</title>
<polygon fill="black" stroke="black" points="209.191,-226.329 195.691,-244.329 168.691,-244.329 155.191,-226.329 168.691,-208.329 195.691,-208.329 209.191,-226.329"/>
<text text-anchor="middle" x="182.191" y="-223.829" font-family="Ume P Gothic Balsa" font-size="10.00" fill="white">Charleroi</text>
</g>
<!-- de&#45;&gt;Charleroi -->
<g id="edge91" class="edge"><title>de&#45;&gt;Charleroi</title>
<path fill="none" stroke="black" d="M143.394,-168.935C149.619,-178.143 157.278,-189.474 164.142,-199.629"/>
<polygon fill="black" stroke="black" points="164.314,-199.882 161.414,-201.842 169.914,-208.167 164.314,-199.882"/>
</g>
<!-- vie -->
<g id="node15" class="node"><title>vie</title>
<polygon fill="black" stroke="black" points="201.248,-84.7232 187.748,-102.723 160.748,-102.723 147.248,-84.7232 160.748,-66.7232 187.748,-66.7232 201.248,-84.7232"/>
<text text-anchor="middle" x="174.248" y="-82.2232" font-family="Ume P Gothic Balsa" font-size="10.00" fill="white">vie</text>
</g>
<!-- leur&#45;&gt;vie -->
<g id="edge15" class="edge"><title>leur&#45;&gt;vie</title>
<path fill="none" stroke="black" d="M195.334,-144.978C191.939,-135.274 187.69,-123.133 183.898,-112.297"/>
<polygon fill="black" stroke="black" points="183.884,-112.258 187.188,-111.102 180.581,-102.82 183.884,-112.258"/>
</g>
<!-- rencontre -->
<g id="node30" class="node"><title>rencontre</title>
<polygon fill="black" stroke="black" points="264.475,-94.0376 250.975,-112.038 223.975,-112.038 210.475,-94.0376 223.975,-76.0376 250.975,-76.0376 264.475,-94.0376"/>
<text text-anchor="middle" x="237.475" y="-91.5376" font-family="Ume P Gothic Balsa" font-size="10.00" fill="white">rencontre</text>
</g>
<!-- leur&#45;&gt;rencontre -->
<g id="edge34" class="edge"><title>leur&#45;&gt;rencontre</title>
<path fill="none" stroke="black" d="M211.101,-145.008C214.851,-137.762 219.248,-129.264 223.365,-121.306"/>
<polygon fill="black" stroke="black" points="223.419,-121.202 226.528,-122.811 228.015,-112.321 223.419,-121.202"/>
</g>
<!-- En -->
<g id="node16" class="node"><title>En</title>
<polygon fill="black" stroke="black" points="270.674,-48.1715 257.174,-66.1715 230.174,-66.1715 216.674,-48.1715 230.174,-30.1715 257.174,-30.1715 270.674,-48.1715"/>
<text text-anchor="middle" x="243.674" y="-45.6715" font-family="Ume P Gothic Balsa" font-size="10.00" fill="white">En</text>
</g>
<!-- vie&#45;&gt;En -->
<g id="edge16" class="edge"><title>vie&#45;&gt;En</title>
<path fill="none" stroke="black" d="M193.957,-74.3467C200.461,-70.9223 207.836,-67.0396 214.876,-63.3331"/>
<polygon fill="black" stroke="black" points="215.307,-63.1061 216.938,-66.2031 224.156,-58.4474 215.307,-63.1061"/>
</g>
<!-- retraçant -->
<g id="node17" class="node"><title>retraçant</title>
<polygon fill="black" stroke="black" points="193.151,-36.8247 179.651,-54.8247 152.651,-54.8247 139.151,-36.8247 152.651,-18.8247 179.651,-18.8247 193.151,-36.8247"/>
<text text-anchor="middle" x="166.151" y="-34.3247" font-family="Ume P Gothic Balsa" font-size="10.00" fill="white">retraçant</text>
</g>
<!-- En&#45;&gt;retraçant -->
<g id="edge17" class="edge"><title>En&#45;&gt;retraçant</title>
<path fill="none" stroke="black" d="M219.145,-44.5813C213.291,-43.7244 206.934,-42.794 200.723,-41.8848"/>
<polygon fill="black" stroke="black" points="200.415,-41.8398 200.922,-38.3767 190.52,-40.3915 200.415,-41.8398"/>
</g>
<!-- retraçant&#45;&gt;l -->
<g id="edge18" class="edge"><title>retraçant&#45;&gt;l</title>
<path fill="none" stroke="black" d="M165.342,-55.1509C165.083,-60.9966 164.791,-67.6115 164.509,-74.0066"/>
<polygon fill="black" stroke="black" points="164.492,-74.3965 160.995,-74.2421 164.05,-84.3868 164.492,-74.3965"/>
</g>
<!-- évolution -->
<g id="node19" class="node"><title>évolution</title>
<polygon fill="black" stroke="black" points="211.185,-183.061 197.685,-201.061 170.685,-201.061 157.185,-183.061 170.685,-165.061 197.685,-165.061 211.185,-183.061"/>
<text text-anchor="middle" x="184.185" y="-180.561" font-family="Ume P Gothic Balsa" font-size="10.00" fill="white">évolution</text>
</g>
<!-- l&#45;&gt;évolution -->
<g id="edge19" class="edge"><title>l&#45;&gt;évolution</title>
<path fill="none" stroke="black" d="M167.997,-120.869C170.621,-130.949 173.936,-143.684 176.881,-155.001"/>
<polygon fill="black" stroke="black" points="176.933,-155.201 173.546,-156.083 179.453,-164.878 176.933,-155.201"/>
</g>
<!-- être -->
<g id="node42" class="node"><title>être</title>
<polygon fill="black" stroke="black" points="114.609,-108.037 101.109,-126.037 74.1092,-126.037 60.6092,-108.037 74.1092,-90.0366 101.109,-90.0366 114.609,-108.037"/>
<text text-anchor="middle" x="87.6092" y="-105.537" font-family="Ume P Gothic Balsa" font-size="10.00" fill="white">être</text>
</g>
<!-- l&#45;&gt;être -->
<g id="edge51" class="edge"><title>l&#45;&gt;être</title>
<path fill="none" stroke="black" d="M137.216,-104.481C132.769,-104.799 128.08,-105.135 123.432,-105.469"/>
<polygon fill="black" stroke="black" points="123.405,-105.471 123.155,-101.979 113.431,-106.186 123.405,-105.471"/>
</g>
<!-- évolution&#45;&gt;de -->
<g id="edge20" class="edge"><title>évolution&#45;&gt;de</title>
<path fill="none" stroke="black" d="M165.585,-171.709C163.25,-170.284 160.825,-168.804 158.391,-167.319"/>
<polygon fill="black" stroke="black" points="158.219,-167.214 160.042,-164.226 149.683,-162.004 158.219,-167.214"/>
</g>
<!-- longue -->
<g id="node21" class="node"><title>longue</title>
<polygon fill="black" stroke="black" points="176.256,-149.007 162.756,-167.007 135.756,-167.007 122.256,-149.007 135.756,-131.007 162.756,-131.007 176.256,-149.007"/>
<text text-anchor="middle" x="149.256" y="-146.507" font-family="Ume P Gothic Balsa" font-size="10.00" fill="white">longue</text>
</g>
<!-- cette&#45;&gt;longue -->
<g id="edge22" class="edge"><title>cette&#45;&gt;longue</title>
<path fill="none" stroke="black" d="M99.3563,-140.896C104.404,-141.717 109.812,-142.596 115.138,-143.461"/>
<polygon fill="black" stroke="black" points="115.291,-143.486 114.729,-146.941 125.161,-145.09 115.291,-143.486"/>
</g>
<!-- histoire -->
<g id="node22" class="node"><title>histoire</title>
<polygon fill="black" stroke="black" points="255.951,-184.895 242.451,-202.895 215.451,-202.895 201.951,-184.895 215.451,-166.895 242.451,-166.895 255.951,-184.895"/>
<text text-anchor="middle" x="228.951" y="-182.395" font-family="Ume P Gothic Balsa" font-size="10.00" fill="white">histoire</text>
</g>
<!-- longue&#45;&gt;histoire -->
<g id="edge23" class="edge"><title>longue&#45;&gt;histoire</title>
<path fill="none" stroke="black" d="M169.78,-158.249C178.704,-162.268 189.334,-167.055 199.106,-171.455"/>
<polygon fill="black" stroke="black" points="199.379,-171.578 197.942,-174.77 208.497,-175.684 199.379,-171.578"/>
</g>
<!-- histoire&#45;&gt;d -->
<g id="edge24" class="edge"><title>histoire&#45;&gt;d</title>
<path fill="none" stroke="black" d="M209.506,-174.467C209.309,-174.361 209.111,-174.254 208.912,-174.148"/>
<polygon fill="black" stroke="black" points="208.719,-174.044 210.373,-170.96 199.906,-169.318 208.719,-174.044"/>
</g>
<!-- on -->
<g id="node24" class="node"><title>on</title>
<polygon fill="black" stroke="black" points="326.632,-245.594 313.132,-263.594 286.132,-263.594 272.632,-245.594 286.132,-227.594 313.132,-227.594 326.632,-245.594"/>
<text text-anchor="middle" x="299.632" y="-243.094" font-family="Ume P Gothic Balsa" font-size="10.00" fill="white">on</text>
</g>
<!-- amour&#45;&gt;on -->
<g id="edge26" class="edge"><title>amour&#45;&gt;on</title>
<path fill="none" stroke="black" d="M245.949,-217.277C253.738,-221.386 262.844,-226.189 271.321,-230.66"/>
<polygon fill="black" stroke="black" points="271.334,-230.667 269.701,-233.763 280.179,-235.333 271.334,-230.667"/>
</g>
<!-- explore -->
<g id="node25" class="node"><title>explore</title>
<polygon fill="black" stroke="black" points="362.243,-187.3 348.743,-205.3 321.743,-205.3 308.243,-187.3 321.743,-169.3 348.743,-169.3 362.243,-187.3"/>
<text text-anchor="middle" x="335.243" y="-184.8" font-family="Ume P Gothic Balsa" font-size="10.00" fill="white">explore</text>
</g>
<!-- on&#45;&gt;explore -->
<g id="edge27" class="edge"><title>on&#45;&gt;explore</title>
<path fill="none" stroke="black" d="M310.704,-227.469C313.226,-223.341 315.959,-218.868 318.654,-214.455"/>
<polygon fill="black" stroke="black" points="318.842,-214.148 321.828,-215.973 324.055,-205.615 318.842,-214.148"/>
</g>
<!-- explore&#45;&gt;un -->
<g id="edge28" class="edge"><title>explore&#45;&gt;un</title>
<path fill="none" stroke="black" d="M310.053,-184.619C303.5,-183.921 296.318,-183.156 289.353,-182.415"/>
<polygon fill="black" stroke="black" points="289.345,-182.414 289.716,-178.934 279.402,-181.355 289.345,-182.414"/>
</g>
<!-- clos -->
<g id="node27" class="node"><title>clos</title>
<polygon fill="black" stroke="black" points="342.604,-285.696 329.104,-303.696 302.104,-303.696 288.604,-285.696 302.104,-267.696 329.104,-267.696 342.604,-285.696"/>
<text text-anchor="middle" x="315.604" y="-283.196" font-family="Ume P Gothic Balsa" font-size="10.00" fill="white">clos</text>
</g>
<!-- lieu&#45;&gt;clos -->
<g id="edge30" class="edge"><title>lieu&#45;&gt;clos</title>
<path fill="none" stroke="black" d="M313.198,-233.698C313.532,-240.912 313.924,-249.395 314.294,-257.392"/>
<polygon fill="black" stroke="black" points="314.299,-257.489 310.802,-257.651 314.761,-267.478 314.299,-257.489"/>
</g>
<!-- intime -->
<g id="node28" class="node"><title>intime</title>
<polygon fill="black" stroke="black" points="318.956,-198.511 305.456,-216.511 278.456,-216.511 264.956,-198.511 278.456,-180.511 305.456,-180.511 318.956,-198.511"/>
<text text-anchor="middle" x="291.956" y="-196.011" font-family="Ume P Gothic Balsa" font-size="10.00" fill="white">intime</text>
</g>
<!-- clos&#45;&gt;intime -->
<g id="edge31" class="edge"><title>clos&#45;&gt;intime</title>
<path fill="none" stroke="black" d="M310.704,-267.631C307.47,-255.708 303.169,-239.85 299.502,-226.331"/>
<polygon fill="black" stroke="black" points="299.468,-226.204 302.845,-225.288 296.85,-216.553 299.468,-226.204"/>
</g>
<!-- De -->
<g id="node29" class="node"><title>De</title>
<polygon fill="black" stroke="black" points="259.733,-243.828 246.233,-261.828 219.233,-261.828 205.733,-243.828 219.233,-225.828 246.233,-225.828 259.733,-243.828"/>
<text text-anchor="middle" x="232.733" y="-241.328" font-family="Ume P Gothic Balsa" font-size="10.00" fill="white">De</text>
</g>
<!-- intime&#45;&gt;De -->
<g id="edge32" class="edge"><title>intime&#45;&gt;De</title>
<path fill="none" stroke="black" d="M274.508,-211.862C269.492,-215.7 263.913,-219.97 258.507,-224.106"/>
<polygon fill="black" stroke="black" points="258.203,-224.339 256.076,-221.559 250.262,-230.416 258.203,-224.339"/>
</g>
<!-- De&#45;&gt;leur -->
<g id="edge33" class="edge"><title>De&#45;&gt;leur</title>
<path fill="none" stroke="black" d="M225.692,-225.526C221.764,-215.317 216.791,-202.391 212.392,-190.959"/>
<polygon fill="black" stroke="black" points="212.306,-190.735 215.573,-189.478 208.716,-181.402 212.306,-190.735"/>
</g>
<!-- aux -->
<g id="node31" class="node"><title>aux</title>
<polygon fill="black" stroke="black" points="340.083,-105.431 326.583,-123.431 299.583,-123.431 286.083,-105.431 299.583,-87.4312 326.583,-87.4312 340.083,-105.431"/>
<text text-anchor="middle" x="313.083" y="-102.931" font-family="Ume P Gothic Balsa" font-size="10.00" fill="white">aux</text>
</g>
<!-- rencontre&#45;&gt;aux -->
<g id="edge35" class="edge"><title>rencontre&#45;&gt;aux</title>
<path fill="none" stroke="black" d="M261.814,-97.7053C267.21,-98.5185 273.028,-99.3951 278.738,-100.256"/>
<polygon fill="black" stroke="black" points="278.901,-100.28 278.38,-103.741 288.79,-101.77 278.901,-100.28"/>
</g>
<!-- premiers -->
<g id="node32" class="node"><title>premiers</title>
<polygon fill="black" stroke="black" points="314.421,-169.638 300.921,-187.638 273.921,-187.638 260.421,-169.638 273.921,-151.638 300.921,-151.638 314.421,-169.638"/>
<text text-anchor="middle" x="287.421" y="-167.138" font-family="Ume P Gothic Balsa" font-size="10.00" fill="white">premiers</text>
</g>
<!-- aux&#45;&gt;premiers -->
<g id="edge36" class="edge"><title>aux&#45;&gt;premiers</title>
<path fill="none" stroke="black" d="M305.798,-123.659C303.503,-129.401 300.915,-135.876 298.421,-142.116"/>
<polygon fill="black" stroke="black" points="298.347,-142.302 295.097,-141.003 294.636,-151.588 298.347,-142.302"/>
</g>
<!-- émois -->
<g id="node33" class="node"><title>émois</title>
<polygon fill="black" stroke="black" points="242.946,-118.049 229.446,-136.049 202.446,-136.049 188.946,-118.049 202.446,-100.049 229.446,-100.049 242.946,-118.049"/>
<text text-anchor="middle" x="215.946" y="-115.549" font-family="Ume P Gothic Balsa" font-size="10.00" fill="white">émois</text>
</g>
<!-- premiers&#45;&gt;émois -->
<g id="edge37" class="edge"><title>premiers&#45;&gt;émois</title>
<path fill="none" stroke="black" d="M269.753,-156.886C261.397,-150.855 251.253,-143.533 242.035,-136.879"/>
<polygon fill="black" stroke="black" points="242.016,-136.866 244.064,-134.028 233.907,-131.013 242.016,-136.866"/>
</g>
<!-- du -->
<g id="node34" class="node"><title>du</title>
<polygon fill="black" stroke="black" points="166.811,-109.591 153.311,-127.591 126.311,-127.591 112.811,-109.591 126.311,-91.591 153.311,-91.591 166.811,-109.591"/>
<text text-anchor="middle" x="139.811" y="-107.091" font-family="Ume P Gothic Balsa" font-size="10.00" fill="white">du</text>
</g>
<!-- émois&#45;&gt;du -->
<g id="edge38" class="edge"><title>émois&#45;&gt;du</title>
<path fill="none" stroke="black" d="M191.016,-115.28C185.889,-114.71 180.4,-114.1 174.989,-113.499"/>
<polygon fill="black" stroke="black" points="174.735,-113.471 175.122,-109.992 164.796,-112.367 174.735,-113.471"/>
</g>
<!-- désir -->
<g id="node35" class="node"><title>désir</title>
<polygon fill="black" stroke="black" points="116.995,-151.361 103.495,-169.361 76.4952,-169.361 62.9952,-151.361 76.4952,-133.361 103.495,-133.361 116.995,-151.361"/>
<text text-anchor="middle" x="89.9952" y="-148.861" font-family="Ume P Gothic Balsa" font-size="10.00" fill="white">désir</text>
</g>
<!-- du&#45;&gt;désir -->
<g id="edge39" class="edge"><title>du&#45;&gt;désir</title>
<path fill="none" stroke="black" d="M123.223,-123.5C120.396,-125.87 117.408,-128.376 114.429,-130.874"/>
<polygon fill="black" stroke="black" points="114.343,-130.945 112.095,-128.263 106.681,-137.37 114.343,-130.945"/>
</g>
<!-- irrépressible -->
<g id="node36" class="node"><title>irrépressible</title>
<polygon fill="black" stroke="black" points="158.756,-234.212 142.449,-252.212 109.836,-252.212 93.5293,-234.212 109.836,-216.212 142.449,-216.212 158.756,-234.212"/>
<text text-anchor="middle" x="126.143" y="-231.712" font-family="Ume P Gothic Balsa" font-size="10.00" fill="white">irrépressible</text>
</g>
<!-- désir&#45;&gt;irrépressible -->
<g id="edge40" class="edge"><title>désir&#45;&gt;irrépressible</title>
<path fill="none" stroke="black" d="M98.0175,-169.748C102.777,-180.657 108.9,-194.691 114.217,-206.878"/>
<polygon fill="black" stroke="black" points="114.268,-206.995 111.06,-208.395 118.267,-216.161 114.268,-206.995"/>
</g>
<!-- irrépressible&#45;&gt;de -->
<g id="edge41" class="edge"><title>irrépressible&#45;&gt;de</title>
<path fill="none" stroke="black" d="M127.197,-216.07C127.828,-205.224 128.642,-191.208 129.356,-178.93"/>
<polygon fill="black" stroke="black" points="129.37,-178.693 132.864,-178.896 129.95,-168.71 129.37,-178.693"/>
</g>
<!-- antidote -->
<g id="node38" class="node"><title>antidote</title>
<polygon fill="black" stroke="black" points="282.402,-145.917 268.902,-163.917 241.902,-163.917 228.402,-145.917 241.902,-127.917 268.902,-127.917 282.402,-145.917"/>
<text text-anchor="middle" x="255.402" y="-143.417" font-family="Ume P Gothic Balsa" font-size="10.00" fill="white">antidote</text>
</g>
<!-- fusion&#45;&gt;antidote -->
<g id="edge43" class="edge"><title>fusion&#45;&gt;antidote</title>
<path fill="none" stroke="black" d="M224.356,-109.261C227.504,-112.977 230.9,-116.987 234.25,-120.943"/>
<polygon fill="black" stroke="black" points="234.507,-121.246 231.836,-123.508 240.97,-128.877 234.507,-121.246"/>
</g>
<!-- provisoire -->
<g id="node39" class="node"><title>provisoire</title>
<polygon fill="black" stroke="black" points="227.486,-214.626 213.986,-232.626 186.986,-232.626 173.486,-214.626 186.986,-196.626 213.986,-196.626 227.486,-214.626"/>
<text text-anchor="middle" x="200.486" y="-212.126" font-family="Ume P Gothic Balsa" font-size="10.00" fill="white">provisoire</text>
</g>
<!-- antidote&#45;&gt;provisoire -->
<g id="edge44" class="edge"><title>antidote&#45;&gt;provisoire</title>
<path fill="none" stroke="black" d="M241.26,-163.611C235.158,-171.246 227.899,-180.328 221.208,-188.699"/>
<polygon fill="black" stroke="black" points="221.015,-188.941 218.281,-186.756 214.771,-196.753 221.015,-188.941"/>
</g>
<!-- provisoire&#45;&gt;à -->
<g id="edge45" class="edge"><title>provisoire&#45;&gt;à</title>
<path fill="none" stroke="black" d="M206.829,-196.424C208.826,-190.691 211.08,-184.225 213.251,-177.994"/>
<polygon fill="black" stroke="black" points="213.256,-177.979 216.561,-179.13 216.546,-168.536 213.256,-177.979"/>
</g>
<!-- intrinsèque -->
<g id="node41" class="node"><title>intrinsèque</title>
<polygon fill="black" stroke="black" points="123.451,-205.241 108.873,-223.241 79.7152,-223.241 65.1366,-205.241 79.7152,-187.241 108.873,-187.241 123.451,-205.241"/>
<text text-anchor="middle" x="94.2939" y="-202.741" font-family="Ume P Gothic Balsa" font-size="10.00" fill="white">intrinsèque</text>
</g>
<!-- solitude&#45;&gt;intrinsèque -->
<g id="edge48" class="edge"><title>solitude&#45;&gt;intrinsèque</title>
<path fill="none" stroke="black" d="M124.379,-251.116C120.443,-245.114 115.981,-238.309 111.72,-231.813"/>
<polygon fill="black" stroke="black" points="111.589,-231.613 114.516,-229.693 106.105,-223.25 111.589,-231.613"/>
</g>
<!-- intrinsèque&#45;&gt;de -->
<g id="edge49" class="edge"><title>intrinsèque&#45;&gt;de</title>
<path fill="none" stroke="black" d="M106.517,-187.047C108.6,-183.947 110.803,-180.669 112.998,-177.402"/>
<polygon fill="black" stroke="black" points="113.131,-177.204 116.036,-179.156 118.707,-168.904 113.131,-177.204"/>
</g>
<!-- jusqu -->
<g id="node43" class="node"><title>jusqu</title>
<polygon fill="black" stroke="black" points="173.499,-128.092 159.999,-146.092 132.999,-146.092 119.499,-128.092 132.999,-110.092 159.999,-110.092 173.499,-128.092"/>
<text text-anchor="middle" x="146.499" y="-125.592" font-family="Ume P Gothic Balsa" font-size="10.00" fill="white">jusqu</text>
</g>
<!-- être&#45;&gt;jusqu -->
<g id="edge52" class="edge"><title>être&#45;&gt;jusqu</title>
<path fill="none" stroke="black" d="M109.203,-115.39C111.124,-116.044 113.092,-116.715 115.072,-117.389"/>
<polygon fill="black" stroke="black" points="115.442,-117.515 114.313,-120.828 124.908,-120.739 115.442,-117.515"/>
</g>
<!-- jusqu&#45;&gt;à -->
<g id="edge53" class="edge"><title>jusqu&#45;&gt;à</title>
<path fill="none" stroke="black" d="M168.987,-134.697C175.82,-136.704 183.464,-138.949 190.797,-141.103"/>
<polygon fill="black" stroke="black" points="190.905,-141.135 189.919,-144.493 200.5,-143.953 190.905,-141.135"/>
</g>
<!-- dissolution&#45;&gt;la -->
<g id="edge56" class="edge"><title>dissolution&#45;&gt;la</title>
<path fill="none" stroke="black" d="M124.66,-254.881C131.684,-247.192 139.448,-237.202 145.69,-227.902"/>
<polygon fill="black" stroke="black" points="145.788,-227.746 148.746,-229.617 151.134,-219.295 145.788,-227.746"/>
</g>
<!-- et -->
<g id="node46" class="node"><title>et</title>
<polygon fill="black" stroke="black" points="280.024,-205.15 266.524,-223.15 239.524,-223.15 226.024,-205.15 239.524,-187.15 266.524,-187.15 280.024,-205.15"/>
<text text-anchor="middle" x="253.024" y="-202.65" font-family="Ume P Gothic Balsa" font-size="10.00" fill="white">et</text>
</g>
<!-- vieillesse&#45;&gt;et -->
<g id="edge58" class="edge"><title>vieillesse&#45;&gt;et</title>
<path fill="none" stroke="black" d="M198.015,-251.868C207.145,-244.114 218.639,-234.353 228.756,-225.761"/>
<polygon fill="black" stroke="black" points="228.881,-225.655 231.147,-228.322 236.503,-219.181 228.881,-225.655"/>
</g>
<!-- et&#45;&gt;la -->
<g id="edge59" class="edge"><title>et&#45;&gt;la</title>
<path fill="none" stroke="black" d="M226.759,-204.076C216.481,-203.656 204.516,-203.167 193.423,-202.713"/>
<polygon fill="black" stroke="black" points="193.129,-202.701 193.272,-199.204 183.138,-202.293 193.129,-202.701"/>
</g>
<!-- interprétation -->
<g id="node49" class="node"><title>interprétation</title>
<polygon fill="black" stroke="black" points="346.602,-151.768 328.566,-169.768 292.493,-169.768 274.457,-151.768 292.493,-133.768 328.566,-133.768 346.602,-151.768"/>
<text text-anchor="middle" x="310.53" y="-149.268" font-family="Ume P Gothic Balsa" font-size="10.00" fill="white">interprétation</text>
</g>
<!-- et&#45;&gt;interprétation -->
<g id="edge63" class="edge"><title>et&#45;&gt;interprétation</title>
<path fill="none" stroke="black" d="M269.043,-190.28C273.777,-185.886 279.087,-180.956 284.288,-176.129"/>
<polygon fill="black" stroke="black" points="284.419,-176.007 286.8,-178.572 291.748,-169.203 284.419,-176.007"/>
</g>
<!-- Jorge -->
<g id="node53" class="node"><title>Jorge</title>
<polygon fill="black" stroke="black" points="309.876,-280.617 296.376,-298.617 269.376,-298.617 255.876,-280.617 269.376,-262.617 296.376,-262.617 309.876,-280.617"/>
<text text-anchor="middle" x="282.876" y="-278.117" font-family="Ume P Gothic Balsa" font-size="10.00" fill="white">Jorge</text>
</g>
<!-- et&#45;&gt;Jorge -->
<g id="edge68" class="edge"><title>et&#45;&gt;Jorge</title>
<path fill="none" stroke="black" d="M260.251,-223.419C263.771,-232.318 268.078,-243.206 271.986,-253.085"/>
<polygon fill="black" stroke="black" points="272.038,-253.218 268.784,-254.506 275.717,-262.517 272.038,-253.218"/>
</g>
<!-- le -->
<g id="node66" class="node"><title>le</title>
<polygon fill="black" stroke="black" points="305.732,-138.369 292.232,-156.369 265.232,-156.369 251.732,-138.369 265.232,-120.369 292.232,-120.369 305.732,-138.369"/>
<text text-anchor="middle" x="278.732" y="-135.869" font-family="Ume P Gothic Balsa" font-size="10.00" fill="white">le</text>
</g>
<!-- et&#45;&gt;le -->
<g id="edge88" class="edge"><title>et&#45;&gt;le</title>
<path fill="none" stroke="black" d="M260.049,-186.902C262.486,-180.571 265.278,-173.319 267.948,-166.384"/>
<polygon fill="black" stroke="black" points="268.123,-165.928 271.39,-167.185 271.716,-156.596 268.123,-165.928"/>
</g>
<!-- Chorégraphie -->
<g id="node48" class="node"><title>Chorégraphie</title>
<polygon fill="black" stroke="black" points="283.205,-122.124 266.488,-140.124 233.054,-140.124 216.337,-122.124 233.054,-104.124 266.488,-104.124 283.205,-122.124"/>
<text text-anchor="middle" x="249.771" y="-119.624" font-family="Ume P Gothic Balsa" font-size="10.00" fill="white">Chorégraphie</text>
</g>
<!-- mort&#45;&gt;Chorégraphie -->
<g id="edge61" class="edge"><title>mort&#45;&gt;Chorégraphie</title>
<path fill="none" stroke="black" d="M199.208,-132.579C203.051,-131.785 207.12,-130.943 211.215,-130.097"/>
<polygon fill="black" stroke="black" points="211.54,-130.03 212.248,-133.457 221.332,-128.005 211.54,-130.03"/>
</g>
<!-- Chorégraphie&#45;&gt;et -->
<g id="edge62" class="edge"><title>Chorégraphie&#45;&gt;et</title>
<path fill="none" stroke="black" d="M250.477,-140.14C250.896,-150.837 251.437,-164.638 251.912,-176.771"/>
<polygon fill="black" stroke="black" points="251.917,-176.891 248.42,-177.028 252.309,-186.883 251.917,-176.891"/>
</g>
<!-- Éléonore -->
<g id="node50" class="node"><title>Éléonore</title>
<polygon fill="black" stroke="black" points="379.62,-218.006 366.12,-236.006 339.12,-236.006 325.62,-218.006 339.12,-200.006 366.12,-200.006 379.62,-218.006"/>
<text text-anchor="middle" x="352.62" y="-215.506" font-family="Ume P Gothic Balsa" font-size="10.00" fill="white">Éléonore</text>
</g>
<!-- interprétation&#45;&gt;Éléonore -->
<g id="edge64" class="edge"><title>interprétation&#45;&gt;Éléonore</title>
<path fill="none" stroke="black" d="M322.031,-169.867C326.207,-176.439 331.019,-184.012 335.572,-191.176"/>
<polygon fill="black" stroke="black" points="335.769,-191.487 332.815,-193.365 341.133,-199.928 335.769,-191.487"/>
</g>
<!-- Valère -->
<g id="node51" class="node"><title>Valère</title>
<polygon fill="black" stroke="black" points="305.186,-231.289 291.686,-249.289 264.686,-249.289 251.186,-231.289 264.686,-213.289 291.686,-213.289 305.186,-231.289"/>
<text text-anchor="middle" x="278.186" y="-228.789" font-family="Ume P Gothic Balsa" font-size="10.00" fill="white">Valère</text>
</g>
<!-- Éléonore&#45;&gt;Valère -->
<g id="edge65" class="edge"><title>Éléonore&#45;&gt;Valère</title>
<path fill="none" stroke="black" d="M328.659,-222.282C323.347,-223.23 317.62,-224.252 311.997,-225.255"/>
<polygon fill="black" stroke="black" points="311.947,-225.264 311.332,-221.819 302.102,-227.021 311.947,-225.264"/>
</g>
<!-- Lachky -->
<g id="node52" class="node"><title>Lachky</title>
<polygon fill="black" stroke="black" points="268.809,-294.366 255.309,-312.366 228.309,-312.366 214.809,-294.366 228.309,-276.366 255.309,-276.366 268.809,-294.366"/>
<text text-anchor="middle" x="241.809" y="-291.866" font-family="Ume P Gothic Balsa" font-size="10.00" fill="white">Lachky</text>
</g>
<!-- Valère&#45;&gt;Lachky -->
<g id="edge66" class="edge"><title>Valère&#45;&gt;Lachky</title>
<path fill="none" stroke="black" d="M267.664,-249.534C264.525,-254.978 261.012,-261.069 257.612,-266.964"/>
<polygon fill="black" stroke="black" points="257.429,-267.282 254.397,-265.533 252.433,-275.944 257.429,-267.282"/>
</g>
<!-- Lachky&#45;&gt;et -->
<g id="edge67" class="edge"><title>Lachky&#45;&gt;et</title>
<path fill="none" stroke="black" d="M244.079,-276.312C245.629,-263.978 247.715,-247.384 249.483,-233.324"/>
<polygon fill="black" stroke="black" points="249.511,-233.1 252.984,-233.536 250.758,-223.178 249.511,-233.1"/>
</g>
<!-- Jauregi -->
<g id="node54" class="node"><title>Jauregi</title>
<polygon fill="black" stroke="black" points="233.981,-300.031 220.481,-318.031 193.481,-318.031 179.981,-300.031 193.481,-282.031 220.481,-282.031 233.981,-300.031"/>
<text text-anchor="middle" x="206.981" y="-297.531" font-family="Ume P Gothic Balsa" font-size="10.00" fill="white">Jauregi</text>
</g>
<!-- Jorge&#45;&gt;Jauregi -->
<g id="edge69" class="edge"><title>Jorge&#45;&gt;Jauregi</title>
<path fill="none" stroke="black" d="M260.105,-286.442C253.651,-288.093 246.496,-289.923 239.582,-291.691"/>
<polygon fill="black" stroke="black" points="239.424,-291.732 238.557,-288.341 229.736,-294.21 239.424,-291.732"/>
</g>
<!-- Allue -->
<g id="node55" class="node"><title>Allue</title>
<polygon fill="black" stroke="black" points="179.883,-249.116 166.383,-267.116 139.383,-267.116 125.883,-249.116 139.383,-231.116 166.383,-231.116 179.883,-249.116"/>
<text text-anchor="middle" x="152.883" y="-246.616" font-family="Ume P Gothic Balsa" font-size="10.00" fill="white">Allue</text>
</g>
<!-- Jauregi&#45;&gt;Allue -->
<g id="edge70" class="edge"><title>Jauregi&#45;&gt;Allue</title>
<path fill="none" stroke="black" d="M191.042,-285.03C186.461,-280.718 181.365,-275.921 176.427,-271.274"/>
<polygon fill="black" stroke="black" points="176.177,-271.039 178.576,-268.49 168.895,-264.185 176.177,-271.039"/>
</g>
<!-- Une -->
<g id="node56" class="node"><title>Une</title>
<polygon fill="black" stroke="black" points="146.024,-181.29 132.524,-199.29 105.524,-199.29 92.0244,-181.29 105.524,-163.29 132.524,-163.29 146.024,-181.29"/>
<text text-anchor="middle" x="119.024" y="-178.79" font-family="Ume P Gothic Balsa" font-size="10.00" fill="white">Une</text>
</g>
<!-- Allue&#45;&gt;Une -->
<g id="edge71" class="edge"><title>Allue&#45;&gt;Une</title>
<path fill="none" stroke="black" d="M143.81,-230.94C140.394,-224.097 136.43,-216.156 132.687,-208.659"/>
<polygon fill="black" stroke="black" points="132.59,-208.463 135.721,-206.9 128.123,-199.516 132.59,-208.463"/>
</g>
<!-- coproduction -->
<g id="node57" class="node"><title>coproduction</title>
<polygon fill="black" stroke="black" points="140.578,-90.3801 123.407,-108.38 89.0643,-108.38 71.893,-90.3801 89.0643,-72.3801 123.407,-72.3801 140.578,-90.3801"/>
<text text-anchor="middle" x="106.236" y="-87.8801" font-family="Ume P Gothic Balsa" font-size="10.00" fill="white">coproduction</text>
</g>
<!-- Une&#45;&gt;coproduction -->
<g id="edge72" class="edge"><title>Une&#45;&gt;coproduction</title>
<path fill="none" stroke="black" d="M116.436,-162.893C114.639,-150.117 112.211,-132.859 110.175,-118.384"/>
<polygon fill="black" stroke="black" points="110.169,-118.342 113.635,-117.854 108.776,-108.439 110.169,-118.342"/>
</g>
<!-- coproduction&#45;&gt;de -->
<g id="edge73" class="edge"><title>coproduction&#45;&gt;de</title>
<path fill="none" stroke="black" d="M113.666,-108.449C115.577,-113.094 117.675,-118.197 119.732,-123.199"/>
<polygon fill="black" stroke="black" points="119.773,-123.299 116.536,-124.63 123.577,-132.547 119.773,-123.299"/>
</g>
<!-- avec -->
<g id="node59" class="node"><title>avec</title>
<polygon fill="black" stroke="black" points="53.5672,-219.9 40.0672,-237.9 13.0672,-237.9 -0.432772,-219.9 13.0672,-201.9 40.0672,-201.9 53.5672,-219.9"/>
<text text-anchor="middle" x="26.5672" y="-217.4" font-family="Ume P Gothic Balsa" font-size="10.00" fill="white">avec</text>
</g>
<!-- Balsamine&#45;&gt;avec -->
<g id="edge76" class="edge"><title>Balsamine&#45;&gt;avec</title>
<path fill="none" stroke="black" d="M66.5007,-196.509C62.6129,-198.786 58.4445,-201.228 54.3204,-203.643"/>
<polygon fill="black" stroke="black" points="54.1181,-203.762 52.3491,-200.742 45.4894,-208.816 54.1181,-203.762"/>
</g>
<!-- l’aide -->
<g id="node60" class="node"><title>l’aide</title>
<polygon fill="black" stroke="black" points="117.005,-233.55 103.505,-251.55 76.5052,-251.55 63.0052,-233.55 76.5052,-215.55 103.505,-215.55 117.005,-233.55"/>
<text text-anchor="middle" x="90.0052" y="-231.05" font-family="Ume P Gothic Balsa" font-size="10.00" fill="white">l’aide</text>
</g>
<!-- avec&#45;&gt;l’aide -->
<g id="edge77" class="edge"><title>avec&#45;&gt;l’aide</title>
<path fill="none" stroke="black" d="M49.829,-224.905C52.1562,-225.406 54.549,-225.921 56.952,-226.438"/>
<polygon fill="black" stroke="black" points="56.97,-226.442 56.2337,-229.863 66.7463,-228.545 56.97,-226.442"/>
</g>
<!-- l’aide&#45;&gt;de -->
<g id="edge78" class="edge"><title>l’aide&#45;&gt;de</title>
<path fill="none" stroke="black" d="M99.1039,-215.142C104.502,-204.22 111.447,-190.17 117.477,-177.969"/>
<polygon fill="black" stroke="black" points="117.64,-177.64 120.777,-179.191 122.071,-168.675 117.64,-177.64"/>
</g>
<!-- Wallonie -->
<g id="node62" class="node"><title>Wallonie</title>
<polygon fill="black" stroke="black" points="163.019,-202.944 149.519,-220.944 122.519,-220.944 109.019,-202.944 122.519,-184.944 149.519,-184.944 163.019,-202.944"/>
<text text-anchor="middle" x="136.019" y="-200.444" font-family="Ume P Gothic Balsa" font-size="10.00" fill="white">Wallonie</text>
</g>
<!-- Fédération&#45;&gt;Wallonie -->
<g id="edge81" class="edge"><title>Fédération&#45;&gt;Wallonie</title>
<path fill="none" stroke="black" d="M98.3205,-208.664C99.4094,-208.499 100.51,-208.332 101.615,-208.164"/>
<polygon fill="black" stroke="black" points="101.675,-208.155 102.2,-211.616 111.561,-206.655 101.675,-208.155"/>
</g>
<!-- Bruxelles -->
<g id="node63" class="node"><title>Bruxelles</title>
<polygon fill="black" stroke="black" points="93.6016,-246.805 80.1016,-264.805 53.1016,-264.805 39.6016,-246.805 53.1016,-228.805 80.1016,-228.805 93.6016,-246.805"/>
<text text-anchor="middle" x="66.6016" y="-244.305" font-family="Ume P Gothic Balsa" font-size="10.00" fill="white">Bruxelles</text>
</g>
<!-- Wallonie&#45;&gt;Bruxelles -->
<g id="edge82" class="edge"><title>Wallonie&#45;&gt;Bruxelles</title>
<path fill="none" stroke="black" d="M117.416,-214.698C110.18,-219.27 101.743,-224.601 93.8474,-229.59"/>
<polygon fill="black" stroke="black" points="93.7093,-229.677 91.8398,-226.718 85.2555,-235.018 93.7093,-229.677"/>
</g>
<!-- Service -->
<g id="node64" class="node"><title>Service</title>
<polygon fill="black" stroke="black" points="78.9205,-178.183 65.4205,-196.183 38.4205,-196.183 24.9205,-178.183 38.4205,-160.183 65.4205,-160.183 78.9205,-178.183"/>
<text text-anchor="middle" x="51.9205" y="-175.683" font-family="Ume P Gothic Balsa" font-size="10.00" fill="white">Service</text>
</g>
<!-- Bruxelles&#45;&gt;Service -->
<g id="edge83" class="edge"><title>Bruxelles&#45;&gt;Service</title>
<path fill="none" stroke="black" d="M62.7443,-228.775C61.2725,-221.896 59.5574,-213.879 57.9322,-206.283"/>
<polygon fill="black" stroke="black" points="57.8952,-206.109 61.3177,-205.377 55.803,-196.331 57.8952,-206.109"/>
</g>
<!-- Service&#45;&gt;de -->
<g id="edge84" class="edge"><title>Service&#45;&gt;de</title>
<path fill="none" stroke="black" d="M73.5301,-170.647C81.6375,-167.82 91.0209,-164.547 99.8247,-161.477"/>
<polygon fill="black" stroke="black" points="99.977,-161.424 101.13,-164.729 109.419,-158.131 99.977,-161.424"/>
</g>
<!-- Danse&#45;&gt;et -->
<g id="edge87" class="edge"><title>Danse&#45;&gt;et</title>
<path fill="none" stroke="black" d="M227.923,-257.401C231.562,-249.826 235.87,-240.859 239.88,-232.511"/>
<polygon fill="black" stroke="black" points="239.9,-232.47 243.055,-233.986 244.23,-223.456 239.9,-232.47"/>
</g>
<!-- soutien -->
<g id="node67" class="node"><title>soutien</title>
<polygon fill="black" stroke="black" points="225.309,-113.445 211.809,-131.445 184.809,-131.445 171.309,-113.445 184.809,-95.4451 211.809,-95.4451 225.309,-113.445"/>
<text text-anchor="middle" x="198.309" y="-110.945" font-family="Ume P Gothic Balsa" font-size="10.00" fill="white">soutien</text>
</g>
<!-- le&#45;&gt;soutien -->
<g id="edge89" class="edge"><title>le&#45;&gt;soutien</title>
<path fill="none" stroke="black" d="M256.756,-131.559C248.511,-129.003 238.969,-126.046 230.016,-123.271"/>
<polygon fill="black" stroke="black" points="229.81,-123.208 230.846,-119.865 220.258,-120.248 229.81,-123.208"/>
</g>
<!-- soutien&#45;&gt;de -->
<g id="edge90" class="edge"><title>soutien&#45;&gt;de</title>
<path fill="none" stroke="black" d="M179.202,-123.994C173.003,-127.416 165.989,-131.289 159.269,-134.999"/>
<polygon fill="black" stroke="black" points="159.146,-135.066 157.454,-132.002 150.391,-139.9 159.146,-135.066"/>
</g>
<!-- Danses -->
<g id="node69" class="node"><title>Danses</title>
<polygon fill="black" stroke="black" points="279.88,-251.755 266.38,-269.755 239.38,-269.755 225.88,-251.755 239.38,-233.755 266.38,-233.755 279.88,-251.755"/>
<text text-anchor="middle" x="252.88" y="-249.255" font-family="Ume P Gothic Balsa" font-size="10.00" fill="white">Danses</text>
</g>
<!-- Charleroi&#45;&gt;Danses -->
<g id="edge92" class="edge"><title>Charleroi&#45;&gt;Danses</title>
<path fill="none" stroke="black" d="M203.784,-234.096C209.403,-236.117 215.57,-238.335 221.58,-240.497"/>
<polygon fill="black" stroke="black" points="222.009,-240.651 220.825,-243.945 231.419,-244.036 222.009,-240.651"/>
</g>
</g>
</svg>
