<?xml version="1.0" encoding="UTF-8" standalone="no"?>
<!DOCTYPE svg PUBLIC "-//W3C//DTD SVG 1.1//EN"
 "http://www.w3.org/Graphics/SVG/1.1/DTD/svg11.dtd">
<!-- Generated by graphviz version 2.28.0 (20120426.1432)
 -->
<!-- Title: _anonymous_0 Pages: 1 -->
<svg width="404pt" height="380pt"
 viewBox="0.00 0.00 404.00 380.00" xmlns="http://www.w3.org/2000/svg" xmlns:xlink="http://www.w3.org/1999/xlink">
<g id="graph1" class="graph" transform="scale(1 1) rotate(0) translate(4 376)">
<title>_anonymous_0</title>
<!-- 88 -->
<g id="node1" class="node"><title>88</title>
<polygon fill="black" stroke="black" points="216.454,-70.358 189.454,-82.7957 162.454,-70.358 172.767,-50.2334 206.141,-50.2334 216.454,-70.358"/>
<text text-anchor="middle" x="189.454" y="-62.2957" font-family="Ume P Gothic Balsa" font-size="10.00" fill="white">88</text>
</g>
<!-- Constellations -->
<g id="node3" class="node"><title>Constellations</title>
<polygon fill="black" stroke="black" points="260.803,-127.662 221.413,-140.1 182.023,-127.662 197.068,-107.538 245.757,-107.538 260.803,-127.662"/>
<text text-anchor="middle" x="221.413" y="-119.6" font-family="Ume P Gothic Balsa" font-size="10.00" fill="white">Constellations</text>
</g>
<!-- 88&#45;&gt;Constellations -->
<g id="edge2" class="edge"><title>88&#45;&gt;Constellations</title>
<path fill="none" stroke="black" d="M197.518,-79.256C200.749,-85.048 204.556,-91.8751 208.171,-98.3567"/>
<polygon fill="black" stroke="black" points="208.369,-98.7115 205.312,-100.416 213.24,-107.445 208.369,-98.7115"/>
</g>
<!-- est -->
<g id="node4" class="node"><title>est</title>
<polygon fill="black" stroke="black" points="189.068,-149.887 162.068,-162.325 135.068,-149.887 145.381,-129.762 178.755,-129.762 189.068,-149.887"/>
<text text-anchor="middle" x="162.068" y="-141.825" font-family="Ume P Gothic Balsa" font-size="10.00" fill="white">est</text>
</g>
<!-- Constellations&#45;&gt;est -->
<g id="edge3" class="edge"><title>Constellations&#45;&gt;est</title>
<path fill="none" stroke="black" d="M195.211,-131.913C194.155,-132.308 193.093,-132.706 192.031,-133.104"/>
<polygon fill="black" stroke="black" points="191.97,-133.126 190.743,-129.849 182.606,-136.633 191.97,-133.126"/>
</g>
<!-- une -->
<g id="node5" class="node"><title>une</title>
<polygon fill="black" stroke="black" points="227.137,-209.932 200.137,-222.37 173.137,-209.932 183.45,-189.807 216.824,-189.807 227.137,-209.932"/>
<text text-anchor="middle" x="200.137" y="-201.87" font-family="Ume P Gothic Balsa" font-size="10.00" fill="white">une</text>
</g>
<!-- est&#45;&gt;une -->
<g id="edge4" class="edge"><title>est&#45;&gt;une</title>
<path fill="none" stroke="black" d="M171.09,-158.554C175.325,-165.235 180.485,-173.373 185.275,-180.927"/>
<polygon fill="black" stroke="black" points="185.294,-180.958 182.338,-182.833 190.649,-189.404 185.294,-180.958"/>
</g>
<!-- confronté -->
<g id="node23" class="node"><title>confronté</title>
<polygon fill="black" stroke="black" points="270.712,-150.717 243.345,-163.155 215.978,-150.717 226.431,-130.593 260.259,-130.593 270.712,-150.717"/>
<text text-anchor="middle" x="243.345" y="-142.655" font-family="Ume P Gothic Balsa" font-size="10.00" fill="white">confronté</text>
</g>
<!-- est&#45;&gt;confronté -->
<g id="edge26" class="edge"><title>est&#45;&gt;confronté</title>
<path fill="none" stroke="black" d="M186.454,-144.574C193.319,-144.644 200.924,-144.722 208.282,-144.797"/>
<polygon fill="black" stroke="black" points="208.414,-144.798 208.379,-148.298 218.414,-144.9 208.414,-144.798"/>
</g>
<!-- transposition -->
<g id="node6" class="node"><title>transposition</title>
<polygon fill="black" stroke="black" points="296.556,-241.543 260.532,-253.981 224.508,-241.543 238.268,-221.419 282.796,-221.419 296.556,-241.543"/>
<text text-anchor="middle" x="260.532" y="-233.481" font-family="Ume P Gothic Balsa" font-size="10.00" fill="white">transposition</text>
</g>
<!-- une&#45;&gt;transposition -->
<g id="edge5" class="edge"><title>une&#45;&gt;transposition</title>
<path fill="none" stroke="black" d="M218.586,-214.026C221.431,-215.515 224.44,-217.09 227.488,-218.685"/>
<polygon fill="black" stroke="black" points="227.765,-218.83 226.142,-221.931 236.625,-223.468 227.765,-218.83"/>
</g>
<!-- série -->
<g id="node25" class="node"><title>série</title>
<polygon fill="black" stroke="black" points="148.082,-200.193 121.082,-212.63 94.0822,-200.193 104.395,-180.068 137.769,-180.068 148.082,-200.193"/>
<text text-anchor="middle" x="121.082" y="-192.13" font-family="Ume P Gothic Balsa" font-size="10.00" fill="white">série</text>
</g>
<!-- une&#45;&gt;série -->
<g id="edge29" class="edge"><title>une&#45;&gt;série</title>
<path fill="none" stroke="black" d="M177.271,-201.553C170.898,-200.768 163.818,-199.895 156.892,-199.042"/>
<polygon fill="black" stroke="black" points="156.879,-199.041 157.307,-195.567 146.954,-197.818 156.879,-199.041"/>
</g>
<!-- musicale -->
<g id="node7" class="node"><title>musicale</title>
<polygon fill="black" stroke="black" points="225.547,-228.798 198.547,-241.236 171.547,-228.798 181.86,-208.674 215.234,-208.674 225.547,-228.798"/>
<text text-anchor="middle" x="198.547" y="-220.736" font-family="Ume P Gothic Balsa" font-size="10.00" fill="white">musicale</text>
</g>
<!-- transposition&#45;&gt;musicale -->
<g id="edge6" class="edge"><title>transposition&#45;&gt;musicale</title>
<path fill="none" stroke="black" d="M232.08,-230.131C231.944,-230.103 231.809,-230.075 231.674,-230.047"/>
<polygon fill="black" stroke="black" points="235.375,-230.808 236.08,-227.38 225.58,-228.794 235.375,-230.808"/>
</g>
<!-- de -->
<g id="node8" class="node"><title>de</title>
<polygon fill="black" stroke="black" points="218.329,-165.851 191.329,-178.288 164.329,-165.851 174.642,-145.726 208.016,-145.726 218.329,-165.851"/>
<text text-anchor="middle" x="191.329" y="-157.788" font-family="Ume P Gothic Balsa" font-size="10.00" fill="white">de</text>
</g>
<!-- musicale&#45;&gt;de -->
<g id="edge7" class="edge"><title>musicale&#45;&gt;de</title>
<path fill="none" stroke="black" d="M196.873,-208.636C196.157,-202.389 195.296,-194.883 194.469,-187.669"/>
<polygon fill="black" stroke="black" points="194.441,-187.424 197.918,-187.025 193.302,-177.489 194.441,-187.424"/>
</g>
<!-- la -->
<g id="node9" class="node"><title>la</title>
<polygon fill="black" stroke="black" points="235.052,-85.5534 208.052,-97.9911 181.052,-85.5534 191.365,-65.4288 224.739,-65.4288 235.052,-85.5534"/>
<text text-anchor="middle" x="208.052" y="-77.4911" font-family="Ume P Gothic Balsa" font-size="10.00" fill="white">la</text>
</g>
<!-- de&#45;&gt;la -->
<g id="edge114" class="edge"><title>de&#45;&gt;la</title>
<path fill="none" stroke="black" d="M200.62,-145.671C204.348,-134.898 207.778,-119.947 209.617,-107.027"/>
<polygon fill="black" stroke="black" points="209.65,-106.726 213.129,-107.114 210.759,-96.7876 209.65,-106.726"/>
</g>
<!-- de&#45;&gt;la -->
<g id="edge8" class="edge"><title>de&#45;&gt;la</title>
<path fill="none" stroke="black" d="M188.491,-145.485C189.148,-133.792 192.176,-117.261 195.943,-103.728"/>
<polygon fill="black" stroke="black" points="195.97,-103.642 199.312,-104.682 198.941,-94.0939 195.97,-103.642"/>
</g>
<!-- notre -->
<g id="node13" class="node"><title>notre</title>
<polygon fill="black" stroke="black" points="202.659,-224.702 175.659,-237.139 148.659,-224.702 158.973,-204.577 192.346,-204.577 202.659,-224.702"/>
<text text-anchor="middle" x="175.659" y="-216.639" font-family="Ume P Gothic Balsa" font-size="10.00" fill="white">notre</text>
</g>
<!-- de&#45;&gt;notre -->
<g id="edge13" class="edge"><title>de&#45;&gt;notre</title>
<path fill="none" stroke="black" d="M187.047,-176.37C185.561,-181.951 183.859,-188.345 182.231,-194.458"/>
<polygon fill="black" stroke="black" points="182.187,-194.625 178.804,-193.725 179.614,-204.289 182.187,-194.625"/>
</g>
<!-- musiciens -->
<g id="node18" class="node"><title>musiciens</title>
<polygon fill="black" stroke="black" points="157.681,-110.284 130.681,-122.721 103.681,-110.284 113.994,-90.1592 147.368,-90.1592 157.681,-110.284"/>
<text text-anchor="middle" x="130.681" y="-102.221" font-family="Ume P Gothic Balsa" font-size="10.00" fill="white">musiciens</text>
</g>
<!-- de&#45;&gt;musiciens -->
<g id="edge19" class="edge"><title>de&#45;&gt;musiciens</title>
<path fill="none" stroke="black" d="M175.395,-145.689C168.025,-138.936 159.178,-130.831 151.306,-123.619"/>
<polygon fill="black" stroke="black" points="151.223,-123.543 153.588,-120.962 143.85,-116.787 151.223,-123.543"/>
</g>
<!-- l’espace -->
<g id="node22" class="node"><title>l’espace</title>
<polygon fill="black" stroke="black" points="175.806,-224.855 148.806,-237.292 121.806,-224.855 132.119,-204.73 165.493,-204.73 175.806,-224.855"/>
<text text-anchor="middle" x="148.806" y="-216.792" font-family="Ume P Gothic Balsa" font-size="10.00" fill="white">l’espace</text>
</g>
<!-- de&#45;&gt;l’espace -->
<g id="edge24" class="edge"><title>de&#45;&gt;l’espace</title>
<path fill="none" stroke="black" d="M181.467,-173.973C176.741,-180.531 170.948,-188.569 165.56,-196.045"/>
<polygon fill="black" stroke="black" points="165.355,-196.328 162.516,-194.282 159.509,-204.441 165.355,-196.328"/>
</g>
<!-- troubles -->
<g id="node26" class="node"><title>troubles</title>
<polygon fill="black" stroke="black" points="291.935,-153.233 264.935,-165.67 237.935,-153.233 248.248,-133.108 281.622,-133.108 291.935,-153.233"/>
<text text-anchor="middle" x="264.935" y="-145.17" font-family="Ume P Gothic Balsa" font-size="10.00" fill="white">troubles</text>
</g>
<!-- de&#45;&gt;troubles -->
<g id="edge31" class="edge"><title>de&#45;&gt;troubles</title>
<path fill="none" stroke="black" d="M213.813,-156.434C218.432,-155.642 223.407,-154.789 228.377,-153.937"/>
<polygon fill="black" stroke="black" points="228.596,-153.9 229.188,-157.349 238.452,-152.21 228.596,-153.9"/>
</g>
<!-- leurs -->
<g id="node32" class="node"><title>leurs</title>
<polygon fill="black" stroke="black" points="293.6,-185.881 266.6,-198.319 239.6,-185.881 249.913,-165.757 283.287,-165.757 293.6,-185.881"/>
<text text-anchor="middle" x="266.6" y="-177.819" font-family="Ume P Gothic Balsa" font-size="10.00" fill="white">leurs</text>
</g>
<!-- de&#45;&gt;leurs -->
<g id="edge38" class="edge"><title>de&#45;&gt;leurs</title>
<path fill="none" stroke="black" d="M216.393,-166.958C222.311,-168.533 228.697,-170.233 234.867,-171.874"/>
<polygon fill="black" stroke="black" points="235.26,-171.979 234.36,-175.361 244.923,-174.551 235.26,-171.979"/>
</g>
<!-- mythologies -->
<g id="node36" class="node"><title>mythologies</title>
<polygon fill="black" stroke="black" points="295.18,-136.197 263.969,-148.634 232.758,-136.197 244.68,-116.072 283.258,-116.072 295.18,-136.197"/>
<text text-anchor="middle" x="263.969" y="-128.134" font-family="Ume P Gothic Balsa" font-size="10.00" fill="white">mythologies</text>
</g>
<!-- de&#45;&gt;mythologies -->
<g id="edge43" class="edge"><title>de&#45;&gt;mythologies</title>
<path fill="none" stroke="black" d="M211.563,-152.028C217.769,-149.495 224.759,-146.641 231.563,-143.863"/>
<polygon fill="black" stroke="black" points="232.029,-143.673 233.352,-146.914 241.287,-139.894 232.029,-143.673"/>
</g>
<!-- leur -->
<g id="node46" class="node"><title>leur</title>
<polygon fill="black" stroke="black" points="197.507,-243.419 170.507,-255.857 143.507,-243.419 153.82,-223.294 187.194,-223.294 197.507,-243.419"/>
<text text-anchor="middle" x="170.507" y="-235.357" font-family="Ume P Gothic Balsa" font-size="10.00" fill="white">leur</text>
</g>
<!-- de&#45;&gt;leur -->
<g id="edge54" class="edge"><title>de&#45;&gt;leur</title>
<path fill="none" stroke="black" d="M187.015,-176.361C184.159,-187 180.357,-201.161 177.122,-213.212"/>
<polygon fill="black" stroke="black" points="177.056,-213.459 173.676,-212.551 174.463,-223.117 177.056,-213.459"/>
</g>
<!-- carte -->
<g id="node10" class="node"><title>carte</title>
<polygon fill="black" stroke="black" points="170.146,-56.2648 143.146,-68.7025 116.146,-56.2648 126.459,-36.1402 159.833,-36.1402 170.146,-56.2648"/>
<text text-anchor="middle" x="143.146" y="-48.2025" font-family="Ume P Gothic Balsa" font-size="10.00" fill="white">carte</text>
</g>
<!-- la&#45;&gt;carte -->
<g id="edge9" class="edge"><title>la&#45;&gt;carte</title>
<path fill="none" stroke="black" d="M188.226,-71.0444C183.286,-68.8154 177.884,-66.3777 172.589,-63.9887"/>
<polygon fill="black" stroke="black" points="172.414,-63.9096 173.854,-60.7194 163.299,-59.7965 172.414,-63.9096"/>
</g>
<!-- Balsamine -->
<g id="node100" class="node"><title>Balsamine</title>
<polygon fill="black" stroke="black" points="303.942,-59.724 276.575,-72.1617 249.207,-59.724 259.661,-39.5994 293.488,-39.5994 303.942,-59.724"/>
<text text-anchor="middle" x="276.575" y="-51.6617" font-family="Ume P Gothic Balsa" font-size="10.00" fill="white">Balsamine</text>
</g>
<!-- la&#45;&gt;Balsamine -->
<g id="edge115" class="edge"><title>la&#45;&gt;Balsamine</title>
<path fill="none" stroke="black" d="M228.611,-72.2414C233.736,-70.3096 239.35,-68.1933 244.876,-66.1106"/>
<polygon fill="black" stroke="black" points="245.242,-65.9726 246.476,-69.2476 254.599,-62.4453 245.242,-65.9726"/>
</g>
<!-- des -->
<g id="node11" class="node"><title>des</title>
<polygon fill="black" stroke="black" points="235.632,-46.9735 208.632,-59.4112 181.632,-46.9735 191.945,-26.8489 225.319,-26.8489 235.632,-46.9735"/>
<text text-anchor="middle" x="208.632" y="-38.9112" font-family="Ume P Gothic Balsa" font-size="10.00" fill="white">des</text>
</g>
<!-- carte&#45;&gt;des -->
<g id="edge10" class="edge"><title>carte&#45;&gt;des</title>
<path fill="none" stroke="black" d="M165.683,-47.5049C167.764,-47.2096 169.906,-46.9057 172.071,-46.5986"/>
<polygon fill="black" stroke="black" points="172.32,-46.5633 172.811,-50.0286 182.221,-45.1585 172.32,-46.5633"/>
</g>
<!-- constellations -->
<g id="node12" class="node"><title>constellations</title>
<polygon fill="black" stroke="black" points="200.343,-93.7363 161.925,-106.174 123.507,-93.7363 138.181,-73.6117 185.668,-73.6117 200.343,-93.7363"/>
<text text-anchor="middle" x="161.925" y="-85.674" font-family="Ume P Gothic Balsa" font-size="10.00" fill="white">constellations</text>
</g>
<!-- des&#45;&gt;constellations -->
<g id="edge11" class="edge"><title>des&#45;&gt;constellations</title>
<path fill="none" stroke="black" d="M195.869,-54.1893C192.155,-57.9076 187.988,-62.0798 183.879,-66.1939"/>
<polygon fill="black" stroke="black" points="183.722,-66.3508 181.246,-63.8774 176.655,-73.4261 183.722,-66.3508"/>
</g>
<!-- constellations&#45;&gt;de -->
<g id="edge12" class="edge"><title>constellations&#45;&gt;de</title>
<path fill="none" stroke="black" d="M168.451,-104.178C172.246,-113.486 177.107,-125.408 181.372,-135.867"/>
<polygon fill="black" stroke="black" points="181.448,-136.053 178.207,-137.375 185.223,-145.313 181.448,-136.053"/>
</g>
<!-- ciel -->
<g id="node14" class="node"><title>ciel</title>
<polygon fill="black" stroke="black" points="254.533,-182.098 227.533,-194.536 200.533,-182.098 210.846,-161.974 244.22,-161.974 254.533,-182.098"/>
<text text-anchor="middle" x="227.533" y="-174.036" font-family="Ume P Gothic Balsa" font-size="10.00" fill="white">ciel</text>
</g>
<!-- notre&#45;&gt;ciel -->
<g id="edge14" class="edge"><title>notre&#45;&gt;ciel</title>
<path fill="none" stroke="black" d="M192.933,-204.953C196.956,-201.649 201.293,-198.087 205.491,-194.639"/>
<polygon fill="black" stroke="black" points="205.545,-194.595 207.766,-197.3 213.273,-188.248 205.545,-194.595"/>
</g>
<!-- étoilé -->
<g id="node15" class="node"><title>étoilé</title>
<polygon fill="black" stroke="black" points="187.817,-182.929 160.817,-195.367 133.817,-182.929 144.13,-162.804 177.504,-162.804 187.817,-182.929"/>
<text text-anchor="middle" x="160.817" y="-174.867" font-family="Ume P Gothic Balsa" font-size="10.00" fill="white">étoilé</text>
</g>
<!-- ciel&#45;&gt;étoilé -->
<g id="edge15" class="edge"><title>ciel&#45;&gt;étoilé</title>
<path fill="none" stroke="black" d="M203.069,-176.841C200.466,-176.873 197.785,-176.906 195.096,-176.94"/>
<polygon fill="black" stroke="black" points="194.832,-176.943 194.788,-173.443 184.832,-177.068 194.832,-176.943"/>
</g>
<!-- Un -->
<g id="node16" class="node"><title>Un</title>
<polygon fill="black" stroke="black" points="222.761,-258.23 195.761,-270.668 168.761,-258.23 179.074,-238.106 212.448,-238.106 222.761,-258.23"/>
<text text-anchor="middle" x="195.761" y="-250.168" font-family="Ume P Gothic Balsa" font-size="10.00" fill="white">Un</text>
</g>
<!-- étoilé&#45;&gt;Un -->
<g id="edge16" class="edge"><title>étoilé&#45;&gt;Un</title>
<path fill="none" stroke="black" d="M167.721,-192.244C172.538,-202.624 179.072,-216.704 184.62,-228.661"/>
<polygon fill="black" stroke="black" points="184.781,-229.007 181.606,-230.48 188.99,-238.078 184.781,-229.007"/>
</g>
<!-- groupe -->
<g id="node17" class="node"><title>groupe</title>
<polygon fill="black" stroke="black" points="277.251,-202.038 250.251,-214.475 223.251,-202.038 233.564,-181.913 266.937,-181.913 277.251,-202.038"/>
<text text-anchor="middle" x="250.251" y="-193.975" font-family="Ume P Gothic Balsa" font-size="10.00" fill="white">groupe</text>
</g>
<!-- Un&#45;&gt;groupe -->
<g id="edge17" class="edge"><title>Un&#45;&gt;groupe</title>
<path fill="none" stroke="black" d="M210.077,-237.904C216.468,-231.313 224.095,-223.448 230.978,-216.351"/>
<polygon fill="black" stroke="black" points="231.099,-216.226 233.611,-218.662 238.06,-209.047 231.099,-216.226"/>
</g>
<!-- groupe&#45;&gt;de -->
<g id="edge18" class="edge"><title>groupe&#45;&gt;de</title>
<path fill="none" stroke="black" d="M231.607,-185.026C226.972,-182.178 221.921,-179.076 217.012,-176.062"/>
<polygon fill="black" stroke="black" points="216.972,-176.037 218.804,-173.055 208.451,-170.804 216.972,-176.037"/>
</g>
<!-- propulsés -->
<g id="node19" class="node"><title>propulsés</title>
<polygon fill="black" stroke="black" points="111.443,-166.656 84.4427,-179.094 57.4427,-166.656 67.7558,-146.531 101.13,-146.531 111.443,-166.656"/>
<text text-anchor="middle" x="84.4427" y="-158.594" font-family="Ume P Gothic Balsa" font-size="10.00" fill="white">propulsés</text>
</g>
<!-- musiciens&#45;&gt;propulsés -->
<g id="edge20" class="edge"><title>musiciens&#45;&gt;propulsés</title>
<path fill="none" stroke="black" d="M119.957,-117.796C114.895,-123.968 108.707,-131.512 102.923,-138.563"/>
<polygon fill="black" stroke="black" points="102.752,-138.771 100.046,-136.552 96.4104,-146.503 102.752,-138.771"/>
</g>
<!-- dans -->
<g id="node20" class="node"><title>dans</title>
<polygon fill="black" stroke="black" points="183.127,-127.026 156.127,-139.464 129.127,-127.026 139.44,-106.901 172.814,-106.901 183.127,-127.026"/>
<text text-anchor="middle" x="156.127" y="-118.964" font-family="Ume P Gothic Balsa" font-size="10.00" fill="white">dans</text>
</g>
<!-- propulsés&#45;&gt;dans -->
<g id="edge21" class="edge"><title>propulsés&#45;&gt;dans</title>
<path fill="none" stroke="black" d="M103.277,-150.681C111.197,-146.303 120.56,-141.126 129.188,-136.356"/>
<polygon fill="black" stroke="black" points="129.408,-136.235 131.101,-139.298 138.159,-131.397 129.408,-136.235"/>
</g>
<!-- l’immensité -->
<g id="node21" class="node"><title>l’immensité</title>
<polygon fill="black" stroke="black" points="255.165,-97.7539 222.984,-110.192 190.802,-97.7539 203.094,-77.6293 242.873,-77.6293 255.165,-97.7539"/>
<text text-anchor="middle" x="222.984" y="-89.6916" font-family="Ume P Gothic Balsa" font-size="10.00" fill="white">l’immensité</text>
</g>
<!-- dans&#45;&gt;l’immensité -->
<g id="edge22" class="edge"><title>dans&#45;&gt;l’immensité</title>
<path fill="none" stroke="black" d="M176.186,-112.681C181.09,-110.534 186.454,-108.186 191.744,-105.869"/>
<polygon fill="black" stroke="black" points="191.911,-105.796 193.315,-109.002 201.072,-101.785 191.911,-105.796"/>
</g>
<!-- l’immensité&#45;&gt;de -->
<g id="edge23" class="edge"><title>l’immensité&#45;&gt;de</title>
<path fill="none" stroke="black" d="M215.801,-107.644C211.902,-116.032 206.993,-126.591 202.597,-136.048"/>
<polygon fill="black" stroke="black" points="202.481,-136.297 199.308,-134.822 198.266,-145.365 202.481,-136.297"/>
</g>
<!-- l’espace&#45;&gt;est -->
<g id="edge25" class="edge"><title>l’espace&#45;&gt;est</title>
<path fill="none" stroke="black" d="M151.426,-204.481C153.096,-195.039 155.311,-182.522 157.287,-171.351"/>
<polygon fill="black" stroke="black" points="157.341,-171.046 160.788,-171.655 159.083,-161.198 157.341,-171.046"/>
</g>
<!-- à -->
<g id="node24" class="node"><title>à</title>
<polygon fill="black" stroke="black" points="294.22,-209.822 267.22,-222.26 240.22,-209.822 250.533,-189.698 283.907,-189.698 294.22,-209.822"/>
<text text-anchor="middle" x="267.22" y="-201.76" font-family="Ume P Gothic Balsa" font-size="10.00" fill="white">à</text>
</g>
<!-- confronté&#45;&gt;à -->
<g id="edge27" class="edge"><title>confronté&#45;&gt;à</title>
<path fill="none" stroke="black" d="M249.493,-160.376C251.907,-166.351 254.737,-173.357 257.419,-179.996"/>
<polygon fill="black" stroke="black" points="257.43,-180.023 254.184,-181.334 261.175,-189.295 257.43,-180.023"/>
</g>
<!-- à&#45;&gt;une -->
<g id="edge28" class="edge"><title>à&#45;&gt;une</title>
<path fill="none" stroke="black" d="M243.002,-204.3C240.281,-204.304 237.471,-204.309 234.652,-204.313"/>
<polygon fill="black" stroke="black" points="234.545,-204.313 234.54,-200.813 224.545,-204.33 234.545,-204.313"/>
</g>
<!-- série&#45;&gt;de -->
<g id="edge30" class="edge"><title>série&#45;&gt;de</title>
<path fill="none" stroke="black" d="M140.65,-185.064C147.615,-181.659 155.602,-177.754 163.145,-174.067"/>
<polygon fill="black" stroke="black" points="163.367,-173.958 164.904,-177.103 172.351,-169.566 163.367,-173.958"/>
</g>
<!-- venant -->
<g id="node27" class="node"><title>venant</title>
<polygon fill="black" stroke="black" points="304.241,-88.8059 277.241,-101.244 250.241,-88.8059 260.554,-68.6813 293.928,-68.6813 304.241,-88.8059"/>
<text text-anchor="middle" x="277.241" y="-80.7436" font-family="Ume P Gothic Balsa" font-size="10.00" fill="white">venant</text>
</g>
<!-- troubles&#45;&gt;venant -->
<g id="edge32" class="edge"><title>troubles&#45;&gt;venant</title>
<path fill="none" stroke="black" d="M267.727,-133.051C269.029,-126.236 270.62,-117.905 272.126,-110.022"/>
<polygon fill="black" stroke="black" points="272.148,-109.904 275.586,-110.561 274.025,-100.081 272.148,-109.904"/>
</g>
<!-- les -->
<g id="node28" class="node"><title>les</title>
<polygon fill="black" stroke="black" points="327.55,-150.357 300.55,-162.795 273.55,-150.357 283.863,-130.233 317.237,-130.233 327.55,-150.357"/>
<text text-anchor="middle" x="300.55" y="-142.295" font-family="Ume P Gothic Balsa" font-size="10.00" fill="white">les</text>
</g>
<!-- venant&#45;&gt;les -->
<g id="edge33" class="edge"><title>venant&#45;&gt;les</title>
<path fill="none" stroke="black" d="M283.123,-98.7756C285.608,-105.337 288.561,-113.136 291.324,-120.432"/>
<polygon fill="black" stroke="black" points="291.37,-120.553 288.096,-121.793 294.911,-129.905 291.37,-120.553"/>
</g>
<!-- perturber -->
<g id="node29" class="node"><title>perturber</title>
<polygon fill="black" stroke="black" points="396.004,-116.814 369.004,-129.252 342.004,-116.814 352.317,-96.6899 385.691,-96.6899 396.004,-116.814"/>
<text text-anchor="middle" x="369.004" y="-108.752" font-family="Ume P Gothic Balsa" font-size="10.00" fill="white">perturber</text>
</g>
<!-- les&#45;&gt;perturber -->
<g id="edge34" class="edge"><title>les&#45;&gt;perturber</title>
<path fill="none" stroke="black" d="M319.983,-135.273C326.396,-132.13 333.668,-128.567 340.61,-125.166"/>
<polygon fill="black" stroke="black" points="340.78,-125.082 342.32,-128.225 349.759,-120.682 340.78,-125.082"/>
</g>
<!-- au -->
<g id="node30" class="node"><title>au</title>
<polygon fill="black" stroke="black" points="329.733,-75.5914 302.733,-88.0291 275.733,-75.5914 286.046,-55.4668 319.42,-55.4668 329.733,-75.5914"/>
<text text-anchor="middle" x="302.733" y="-67.5291" font-family="Ume P Gothic Balsa" font-size="10.00" fill="white">au</text>
</g>
<!-- perturber&#45;&gt;au -->
<g id="edge35" class="edge"><title>perturber&#45;&gt;au</title>
<path fill="none" stroke="black" d="M350.544,-99.7693C343.758,-95.548 335.943,-90.6867 328.623,-86.1338"/>
<polygon fill="black" stroke="black" points="328.223,-85.8851 330.072,-82.9132 319.732,-80.6032 328.223,-85.8851"/>
</g>
<!-- cœur -->
<g id="node31" class="node"><title>cœur</title>
<polygon fill="black" stroke="black" points="274.665,-114.525 247.665,-126.963 220.665,-114.525 230.978,-94.4006 264.352,-94.4006 274.665,-114.525"/>
<text text-anchor="middle" x="247.665" y="-106.463" font-family="Ume P Gothic Balsa" font-size="10.00" fill="white">cœur</text>
</g>
<!-- au&#45;&gt;cœur -->
<g id="edge36" class="edge"><title>au&#45;&gt;cœur</title>
<path fill="none" stroke="black" d="M287.1,-81.0818C282.992,-83.9861 278.446,-87.1999 273.946,-90.382"/>
<polygon fill="black" stroke="black" points="273.638,-90.5996 271.617,-87.7417 265.473,-96.3726 273.638,-90.5996"/>
</g>
<!-- cœur&#45;&gt;de -->
<g id="edge37" class="edge"><title>cœur&#45;&gt;de</title>
<path fill="none" stroke="black" d="M234.314,-121.126C228.514,-126.41 221.543,-132.762 214.919,-138.797"/>
<polygon fill="black" stroke="black" points="214.785,-138.919 212.428,-136.331 207.393,-145.653 214.785,-138.919"/>
</g>
<!-- rapports -->
<g id="node33" class="node"><title>rapports</title>
<polygon fill="black" stroke="black" points="267.515,-244.224 240.515,-256.662 213.515,-244.224 223.828,-224.099 257.202,-224.099 267.515,-244.224"/>
<text text-anchor="middle" x="240.515" y="-236.162" font-family="Ume P Gothic Balsa" font-size="10.00" fill="white">rapports</text>
</g>
<!-- leurs&#45;&gt;rapports -->
<g id="edge39" class="edge"><title>leurs&#45;&gt;rapports</title>
<path fill="none" stroke="black" d="M259.883,-195.344C257.246,-201.242 254.153,-208.158 251.224,-214.71"/>
<polygon fill="black" stroke="black" points="251.201,-214.761 248.006,-213.332 247.119,-223.89 251.201,-214.761"/>
</g>
<!-- Des -->
<g id="node34" class="node"><title>Des</title>
<polygon fill="black" stroke="black" points="233.177,-185.025 206.177,-197.463 179.177,-185.025 189.49,-164.9 222.864,-164.9 233.177,-185.025"/>
<text text-anchor="middle" x="206.177" y="-176.963" font-family="Ume P Gothic Balsa" font-size="10.00" fill="white">Des</text>
</g>
<!-- rapports&#45;&gt;Des -->
<g id="edge40" class="edge"><title>rapports&#45;&gt;Des</title>
<path fill="none" stroke="black" d="M232.027,-224.028C228.284,-217.576 223.795,-209.837 219.616,-202.632"/>
<polygon fill="black" stroke="black" points="219.585,-202.578 222.612,-200.822 214.567,-193.928 219.585,-202.578"/>
</g>
<!-- fragments -->
<g id="node35" class="node"><title>fragments</title>
<polygon fill="black" stroke="black" points="152.174,-179.594 125.279,-192.032 98.3835,-179.594 108.656,-159.469 141.901,-159.469 152.174,-179.594"/>
<text text-anchor="middle" x="125.279" y="-171.532" font-family="Ume P Gothic Balsa" font-size="10.00" fill="white">fragments</text>
</g>
<!-- Des&#45;&gt;fragments -->
<g id="edge41" class="edge"><title>Des&#45;&gt;fragments</title>
<path fill="none" stroke="black" d="M182.778,-177.892C175.784,-177.422 167.957,-176.897 160.385,-176.389"/>
<polygon fill="black" stroke="black" points="160.297,-176.383 160.531,-172.891 150.319,-175.713 160.297,-176.383"/>
</g>
<!-- fragments&#45;&gt;de -->
<g id="edge42" class="edge"><title>fragments&#45;&gt;de</title>
<path fill="none" stroke="black" d="M147.272,-169.455C149.552,-168.981 151.911,-168.49 154.299,-167.993"/>
<polygon fill="black" stroke="black" points="154.352,-167.982 155.065,-171.409 164.142,-165.945 154.352,-167.982"/>
</g>
<!-- s’immiscent -->
<g id="node37" class="node"><title>s’immiscent</title>
<polygon fill="black" stroke="black" points="227.672,-118.703 194.539,-131.14 161.407,-118.703 174.062,-98.5782 215.016,-98.5782 227.672,-118.703"/>
<text text-anchor="middle" x="194.539" y="-110.64" font-family="Ume P Gothic Balsa" font-size="10.00" fill="white">s’immiscent</text>
</g>
<!-- mythologies&#45;&gt;s’immiscent -->
<g id="edge44" class="edge"><title>mythologies&#45;&gt;s’immiscent</title>
<path fill="none" stroke="black" d="M239.295,-124.417C237.58,-123.985 235.83,-123.544 234.062,-123.099"/>
<polygon fill="black" stroke="black" points="233.58,-122.977 234.435,-119.584 223.883,-120.534 233.58,-122.977"/>
</g>
<!-- entre -->
<g id="node38" class="node"><title>entre</title>
<polygon fill="black" stroke="black" points="147.376,-94.3436 120.376,-106.781 93.3765,-94.3436 103.69,-74.219 137.063,-74.219 147.376,-94.3436"/>
<text text-anchor="middle" x="120.376" y="-86.2813" font-family="Ume P Gothic Balsa" font-size="10.00" fill="white">entre</text>
</g>
<!-- s’immiscent&#45;&gt;entre -->
<g id="edge45" class="edge"><title>s’immiscent&#45;&gt;entre</title>
<path fill="none" stroke="black" d="M169.431,-104.894C164.178,-103.168 158.567,-101.325 153.084,-99.5243"/>
<polygon fill="black" stroke="black" points="152.962,-99.4841 154.054,-96.1589 143.461,-96.3635 152.962,-99.4841"/>
</g>
<!-- eux -->
<g id="node39" class="node"><title>eux</title>
<polygon fill="black" stroke="black" points="198.039,-131.824 171.039,-144.262 144.039,-131.824 154.352,-111.7 187.726,-111.7 198.039,-131.824"/>
<text text-anchor="middle" x="171.039" y="-123.762" font-family="Ume P Gothic Balsa" font-size="10.00" fill="white">eux</text>
</g>
<!-- entre&#45;&gt;eux -->
<g id="edge46" class="edge"><title>entre&#45;&gt;eux</title>
<path fill="none" stroke="black" d="M135.577,-100.027C138.637,-102.291 141.934,-104.73 145.241,-107.176"/>
<polygon fill="black" stroke="black" points="145.316,-107.232 143.234,-110.046 153.355,-113.179 145.316,-107.232"/>
</g>
<!-- et -->
<g id="node40" class="node"><title>et</title>
<polygon fill="black" stroke="black" points="175.718,-198.89 148.718,-211.328 121.718,-198.89 132.031,-178.766 165.405,-178.766 175.718,-198.89"/>
<text text-anchor="middle" x="148.718" y="-190.828" font-family="Ume P Gothic Balsa" font-size="10.00" fill="white">et</text>
</g>
<!-- eux&#45;&gt;et -->
<g id="edge47" class="edge"><title>eux&#45;&gt;et</title>
<path fill="none" stroke="black" d="M165.749,-142.156C163.089,-150.148 159.807,-160.01 156.836,-168.936"/>
<polygon fill="black" stroke="black" points="156.822,-168.979 153.501,-167.874 153.664,-178.467 156.822,-168.979"/>
</g>
<!-- mettent -->
<g id="node41" class="node"><title>mettent</title>
<polygon fill="black" stroke="black" points="97.9299,-222.364 70.9299,-234.802 43.9299,-222.364 54.243,-202.24 87.6168,-202.24 97.9299,-222.364"/>
<text text-anchor="middle" x="70.9299" y="-214.302" font-family="Ume P Gothic Balsa" font-size="10.00" fill="white">mettent</text>
</g>
<!-- et&#45;&gt;mettent -->
<g id="edge48" class="edge"><title>et&#45;&gt;mettent</title>
<path fill="none" stroke="black" d="M124.956,-200.499C117.625,-202.711 109.443,-205.18 101.709,-207.514"/>
<polygon fill="black" stroke="black" points="101.484,-207.582 100.472,-204.231 91.9099,-210.471 101.484,-207.582"/>
</g>
<!-- Nicole -->
<g id="node96" class="node"><title>Nicole</title>
<polygon fill="black" stroke="black" points="224.176,-139.047 197.176,-151.485 170.176,-139.047 180.489,-118.923 213.863,-118.923 224.176,-139.047"/>
<text text-anchor="middle" x="197.176" y="-130.985" font-family="Ume P Gothic Balsa" font-size="10.00" fill="white">Nicole</text>
</g>
<!-- et&#45;&gt;Nicole -->
<g id="edge109" class="edge"><title>et&#45;&gt;Nicole</title>
<path fill="none" stroke="black" d="M160.696,-178.535C166.521,-171.343 173.627,-162.567 180.015,-154.679"/>
<polygon fill="black" stroke="black" points="180.034,-154.654 182.754,-156.857 186.327,-146.882 180.034,-154.654"/>
</g>
<!-- en -->
<g id="node42" class="node"><title>en</title>
<polygon fill="black" stroke="black" points="117.955,-291.402 90.9552,-303.839 63.9552,-291.402 74.2683,-271.277 107.642,-271.277 117.955,-291.402"/>
<text text-anchor="middle" x="90.9552" y="-283.339" font-family="Ume P Gothic Balsa" font-size="10.00" fill="white">en</text>
</g>
<!-- mettent&#45;&gt;en -->
<g id="edge49" class="edge"><title>mettent&#45;&gt;en</title>
<path fill="none" stroke="black" d="M75.5744,-232.814C78.0181,-241.239 81.0675,-251.751 83.8051,-261.189"/>
<polygon fill="black" stroke="black" points="83.8241,-261.255 80.4627,-262.23 86.61,-270.859 83.8241,-261.255"/>
</g>
<!-- lumière -->
<g id="node43" class="node"><title>lumière</title>
<polygon fill="black" stroke="black" points="183.115,-314.675 156.115,-327.112 129.115,-314.675 139.428,-294.55 172.802,-294.55 183.115,-314.675"/>
<text text-anchor="middle" x="156.115" y="-306.612" font-family="Ume P Gothic Balsa" font-size="10.00" fill="white">lumière</text>
</g>
<!-- en&#45;&gt;lumière -->
<g id="edge50" class="edge"><title>en&#45;&gt;lumière</title>
<path fill="none" stroke="black" d="M113.015,-293.719C117.086,-295.172 121.402,-296.714 125.669,-298.238"/>
<polygon fill="black" stroke="black" points="125.98,-298.349 124.803,-301.645 135.397,-301.713 125.98,-298.349"/>
</g>
<!-- certains -->
<g id="node44" class="node"><title>certains</title>
<polygon fill="black" stroke="black" points="262.624,-304.986 235.624,-317.423 208.624,-304.986 218.937,-284.861 252.311,-284.861 262.624,-304.986"/>
<text text-anchor="middle" x="235.624" y="-296.923" font-family="Ume P Gothic Balsa" font-size="10.00" fill="white">certains</text>
</g>
<!-- lumière&#45;&gt;certains -->
<g id="edge51" class="edge"><title>lumière&#45;&gt;certains</title>
<path fill="none" stroke="black" d="M179.112,-306.31C185.522,-305.529 192.642,-304.661 199.608,-303.812"/>
<polygon fill="black" stroke="black" points="199.677,-303.804 200.1,-307.278 209.603,-302.594 199.677,-303.804"/>
</g>
<!-- Julie -->
<g id="node61" class="node"><title>Julie</title>
<polygon fill="black" stroke="black" points="128.287,-274.988 101.287,-287.425 74.2871,-274.988 84.6001,-254.863 117.974,-254.863 128.287,-274.988"/>
<text text-anchor="middle" x="101.287" y="-266.925" font-family="Ume P Gothic Balsa" font-size="10.00" fill="white">Julie</text>
</g>
<!-- lumière&#45;&gt;Julie -->
<g id="edge99" class="edge"><title>lumière&#45;&gt;Julie</title>
<path fill="none" stroke="black" d="M138.465,-296.337C134.192,-293.244 129.555,-289.887 125.052,-286.627"/>
<polygon fill="black" stroke="black" points="124.788,-286.436 126.84,-283.601 116.687,-280.573 124.788,-286.436"/>
</g>
<!-- aspects -->
<g id="node45" class="node"><title>aspects</title>
<polygon fill="black" stroke="black" points="241.531,-232.339 214.531,-244.777 187.531,-232.339 197.844,-212.215 231.218,-212.215 241.531,-232.339"/>
<text text-anchor="middle" x="214.531" y="-224.277" font-family="Ume P Gothic Balsa" font-size="10.00" fill="white">aspects</text>
</g>
<!-- certains&#45;&gt;aspects -->
<g id="edge52" class="edge"><title>certains&#45;&gt;aspects</title>
<path fill="none" stroke="black" d="M231.355,-284.722C228.673,-275.485 225.14,-263.315 222.004,-252.513"/>
<polygon fill="black" stroke="black" points="221.948,-252.32 225.309,-251.344 219.159,-242.717 221.948,-252.32"/>
</g>
<!-- aspects&#45;&gt;de -->
<g id="edge53" class="edge"><title>aspects&#45;&gt;de</title>
<path fill="none" stroke="black" d="M209.382,-212.021C206.666,-204.238 203.258,-194.472 200.137,-185.529"/>
<polygon fill="black" stroke="black" points="200.082,-185.371 203.387,-184.218 196.787,-175.929 200.082,-185.371"/>
</g>
<!-- mémoire -->
<g id="node47" class="node"><title>mémoire</title>
<polygon fill="black" stroke="black" points="131.416,-229.445 104.416,-241.883 77.4163,-229.445 87.7294,-209.32 121.103,-209.32 131.416,-229.445"/>
<text text-anchor="middle" x="104.416" y="-221.383" font-family="Ume P Gothic Balsa" font-size="10.00" fill="white">mémoire</text>
</g>
<!-- leur&#45;&gt;mémoire -->
<g id="edge55" class="edge"><title>leur&#45;&gt;mémoire</title>
<path fill="none" stroke="black" d="M148.5,-233.204C146.218,-232.721 143.858,-232.222 141.469,-231.717"/>
<polygon fill="black" stroke="black" points="141.403,-231.703 142.127,-228.279 131.62,-229.635 141.403,-231.703"/>
</g>
<!-- Chants -->
<g id="node48" class="node"><title>Chants</title>
<polygon fill="black" stroke="black" points="155.452,-291.961 128.452,-304.399 101.452,-291.961 111.765,-271.837 145.139,-271.837 155.452,-291.961"/>
<text text-anchor="middle" x="128.452" y="-283.899" font-family="Ume P Gothic Balsa" font-size="10.00" fill="white">Chants</text>
</g>
<!-- mémoire&#45;&gt;Chants -->
<g id="edge56" class="edge"><title>mémoire&#45;&gt;Chants</title>
<path fill="none" stroke="black" d="M110.358,-239.336C112.987,-246.175 116.142,-254.382 119.077,-262.015"/>
<polygon fill="black" stroke="black" points="119.156,-262.22 115.889,-263.476 122.744,-271.554 119.156,-262.22"/>
</g>
<!-- Eunice -->
<g id="node49" class="node"><title>Eunice</title>
<polygon fill="black" stroke="black" points="232.23,-309.056 205.23,-321.493 178.23,-309.056 188.543,-288.931 221.917,-288.931 232.23,-309.056"/>
<text text-anchor="middle" x="205.23" y="-300.993" font-family="Ume P Gothic Balsa" font-size="10.00" fill="white">Eunice</text>
</g>
<!-- Chants&#45;&gt;Eunice -->
<g id="edge57" class="edge"><title>Chants&#45;&gt;Eunice</title>
<path fill="none" stroke="black" d="M154.875,-292.282C160.766,-293.594 167.075,-294.998 173.165,-296.354"/>
<polygon fill="black" stroke="black" points="173.336,-296.392 172.575,-299.809 183.097,-298.566 173.336,-296.392"/>
</g>
<!-- Arias -->
<g id="node50" class="node"><title>Arias</title>
<polygon fill="black" stroke="black" points="296.95,-296.058 269.95,-308.495 242.95,-296.058 253.263,-275.933 286.637,-275.933 296.95,-296.058"/>
<text text-anchor="middle" x="269.95" y="-287.995" font-family="Ume P Gothic Balsa" font-size="10.00" fill="white">Arias</text>
</g>
<!-- Eunice&#45;&gt;Arias -->
<g id="edge58" class="edge"><title>Eunice&#45;&gt;Arias</title>
<path fill="none" stroke="black" d="M227.141,-299.093C228.856,-298.749 230.614,-298.395 232.394,-298.038"/>
<polygon fill="black" stroke="black" points="232.863,-297.944 233.552,-301.375 242.667,-295.975 232.863,-297.944"/>
</g>
<!-- Natalia -->
<g id="node51" class="node"><title>Natalia</title>
<polygon fill="black" stroke="black" points="245.484,-256.282 218.484,-268.72 191.484,-256.282 201.798,-236.157 235.171,-236.157 245.484,-256.282"/>
<text text-anchor="middle" x="218.484" y="-248.22" font-family="Ume P Gothic Balsa" font-size="10.00" fill="white">Natalia</text>
</g>
<!-- Arias&#45;&gt;Natalia -->
<g id="edge59" class="edge"><title>Arias&#45;&gt;Natalia</title>
<path fill="none" stroke="black" d="M252.526,-277.029C248.885,-274.215 244.994,-271.208 241.194,-268.271"/>
<polygon fill="black" stroke="black" points="241.059,-268.166 243.199,-265.397 233.146,-262.051 241.059,-268.166"/>
</g>
<!-- Sardi -->
<g id="node52" class="node"><title>Sardi</title>
<polygon fill="black" stroke="black" points="175.819,-291.854 148.819,-304.291 121.819,-291.854 132.132,-271.729 165.505,-271.729 175.819,-291.854"/>
<text text-anchor="middle" x="148.819" y="-283.791" font-family="Ume P Gothic Balsa" font-size="10.00" fill="white">Sardi</text>
</g>
<!-- Natalia&#45;&gt;Sardi -->
<g id="edge60" class="edge"><title>Natalia&#45;&gt;Sardi</title>
<path fill="none" stroke="black" d="M199.815,-260.252C192.824,-263.822 184.716,-267.962 177.051,-271.876"/>
<polygon fill="black" stroke="black" points="176.931,-271.937 175.34,-268.82 168.025,-276.485 176.931,-271.937"/>
</g>
<!-- Aveline -->
<g id="node53" class="node"><title>Aveline</title>
<polygon fill="black" stroke="black" points="147.302,-232.945 120.302,-245.383 93.3022,-232.945 103.615,-212.821 136.989,-212.821 147.302,-232.945"/>
<text text-anchor="middle" x="120.302" y="-224.883" font-family="Ume P Gothic Balsa" font-size="10.00" fill="white">Aveline</text>
</g>
<!-- Sardi&#45;&gt;Aveline -->
<g id="edge61" class="edge"><title>Sardi&#45;&gt;Aveline</title>
<path fill="none" stroke="black" d="M141.623,-271.426C138.74,-265.472 135.343,-258.454 132.118,-251.791"/>
<polygon fill="black" stroke="black" points="131.952,-251.449 135.102,-249.924 127.595,-242.448 131.952,-251.449"/>
</g>
<!-- Installation -->
<g id="node84" class="node"><title>Installation</title>
<polygon fill="black" stroke="black" points="251.684,-279.869 222.395,-292.306 193.106,-279.869 204.294,-259.744 240.497,-259.744 251.684,-279.869"/>
<text text-anchor="middle" x="222.395" y="-271.806" font-family="Ume P Gothic Balsa" font-size="10.00" fill="white">Installation</text>
</g>
<!-- Sardi&#45;&gt;Installation -->
<g id="edge93" class="edge"><title>Sardi&#45;&gt;Installation</title>
<path fill="none" stroke="black" d="M171.294,-282.63C175.038,-282.02 179.016,-281.372 183.036,-280.718"/>
<polygon fill="black" stroke="black" points="183.132,-280.702 183.695,-284.157 193.002,-279.094 183.132,-280.702"/>
</g>
<!-- Monnoyer -->
<g id="node54" class="node"><title>Monnoyer</title>
<polygon fill="black" stroke="black" points="145.913,-159.528 118.545,-171.966 91.1782,-159.528 101.632,-139.403 135.459,-139.403 145.913,-159.528"/>
<text text-anchor="middle" x="118.545" y="-151.466" font-family="Ume P Gothic Balsa" font-size="10.00" fill="white">Monnoyer</text>
</g>
<!-- Aveline&#45;&gt;Monnoyer -->
<g id="edge62" class="edge"><title>Aveline&#45;&gt;Monnoyer</title>
<path fill="none" stroke="black" d="M119.947,-212.526C119.738,-203.819 119.468,-192.532 119.221,-182.195"/>
<polygon fill="black" stroke="black" points="119.214,-181.911 122.713,-181.827 118.975,-171.914 119.214,-181.911"/>
</g>
<!-- Voix -->
<g id="node55" class="node"><title>Voix</title>
<polygon fill="black" stroke="black" points="199.377,-200.544 172.377,-212.982 145.377,-200.544 155.69,-180.419 189.064,-180.419 199.377,-200.544"/>
<text text-anchor="middle" x="172.377" y="-192.482" font-family="Ume P Gothic Balsa" font-size="10.00" fill="white">Voix</text>
</g>
<!-- Monnoyer&#45;&gt;Voix -->
<g id="edge63" class="edge"><title>Monnoyer&#45;&gt;Voix</title>
<path fill="none" stroke="black" d="M133.54,-165.391C137.662,-168.532 142.252,-172.028 146.791,-175.487"/>
<polygon fill="black" stroke="black" points="146.84,-175.525 144.719,-178.308 154.794,-181.585 146.84,-175.525"/>
</g>
<!-- acteur -->
<g id="node56" class="node"><title>acteur</title>
<polygon fill="black" stroke="black" points="272.542,-227.556 245.542,-239.994 218.542,-227.556 228.856,-207.431 262.229,-207.431 272.542,-227.556"/>
<text text-anchor="middle" x="245.542" y="-219.494" font-family="Ume P Gothic Balsa" font-size="10.00" fill="white">acteur</text>
</g>
<!-- Voix&#45;&gt;acteur -->
<g id="edge64" class="edge"><title>Voix&#45;&gt;acteur</title>
<path fill="none" stroke="black" d="M194.329,-203.086C201.043,-205.565 208.543,-208.334 215.69,-210.972"/>
<polygon fill="black" stroke="black" points="215.726,-210.986 214.514,-214.269 225.107,-214.449 215.726,-210.986"/>
</g>
<!-- Fabien -->
<g id="node57" class="node"><title>Fabien</title>
<polygon fill="black" stroke="black" points="203.831,-182.778 176.831,-195.215 149.831,-182.778 160.144,-162.653 193.518,-162.653 203.831,-182.778"/>
<text text-anchor="middle" x="176.831" y="-174.715" font-family="Ume P Gothic Balsa" font-size="10.00" fill="white">Fabien</text>
</g>
<!-- acteur&#45;&gt;Fabien -->
<g id="edge65" class="edge"><title>acteur&#45;&gt;Fabien</title>
<path fill="none" stroke="black" d="M227.129,-209.994C219.422,-204.971 210.34,-199.053 202.029,-193.636"/>
<polygon fill="black" stroke="black" points="201.793,-193.483 203.704,-190.55 193.415,-188.023 201.793,-193.483"/>
</g>
<!-- Dehasseler -->
<g id="node58" class="node"><title>Dehasseler</title>
<polygon fill="black" stroke="black" points="139.66,-185.78 109.4,-198.218 79.1402,-185.78 90.6984,-165.656 128.102,-165.656 139.66,-185.78"/>
<text text-anchor="middle" x="109.4" y="-177.718" font-family="Ume P Gothic Balsa" font-size="10.00" fill="white">Dehasseler</text>
</g>
<!-- Fabien&#45;&gt;Dehasseler -->
<g id="edge66" class="edge"><title>Fabien&#45;&gt;Dehasseler</title>
<path fill="none" stroke="black" d="M152.105,-178.316C150.348,-178.395 148.556,-178.475 146.749,-178.555"/>
<polygon fill="black" stroke="black" points="146.386,-178.571 146.23,-175.074 136.396,-179.016 146.386,-178.571"/>
</g>
<!-- Violon -->
<g id="node59" class="node"><title>Violon</title>
<polygon fill="black" stroke="black" points="95.7233,-240.642 68.7233,-253.08 41.7233,-240.642 52.0364,-220.517 85.4103,-220.517 95.7233,-240.642"/>
<text text-anchor="middle" x="68.7233" y="-232.58" font-family="Ume P Gothic Balsa" font-size="10.00" fill="white">Violon</text>
</g>
<!-- Dehasseler&#45;&gt;Violon -->
<g id="edge67" class="edge"><title>Dehasseler&#45;&gt;Violon</title>
<path fill="none" stroke="black" d="M99.1356,-194.062C95.0581,-199.561 90.2578,-206.036 85.6909,-212.195"/>
<polygon fill="black" stroke="black" points="85.6535,-212.246 82.842,-210.161 79.6975,-220.278 85.6535,-212.246"/>
</g>
<!-- alto -->
<g id="node60" class="node"><title>alto</title>
<polygon fill="black" stroke="black" points="53.5074,-308.593 26.5074,-321.03 -0.492604,-308.593 9.82048,-288.468 43.1943,-288.468 53.5074,-308.593"/>
<text text-anchor="middle" x="26.5074" y="-300.53" font-family="Ume P Gothic Balsa" font-size="10.00" fill="white">alto</text>
</g>
<!-- Violon&#45;&gt;alto -->
<g id="edge68" class="edge"><title>Violon&#45;&gt;alto</title>
<path fill="none" stroke="black" d="M59.9762,-249.159C54.5769,-257.85 47.5116,-269.222 41.2647,-279.277"/>
<polygon fill="black" stroke="black" points="41.1063,-279.532 38.1333,-277.685 35.829,-288.026 41.1063,-279.532"/>
</g>
<!-- alto&#45;&gt;Julie -->
<g id="edge69" class="edge"><title>alto&#45;&gt;Julie</title>
<path fill="none" stroke="black" d="M46.1549,-294.201C54.0151,-290.669 63.2371,-286.524 71.8654,-282.647"/>
<polygon fill="black" stroke="black" points="72.1292,-282.529 73.5639,-285.721 81.2505,-278.429 72.1292,-282.529"/>
</g>
<!-- Vermeulen -->
<g id="node62" class="node"><title>Vermeulen</title>
<polygon fill="black" stroke="black" points="126.299,-199.61 96.9859,-212.047 67.6725,-199.61 78.8692,-179.485 115.103,-179.485 126.299,-199.61"/>
<text text-anchor="middle" x="96.9859" y="-191.547" font-family="Ume P Gothic Balsa" font-size="10.00" fill="white">Vermeulen</text>
</g>
<!-- Julie&#45;&gt;Vermeulen -->
<g id="edge70" class="edge"><title>Julie&#45;&gt;Vermeulen</title>
<path fill="none" stroke="black" d="M100.437,-254.533C99.9067,-245.234 99.2068,-232.969 98.5761,-221.916"/>
<polygon fill="black" stroke="black" points="98.5701,-221.81 102.064,-221.61 98.0004,-211.826 98.5701,-221.81"/>
</g>
<!-- Petit -->
<g id="node88" class="node"><title>Petit</title>
<polygon fill="black" stroke="black" points="73.0308,-330.589 46.0308,-343.026 19.0308,-330.589 29.3439,-310.464 62.7177,-310.464 73.0308,-330.589"/>
<text text-anchor="middle" x="46.0308" y="-322.526" font-family="Ume P Gothic Balsa" font-size="10.00" fill="white">Petit</text>
</g>
<!-- Julie&#45;&gt;Petit -->
<g id="edge100" class="edge"><title>Julie&#45;&gt;Petit</title>
<path fill="none" stroke="black" d="M88.7486,-282.042C82.6688,-288.16 75.1828,-295.693 68.1848,-302.734"/>
<polygon fill="black" stroke="black" points="67.9216,-302.999 65.439,-300.532 60.8725,-310.092 67.9216,-302.999"/>
</g>
<!-- Violoncelle -->
<g id="node63" class="node"><title>Violoncelle</title>
<polygon fill="black" stroke="black" points="186.156,-243.773 155.896,-256.21 125.636,-243.773 137.194,-223.648 174.598,-223.648 186.156,-243.773"/>
<text text-anchor="middle" x="155.896" y="-235.71" font-family="Ume P Gothic Balsa" font-size="10.00" fill="white">Violoncelle</text>
</g>
<!-- Vermeulen&#45;&gt;Violoncelle -->
<g id="edge71" class="edge"><title>Vermeulen&#45;&gt;Violoncelle</title>
<path fill="none" stroke="black" d="M112.464,-205.651C117.296,-209.273 122.782,-213.386 128.189,-217.439"/>
<polygon fill="black" stroke="black" points="128.514,-217.682 126.414,-220.483 136.515,-223.681 128.514,-217.682"/>
</g>
<!-- Corentin -->
<g id="node64" class="node"><title>Corentin</title>
<polygon fill="black" stroke="black" points="246.52,-205.436 219.52,-217.874 192.52,-205.436 202.833,-185.311 236.207,-185.311 246.52,-205.436"/>
<text text-anchor="middle" x="219.52" y="-197.374" font-family="Ume P Gothic Balsa" font-size="10.00" fill="white">Corentin</text>
</g>
<!-- Violoncelle&#45;&gt;Corentin -->
<g id="edge72" class="edge"><title>Violoncelle&#45;&gt;Corentin</title>
<path fill="none" stroke="black" d="M176.377,-225.869C181.908,-222.537 187.964,-218.888 193.744,-215.405"/>
<polygon fill="black" stroke="black" points="193.92,-215.299 195.726,-218.297 202.485,-210.138 193.92,-215.299"/>
</g>
<!-- Dellicour -->
<g id="node65" class="node"><title>Dellicour</title>
<polygon fill="black" stroke="black" points="320.949,-230.647 293.949,-243.085 266.949,-230.647 277.262,-210.523 310.636,-210.523 320.949,-230.647"/>
<text text-anchor="middle" x="293.949" y="-222.585" font-family="Ume P Gothic Balsa" font-size="10.00" fill="white">Dellicour</text>
</g>
<!-- Corentin&#45;&gt;Dellicour -->
<g id="edge73" class="edge"><title>Corentin&#45;&gt;Dellicour</title>
<path fill="none" stroke="black" d="M242.255,-207.575C248.862,-209.813 256.189,-212.295 263.201,-214.67"/>
<polygon fill="black" stroke="black" points="263.655,-214.824 262.532,-218.139 273.127,-218.032 263.655,-214.824"/>
</g>
<!-- Flûte -->
<g id="node66" class="node"><title>Flûte</title>
<polygon fill="black" stroke="black" points="353.97,-169.05 326.97,-181.487 299.97,-169.05 310.283,-148.925 343.657,-148.925 353.97,-169.05"/>
<text text-anchor="middle" x="326.97" y="-160.987" font-family="Ume P Gothic Balsa" font-size="10.00" fill="white">Flûte</text>
</g>
<!-- Dellicour&#45;&gt;Flûte -->
<g id="edge74" class="edge"><title>Dellicour&#45;&gt;Flûte</title>
<path fill="none" stroke="black" d="M301.774,-210.487C305.558,-203.43 310.192,-194.785 314.449,-186.844"/>
<polygon fill="black" stroke="black" points="314.476,-186.794 317.561,-188.447 319.201,-177.98 314.476,-186.794"/>
</g>
<!-- Barbara -->
<g id="node67" class="node"><title>Barbara</title>
<polygon fill="black" stroke="black" points="305.8,-109.93 278.8,-122.368 251.8,-109.93 262.113,-89.8055 295.487,-89.8055 305.8,-109.93"/>
<text text-anchor="middle" x="278.8" y="-101.868" font-family="Ume P Gothic Balsa" font-size="10.00" fill="white">Barbara</text>
</g>
<!-- Flûte&#45;&gt;Barbara -->
<g id="edge75" class="edge"><title>Flûte&#45;&gt;Barbara</title>
<path fill="none" stroke="black" d="M315.063,-148.874C309.334,-141.843 302.358,-133.281 296.06,-125.551"/>
<polygon fill="black" stroke="black" points="295.901,-125.356 298.614,-123.145 289.584,-117.603 295.901,-125.356"/>
</g>
<!-- Malter -->
<g id="node68" class="node"><title>Malter</title>
<polygon fill="black" stroke="black" points="328.668,-181.864 301.668,-194.302 274.668,-181.864 284.981,-161.739 318.355,-161.739 328.668,-181.864"/>
<text text-anchor="middle" x="301.668" y="-173.802" font-family="Ume P Gothic Balsa" font-size="10.00" fill="white">Malter</text>
</g>
<!-- Barbara&#45;&gt;Malter -->
<g id="edge76" class="edge"><title>Barbara&#45;&gt;Malter</title>
<path fill="none" stroke="black" d="M283.875,-120.332C286.797,-129.521 290.53,-141.264 293.821,-151.619"/>
<polygon fill="black" stroke="black" points="293.89,-151.834 290.554,-152.895 296.919,-161.364 293.89,-151.834"/>
</g>
<!-- Terrada -->
<g id="node69" class="node"><title>Terrada</title>
<polygon fill="black" stroke="black" points="330.404,-106.022 303.404,-118.459 276.404,-106.022 286.718,-85.8969 320.091,-85.8969 330.404,-106.022"/>
<text text-anchor="middle" x="303.404" y="-97.9592" font-family="Ume P Gothic Balsa" font-size="10.00" fill="white">Terrada</text>
</g>
<!-- Malter&#45;&gt;Terrada -->
<g id="edge77" class="edge"><title>Malter&#45;&gt;Terrada</title>
<path fill="none" stroke="black" d="M302.003,-161.679C302.216,-152.349 302.5,-139.948 302.757,-128.748"/>
<polygon fill="black" stroke="black" points="302.762,-128.514 306.261,-128.595 302.991,-118.517 302.762,-128.514"/>
</g>
<!-- Trompette -->
<g id="node70" class="node"><title>Trompette</title>
<polygon fill="black" stroke="black" points="276.253,-52.8244 246.94,-65.2621 217.627,-52.8244 228.823,-32.6998 265.057,-32.6998 276.253,-52.8244"/>
<text text-anchor="middle" x="246.94" y="-44.7621" font-family="Ume P Gothic Balsa" font-size="10.00" fill="white">Trompette</text>
</g>
<!-- Terrada&#45;&gt;Trompette -->
<g id="edge78" class="edge"><title>Terrada&#45;&gt;Trompette</title>
<path fill="none" stroke="black" d="M287.676,-85.6409C281.484,-79.8073 274.287,-73.0264 267.68,-66.8015"/>
<polygon fill="black" stroke="black" points="267.569,-66.697 269.969,-64.1495 260.29,-59.8396 267.569,-66.697"/>
</g>
<!-- Ludovic -->
<g id="node71" class="node"><title>Ludovic</title>
<polygon fill="black" stroke="black" points="209.184,-23.8448 182.184,-36.2825 155.184,-23.8448 165.497,-3.72023 198.871,-3.72023 209.184,-23.8448"/>
<text text-anchor="middle" x="182.184" y="-15.7825" font-family="Ume P Gothic Balsa" font-size="10.00" fill="white">Ludovic</text>
</g>
<!-- Trompette&#45;&gt;Ludovic -->
<g id="edge79" class="edge"><title>Trompette&#45;&gt;Ludovic</title>
<path fill="none" stroke="black" d="M225.737,-37.7731C221.269,-35.7737 216.477,-33.6294 211.766,-31.5208"/>
<polygon fill="black" stroke="black" points="211.463,-31.3853 212.892,-28.1906 202.335,-27.3004 211.463,-31.3853"/>
</g>
<!-- Bouteligier -->
<g id="node72" class="node"><title>Bouteligier</title>
<polygon fill="black" stroke="black" points="147.118,-73.8025 117.829,-86.2402 88.5404,-73.8025 99.7278,-53.6779 135.931,-53.6779 147.118,-73.8025"/>
<text text-anchor="middle" x="117.829" y="-65.7402" font-family="Ume P Gothic Balsa" font-size="10.00" fill="white">Bouteligier</text>
</g>
<!-- Ludovic&#45;&gt;Bouteligier -->
<g id="edge80" class="edge"><title>Ludovic&#45;&gt;Bouteligier</title>
<path fill="none" stroke="black" d="M167.581,-29.6187C160.827,-34.8618 152.583,-41.2616 144.763,-47.3319"/>
<polygon fill="black" stroke="black" points="144.435,-47.587 142.288,-44.8222 136.535,-53.719 144.435,-47.587"/>
</g>
<!-- Clarinette -->
<g id="node73" class="node"><title>Clarinette</title>
<polygon fill="black" stroke="black" points="167.644,-138.246 140.277,-150.684 112.909,-138.246 123.363,-118.122 157.19,-118.122 167.644,-138.246"/>
<text text-anchor="middle" x="140.277" y="-130.184" font-family="Ume P Gothic Balsa" font-size="10.00" fill="white">Clarinette</text>
</g>
<!-- Bouteligier&#45;&gt;Clarinette -->
<g id="edge81" class="edge"><title>Bouteligier&#45;&gt;Clarinette</title>
<path fill="none" stroke="black" d="M123.378,-84.1701C125.898,-91.4034 128.935,-100.123 131.735,-108.163"/>
<polygon fill="black" stroke="black" points="131.81,-108.377 128.505,-109.529 135.099,-117.821 131.81,-108.377"/>
</g>
<!-- basse -->
<g id="node74" class="node"><title>basse</title>
<polygon fill="black" stroke="black" points="87.2328,-125.804 60.2328,-138.242 33.2328,-125.804 43.5459,-105.68 76.9197,-105.68 87.2328,-125.804"/>
<text text-anchor="middle" x="60.2328" y="-117.742" font-family="Ume P Gothic Balsa" font-size="10.00" fill="white">basse</text>
</g>
<!-- Clarinette&#45;&gt;basse -->
<g id="edge82" class="edge"><title>Clarinette&#45;&gt;basse</title>
<path fill="none" stroke="black" d="M117.125,-129.085C110.734,-128.092 103.641,-126.989 96.6928,-125.909"/>
<polygon fill="black" stroke="black" points="96.5956,-125.894 97.1332,-122.436 86.7143,-124.358 96.5956,-125.894"/>
</g>
<!-- Yann -->
<g id="node75" class="node"><title>Yann</title>
<polygon fill="black" stroke="black" points="123.153,-57.1029 96.1535,-69.5406 69.1535,-57.1029 79.4666,-36.9783 112.84,-36.9783 123.153,-57.1029"/>
<text text-anchor="middle" x="96.1535" y="-49.0406" font-family="Ume P Gothic Balsa" font-size="10.00" fill="white">Yann</text>
</g>
<!-- basse&#45;&gt;Yann -->
<g id="edge83" class="edge"><title>basse&#45;&gt;Yann</title>
<path fill="none" stroke="black" d="M67.8507,-105.672C72.4702,-96.8369 78.4744,-85.3533 83.7634,-75.2376"/>
<polygon fill="black" stroke="black" points="83.9131,-74.9512 87.0148,-76.5729 88.5466,-66.0894 83.9131,-74.9512"/>
</g>
<!-- Lecollaire -->
<g id="node76" class="node"><title>Lecollaire</title>
<polygon fill="black" stroke="black" points="189.951,-48.4717 163.056,-60.9094 136.16,-48.4717 146.433,-28.347 179.678,-28.347 189.951,-48.4717"/>
<text text-anchor="middle" x="163.056" y="-40.4094" font-family="Ume P Gothic Balsa" font-size="10.00" fill="white">Lecollaire</text>
</g>
<!-- Yann&#45;&gt;Lecollaire -->
<g id="edge84" class="edge"><title>Yann&#45;&gt;Lecollaire</title>
<path fill="none" stroke="black" d="M119.177,-48.5702C121.691,-48.246 124.292,-47.9104 126.915,-47.572"/>
<polygon fill="black" stroke="black" points="127.086,-47.55 127.534,-51.0212 137.004,-46.2704 127.086,-47.55"/>
</g>
<!-- Percussions -->
<g id="node77" class="node"><title>Percussions</title>
<polygon fill="black" stroke="black" points="266.833,-74.4494 233.7,-86.8871 200.568,-74.4494 213.223,-54.3248 254.177,-54.3248 266.833,-74.4494"/>
<text text-anchor="middle" x="233.7" y="-66.3871" font-family="Ume P Gothic Balsa" font-size="10.00" fill="white">Percussions</text>
</g>
<!-- Lecollaire&#45;&gt;Percussions -->
<g id="edge85" class="edge"><title>Lecollaire&#45;&gt;Percussions</title>
<path fill="none" stroke="black" d="M185.021,-50.9865C189.71,-52.7109 194.768,-54.5709 199.788,-56.4168"/>
<polygon fill="black" stroke="black" points="199.902,-56.4587 198.694,-59.7437 209.288,-59.9101 199.902,-56.4587"/>
</g>
<!-- batterie -->
<g id="node78" class="node"><title>batterie</title>
<polygon fill="black" stroke="black" points="179.178,-77.5635 152.178,-90.0012 125.178,-77.5635 135.492,-57.4389 168.865,-57.4389 179.178,-77.5635"/>
<text text-anchor="middle" x="152.178" y="-69.5012" font-family="Ume P Gothic Balsa" font-size="10.00" fill="white">batterie</text>
</g>
<!-- Percussions&#45;&gt;batterie -->
<g id="edge86" class="edge"><title>Percussions&#45;&gt;batterie</title>
<path fill="none" stroke="black" d="M202.88,-70.0644C197.44,-70.2722 191.748,-70.4896 186.225,-70.7006"/>
<polygon fill="black" stroke="black" points="185.917,-70.7123 185.783,-67.2149 175.924,-71.0941 185.917,-70.7123"/>
</g>
<!-- Christophe -->
<g id="node79" class="node"><title>Christophe</title>
<polygon fill="black" stroke="black" points="134.798,-126.774 105.509,-139.212 76.2204,-126.774 87.4079,-106.649 123.611,-106.649 134.798,-126.774"/>
<text text-anchor="middle" x="105.509" y="-118.712" font-family="Ume P Gothic Balsa" font-size="10.00" fill="white">Christophe</text>
</g>
<!-- batterie&#45;&gt;Christophe -->
<g id="edge87" class="edge"><title>batterie&#45;&gt;Christophe</title>
<path fill="none" stroke="black" d="M140.16,-84.6741C136.048,-89.0098 131.318,-93.9978 126.7,-98.8668"/>
<polygon fill="black" stroke="black" points="126.524,-99.0531 123.984,-96.6447 119.642,-106.309 126.524,-99.0531"/>
</g>
<!-- Lagnaux -->
<g id="node80" class="node"><title>Lagnaux</title>
<polygon fill="black" stroke="black" points="68.8874,-169.651 41.8874,-182.089 14.8874,-169.651 25.2005,-149.527 58.5743,-149.527 68.8874,-169.651"/>
<text text-anchor="middle" x="41.8874" y="-161.589" font-family="Ume P Gothic Balsa" font-size="10.00" fill="white">Lagnaux</text>
</g>
<!-- Christophe&#45;&gt;Lagnaux -->
<g id="edge88" class="edge"><title>Christophe&#45;&gt;Lagnaux</title>
<path fill="none" stroke="black" d="M88.7935,-132.477C82.5807,-136.664 75.3678,-141.525 68.4891,-146.161"/>
<polygon fill="black" stroke="black" points="68.3476,-146.256 66.3916,-143.354 60.055,-151.845 68.3476,-146.256"/>
</g>
<!-- Guitare -->
<g id="node81" class="node"><title>Guitare</title>
<polygon fill="black" stroke="black" points="117.905,-111.545 90.9047,-123.983 63.9047,-111.545 74.2178,-91.4207 107.592,-91.4207 117.905,-111.545"/>
<text text-anchor="middle" x="90.9047" y="-103.483" font-family="Ume P Gothic Balsa" font-size="10.00" fill="white">Guitare</text>
</g>
<!-- Lagnaux&#45;&gt;Guitare -->
<g id="edge89" class="edge"><title>Lagnaux&#45;&gt;Guitare</title>
<path fill="none" stroke="black" d="M54.2565,-149.426C60.005,-142.612 66.9455,-134.385 73.2334,-126.931"/>
<polygon fill="black" stroke="black" points="73.2649,-126.893 75.9401,-129.15 79.7129,-119.25 73.2649,-126.893"/>
</g>
<!-- électrique -->
<g id="node82" class="node"><title>électrique</title>
<polygon fill="black" stroke="black" points="95.461,-186.081 68.0938,-198.518 40.7266,-186.081 51.18,-165.956 85.0077,-165.956 95.461,-186.081"/>
<text text-anchor="middle" x="68.0938" y="-178.018" font-family="Ume P Gothic Balsa" font-size="10.00" fill="white">électrique</text>
</g>
<!-- Guitare&#45;&gt;électrique -->
<g id="edge90" class="edge"><title>Guitare&#45;&gt;électrique</title>
<path fill="none" stroke="black" d="M86.0671,-121.79C83.0232,-131.736 79.0325,-144.776 75.5849,-156.041"/>
<polygon fill="black" stroke="black" points="75.5406,-156.186 72.1939,-155.162 72.6141,-165.748 75.5406,-156.186"/>
</g>
<!-- Malena -->
<g id="node83" class="node"><title>Malena</title>
<polygon fill="black" stroke="black" points="118.578,-246.612 91.5784,-259.049 64.5784,-246.612 74.8915,-226.487 108.265,-226.487 118.578,-246.612"/>
<text text-anchor="middle" x="91.5784" y="-238.549" font-family="Ume P Gothic Balsa" font-size="10.00" fill="white">Malena</text>
</g>
<!-- électrique&#45;&gt;Malena -->
<g id="edge91" class="edge"><title>électrique&#45;&gt;Malena</title>
<path fill="none" stroke="black" d="M74.1417,-196.107C76.5523,-202.32 79.3854,-209.622 82.0589,-216.513"/>
<polygon fill="black" stroke="black" points="82.1768,-216.817 78.9138,-218.083 85.7939,-226.14 82.1768,-216.817"/>
</g>
<!-- Malena&#45;&gt;Sardi -->
<g id="edge92" class="edge"><title>Malena&#45;&gt;Sardi</title>
<path fill="none" stroke="black" d="M106.022,-252.466C111.305,-256.641 117.449,-261.498 123.406,-266.206"/>
<polygon fill="black" stroke="black" points="123.469,-266.255 121.298,-269.001 131.314,-272.456 123.469,-266.255"/>
</g>
<!-- Installation&#45;&gt;lumière -->
<g id="edge98" class="edge"><title>Installation&#45;&gt;lumière</title>
<path fill="none" stroke="black" d="M203.224,-284.374C197.367,-287.449 190.798,-290.899 184.467,-294.224"/>
<polygon fill="black" stroke="black" points="184.326,-294.298 182.699,-291.199 175.472,-298.947 184.326,-294.298"/>
</g>
<!-- plastique -->
<g id="node85" class="node"><title>plastique</title>
<polygon fill="black" stroke="black" points="232.824,-359.698 205.824,-372.135 178.824,-359.698 189.137,-339.573 222.511,-339.573 232.824,-359.698"/>
<text text-anchor="middle" x="205.824" y="-351.635" font-family="Ume P Gothic Balsa" font-size="10.00" fill="white">plastique</text>
</g>
<!-- Installation&#45;&gt;plastique -->
<g id="edge94" class="edge"><title>Installation&#45;&gt;plastique</title>
<path fill="none" stroke="black" d="M218.881,-291.236C216.588,-302.28 213.556,-316.886 210.991,-329.243"/>
<polygon fill="black" stroke="black" points="210.92,-329.586 207.493,-328.874 208.887,-339.377 210.92,-329.586"/>
</g>
<!-- Marilyne -->
<g id="node86" class="node"><title>Marilyne</title>
<polygon fill="black" stroke="black" points="290.279,-318.847 263.279,-331.285 236.279,-318.847 246.592,-298.722 279.966,-298.722 290.279,-318.847"/>
<text text-anchor="middle" x="263.279" y="-310.785" font-family="Ume P Gothic Balsa" font-size="10.00" fill="white">Marilyne</text>
</g>
<!-- plastique&#45;&gt;Marilyne -->
<g id="edge95" class="edge"><title>plastique&#45;&gt;Marilyne</title>
<path fill="none" stroke="black" d="M223.688,-341.434C228.584,-337.953 233.974,-334.121 239.158,-330.435"/>
<polygon fill="black" stroke="black" points="239.415,-330.252 241.443,-333.105 247.565,-324.457 239.415,-330.252"/>
</g>
<!-- Grimmer -->
<g id="node87" class="node"><title>Grimmer</title>
<polygon fill="black" stroke="black" points="210.197,-338.133 183.197,-350.571 156.197,-338.133 166.51,-318.008 199.884,-318.008 210.197,-338.133"/>
<text text-anchor="middle" x="183.197" y="-330.071" font-family="Ume P Gothic Balsa" font-size="10.00" fill="white">Grimmer</text>
</g>
<!-- Marilyne&#45;&gt;Grimmer -->
<g id="edge96" class="edge"><title>Marilyne&#45;&gt;Grimmer</title>
<path fill="none" stroke="black" d="M237.5,-319.493C230.27,-321.234 222.326,-323.147 214.799,-324.96"/>
<polygon fill="black" stroke="black" points="214.622,-325.003 213.802,-321.6 204.9,-327.344 214.622,-325.003"/>
</g>
<!-- Grimmer&#45;&gt;Installation -->
<g id="edge97" class="edge"><title>Grimmer&#45;&gt;Installation</title>
<path fill="none" stroke="black" d="M193.089,-317.868C197.362,-311.516 202.46,-303.938 207.196,-296.898"/>
<polygon fill="black" stroke="black" points="207.331,-296.698 210.235,-298.652 212.913,-288.401 207.331,-296.698"/>
</g>
<!-- Étienne -->
<g id="node89" class="node"><title>Étienne</title>
<polygon fill="black" stroke="black" points="143.71,-313.105 116.71,-325.542 89.7101,-313.105 100.023,-292.98 133.397,-292.98 143.71,-313.105"/>
<text text-anchor="middle" x="116.71" y="-305.042" font-family="Ume P Gothic Balsa" font-size="10.00" fill="white">Étienne</text>
</g>
<!-- Petit&#45;&gt;Étienne -->
<g id="edge101" class="edge"><title>Petit&#45;&gt;Étienne</title>
<path fill="none" stroke="black" d="M67.621,-319.686C71.9395,-318.617 76.5825,-317.469 81.2287,-316.319"/>
<polygon fill="black" stroke="black" points="81.5733,-316.234 82.4138,-319.632 91.2807,-313.833 81.5733,-316.234"/>
</g>
<!-- Assistanat -->
<g id="node90" class="node"><title>Assistanat</title>
<polygon fill="black" stroke="black" points="87.7027,-278.798 59.3641,-291.236 31.0255,-278.798 41.8499,-258.673 76.8783,-258.673 87.7027,-278.798"/>
<text text-anchor="middle" x="59.3641" y="-270.736" font-family="Ume P Gothic Balsa" font-size="10.00" fill="white">Assistanat</text>
</g>
<!-- Étienne&#45;&gt;Assistanat -->
<g id="edge102" class="edge"><title>Étienne&#45;&gt;Assistanat</title>
<path fill="none" stroke="black" d="M97.9329,-296.309C94.0049,-293.959 89.7946,-291.44 85.6511,-288.962"/>
<polygon fill="black" stroke="black" points="85.4045,-288.814 87.2014,-285.811 76.8229,-283.68 85.4045,-288.814"/>
</g>
<!-- Roxane -->
<g id="node91" class="node"><title>Roxane</title>
<polygon fill="black" stroke="black" points="149.069,-260.054 122.069,-272.492 95.0694,-260.054 105.382,-239.929 138.756,-239.929 149.069,-260.054"/>
<text text-anchor="middle" x="122.069" y="-251.992" font-family="Ume P Gothic Balsa" font-size="10.00" fill="white">Roxane</text>
</g>
<!-- Assistanat&#45;&gt;Roxane -->
<g id="edge103" class="edge"><title>Assistanat&#45;&gt;Roxane</title>
<path fill="none" stroke="black" d="M81.6482,-266.575C83.9055,-265.9 86.2314,-265.205 88.5734,-264.504"/>
<polygon fill="black" stroke="black" points="88.5752,-264.504 89.5777,-267.857 98.1563,-261.64 88.5752,-264.504"/>
</g>
<!-- Lefebvre -->
<g id="node92" class="node"><title>Lefebvre</title>
<polygon fill="black" stroke="black" points="226.013,-282.413 199.013,-294.851 172.013,-282.413 182.326,-262.289 215.699,-262.289 226.013,-282.413"/>
<text text-anchor="middle" x="199.013" y="-274.351" font-family="Ume P Gothic Balsa" font-size="10.00" fill="white">Lefebvre</text>
</g>
<!-- Roxane&#45;&gt;Lefebvre -->
<g id="edge104" class="edge"><title>Roxane&#45;&gt;Lefebvre</title>
<path fill="none" stroke="black" d="M146.415,-261.566C153.218,-263.543 160.706,-265.719 167.846,-267.794"/>
<polygon fill="black" stroke="black" points="168.334,-267.936 167.357,-271.297 177.937,-270.727 168.334,-267.936"/>
</g>
<!-- Regards -->
<g id="node93" class="node"><title>Regards</title>
<polygon fill="black" stroke="black" points="166.412,-336.657 139.412,-349.094 112.412,-336.657 122.725,-316.532 156.099,-316.532 166.412,-336.657"/>
<text text-anchor="middle" x="139.412" y="-328.594" font-family="Ume P Gothic Balsa" font-size="10.00" fill="white">Regards</text>
</g>
<!-- Lefebvre&#45;&gt;Regards -->
<g id="edge105" class="edge"><title>Lefebvre&#45;&gt;Regards</title>
<path fill="none" stroke="black" d="M185.785,-288.889C179.098,-294.976 170.778,-302.548 163.039,-309.591"/>
<polygon fill="black" stroke="black" points="162.971,-309.653 160.615,-307.065 155.575,-316.384 162.971,-309.653"/>
</g>
<!-- Philippe -->
<g id="node94" class="node"><title>Philippe</title>
<polygon fill="black" stroke="black" points="239.351,-332.828 212.351,-345.266 185.351,-332.828 195.664,-312.704 229.037,-312.704 239.351,-332.828"/>
<text text-anchor="middle" x="212.351" y="-324.766" font-family="Ume P Gothic Balsa" font-size="10.00" fill="white">Philippe</text>
</g>
<!-- Regards&#45;&gt;Philippe -->
<g id="edge106" class="edge"><title>Regards&#45;&gt;Philippe</title>
<path fill="none" stroke="black" d="M163.295,-329.841C167.762,-329.606 172.517,-329.357 177.242,-329.109"/>
<polygon fill="black" stroke="black" points="177.426,-329.099 177.609,-332.594 187.412,-328.575 177.426,-329.099"/>
</g>
<!-- Eustachon -->
<g id="node95" class="node"><title>Eustachon</title>
<polygon fill="black" stroke="black" points="195.713,-264.939 168.346,-277.377 140.979,-264.939 151.432,-244.814 185.26,-244.814 195.713,-264.939"/>
<text text-anchor="middle" x="168.346" y="-256.877" font-family="Ume P Gothic Balsa" font-size="10.00" fill="white">Eustachon</text>
</g>
<!-- Philippe&#45;&gt;Eustachon -->
<g id="edge107" class="edge"><title>Philippe&#45;&gt;Eustachon</title>
<path fill="none" stroke="black" d="M202.802,-312.535C197.074,-303.697 189.666,-292.269 183.188,-282.274"/>
<polygon fill="black" stroke="black" points="183.013,-282.005 185.95,-280.102 177.574,-273.614 183.013,-282.005"/>
</g>
<!-- Eustachon&#45;&gt;et -->
<g id="edge108" class="edge"><title>Eustachon&#45;&gt;et</title>
<path fill="none" stroke="black" d="M163.99,-244.718C161.749,-237.179 158.952,-227.767 156.367,-219.066"/>
<polygon fill="black" stroke="black" points="156.323,-218.918 159.678,-217.921 153.474,-209.332 156.323,-218.918"/>
</g>
<!-- Mossoux -->
<g id="node97" class="node"><title>Mossoux</title>
<polygon fill="black" stroke="black" points="273.721,-95.1049 246.721,-107.543 219.721,-95.1049 230.034,-74.9803 263.408,-74.9803 273.721,-95.1049"/>
<text text-anchor="middle" x="246.721" y="-87.0426" font-family="Ume P Gothic Balsa" font-size="10.00" fill="white">Mossoux</text>
</g>
<!-- Nicole&#45;&gt;Mossoux -->
<g id="edge110" class="edge"><title>Nicole&#45;&gt;Mossoux</title>
<path fill="none" stroke="black" d="M213.674,-118.853C217.418,-115.532 221.446,-111.959 225.359,-108.489"/>
<polygon fill="black" stroke="black" points="225.619,-108.258 227.941,-110.877 233.1,-101.623 225.619,-108.258"/>
</g>
<!-- Une -->
<g id="node98" class="node"><title>Une</title>
<polygon fill="black" stroke="black" points="247.949,-160.132 220.949,-172.569 193.949,-160.132 204.262,-140.007 237.636,-140.007 247.949,-160.132"/>
<text text-anchor="middle" x="220.949" y="-152.069" font-family="Ume P Gothic Balsa" font-size="10.00" fill="white">Une</text>
</g>
<!-- Mossoux&#45;&gt;Une -->
<g id="edge111" class="edge"><title>Mossoux&#45;&gt;Une</title>
<path fill="none" stroke="black" d="M240.613,-104.953C237.618,-112.511 233.939,-121.794 230.577,-130.277"/>
<polygon fill="black" stroke="black" points="230.52,-130.421 227.266,-129.131 226.835,-139.717 230.52,-130.421"/>
</g>
<!-- production -->
<g id="node99" class="node"><title>production</title>
<polygon fill="black" stroke="black" points="212.945,-92.1458 183.656,-104.583 154.367,-92.1458 165.554,-72.0211 201.757,-72.0211 212.945,-92.1458"/>
<text text-anchor="middle" x="183.656" y="-84.0834" font-family="Ume P Gothic Balsa" font-size="10.00" fill="white">production</text>
</g>
<!-- Une&#45;&gt;production -->
<g id="edge112" class="edge"><title>Une&#45;&gt;production</title>
<path fill="none" stroke="black" d="M212.857,-139.817C208.117,-131.176 202.019,-120.06 196.623,-110.223"/>
<polygon fill="black" stroke="black" points="196.541,-110.074 199.61,-108.391 191.732,-101.307 196.541,-110.074"/>
</g>
<!-- production&#45;&gt;de -->
<g id="edge113" class="edge"><title>production&#45;&gt;de</title>
<path fill="none" stroke="black" d="M185.474,-104.05C186.448,-113.402 187.664,-125.083 188.735,-135.372"/>
<polygon fill="black" stroke="black" points="188.747,-135.488 185.266,-135.85 189.783,-145.434 188.747,-135.488"/>
</g>
</g>
</svg>
