<?xml version="1.0" encoding="UTF-8" standalone="no"?>
<!DOCTYPE svg PUBLIC "-//W3C//DTD SVG 1.1//EN"
 "http://www.w3.org/Graphics/SVG/1.1/DTD/svg11.dtd">
<!-- Generated by graphviz version 2.28.0 (20120426.1432)
 -->
<!-- Title: _anonymous_0 Pages: 1 -->
<svg width="388pt" height="326pt"
 viewBox="0.00 0.00 388.00 326.00" xmlns="http://www.w3.org/2000/svg" xmlns:xlink="http://www.w3.org/1999/xlink">
<g id="graph1" class="graph" transform="scale(1 1) rotate(0) translate(4 322)">
<title>_anonymous_0</title>
<!-- The -->
<g id="node1" class="node"><title>The</title>
<polygon fill="none" stroke="none" points="131.339,-36.1211 77.3385,-36.1211 77.3385,-0.121098 131.339,-0.121098 131.339,-36.1211"/>
<text text-anchor="middle" x="104.339" y="-15.6211" font-family="Ume P Gothic Balsa" font-size="10.00">The</text>
</g>
<!-- Darling -->
<g id="node3" class="node"><title>Darling</title>
<polygon fill="none" stroke="none" points="176.748,-96.2368 122.748,-96.2368 122.748,-60.2368 176.748,-60.2368 176.748,-96.2368"/>
<text text-anchor="middle" x="149.748" y="-75.7368" font-family="Ume P Gothic Balsa" font-size="10.00">Darling</text>
</g>
<!-- The&#45;&gt;Darling -->
<g id="edge2" class="edge"><title>The&#45;&gt;Darling</title>
<path fill="none" stroke="none" d="M117.963,-36.1578C121.735,-41.151 125.907,-46.6741 129.953,-52.0312"/>
<polygon fill="none" stroke="none" points="130.106,-52.2334 127.313,-54.343 136.133,-60.2128 130.106,-52.2334"/>
</g>
<!-- Scenes -->
<g id="node4" class="node"><title>Scenes</title>
<polygon fill="none" stroke="none" points="180.177,-199.537 126.177,-199.537 126.177,-163.537 180.177,-163.537 180.177,-199.537"/>
<text text-anchor="middle" x="153.177" y="-179.037" font-family="Ume P Gothic Balsa" font-size="10.00">Scenes</text>
</g>
<!-- Darling&#45;&gt;Scenes -->
<g id="edge3" class="edge"><title>Darling&#45;&gt;Scenes</title>
<path fill="none" stroke="none" d="M150.361,-96.7048C150.881,-112.349 151.634,-135.037 152.231,-153.014"/>
<polygon fill="none" stroke="none" points="152.238,-153.234 148.74,-153.35 152.57,-163.229 152.238,-153.234"/>
</g>
<!-- reprend -->
<g id="node5" class="node"><title>reprend</title>
<polygon fill="none" stroke="none" points="231.871,-255.888 177.871,-255.888 177.871,-219.888 231.871,-219.888 231.871,-255.888"/>
<text text-anchor="middle" x="204.871" y="-235.388" font-family="Ume P Gothic Balsa" font-size="10.00">reprend</text>
</g>
<!-- Scenes&#45;&gt;reprend -->
<g id="edge4" class="edge"><title>Scenes&#45;&gt;reprend</title>
<path fill="none" stroke="none" d="M169.818,-199.677C173.508,-203.699 177.485,-208.034 181.39,-212.291"/>
<polygon fill="none" stroke="none" points="181.502,-212.413 178.923,-214.779 188.262,-219.782 181.502,-212.413"/>
</g>
<!-- la -->
<g id="node6" class="node"><title>la</title>
<polygon fill="none" stroke="none" points="183.904,-219.22 129.904,-219.22 129.904,-183.22 183.904,-183.22 183.904,-219.22"/>
<text text-anchor="middle" x="156.904" y="-198.72" font-family="Ume P Gothic Balsa" font-size="10.00">la</text>
</g>
<!-- reprend&#45;&gt;la -->
<g id="edge5" class="edge"><title>reprend&#45;&gt;la</title>
<path fill="none" stroke="none" d="M181.169,-219.769C181.074,-219.697 180.98,-219.625 180.886,-219.552"/>
<polygon fill="none" stroke="none" points="188.547,-225.41 190.673,-222.629 180.602,-219.336 188.547,-225.41"/>
</g>
<!-- trajectoire -->
<g id="node7" class="node"><title>trajectoire</title>
<polygon fill="none" stroke="none" points="143.033,-155.871 89.0329,-155.871 89.0329,-119.871 143.033,-119.871 143.033,-155.871"/>
<text text-anchor="middle" x="116.033" y="-135.371" font-family="Ume P Gothic Balsa" font-size="10.00">trajectoire</text>
</g>
<!-- la&#45;&gt;trajectoire -->
<g id="edge6" class="edge"><title>la&#45;&gt;trajectoire</title>
<path fill="none" stroke="none" d="M145.083,-182.897C141.408,-177.201 137.278,-170.8 133.311,-164.651"/>
<polygon fill="none" stroke="none" points="133.108,-164.337 136.049,-162.44 127.687,-155.934 133.108,-164.337"/>
</g>
<!-- fin -->
<g id="node12" class="node"><title>fin</title>
<polygon fill="none" stroke="none" points="229.459,-162.915 175.459,-162.915 175.459,-126.915 229.459,-126.915 229.459,-162.915"/>
<text text-anchor="middle" x="202.459" y="-142.415" font-family="Ume P Gothic Balsa" font-size="10.00">fin</text>
</g>
<!-- la&#45;&gt;fin -->
<g id="edge12" class="edge"><title>la&#45;&gt;fin</title>
<path fill="none" stroke="none" d="M171.569,-183.095C174.739,-179.177 178.15,-174.961 181.508,-170.811"/>
<polygon fill="none" stroke="none" points="181.532,-170.781 184.253,-172.982 187.822,-163.006 181.532,-170.781"/>
</g>
<!-- solitude -->
<g id="node40" class="node"><title>solitude</title>
<polygon fill="none" stroke="none" points="163.306,-287.302 109.306,-287.302 109.306,-251.302 163.306,-251.302 163.306,-287.302"/>
<text text-anchor="middle" x="136.306" y="-266.802" font-family="Ume P Gothic Balsa" font-size="10.00">solitude</text>
</g>
<!-- la&#45;&gt;solitude -->
<g id="edge47" class="edge"><title>la&#45;&gt;solitude</title>
<path fill="none" stroke="none" d="M151.384,-219.465C149.352,-226.18 147.002,-233.95 144.77,-241.327"/>
<polygon fill="none" stroke="none" points="144.737,-241.435 141.387,-240.422 141.841,-251.007 144.737,-241.435"/>
</g>
<!-- dissolution -->
<g id="node44" class="node"><title>dissolution</title>
<polygon fill="none" stroke="none" points="133.719,-285.66 79.7188,-285.66 79.7188,-249.66 133.719,-249.66 133.719,-285.66"/>
<text text-anchor="middle" x="106.719" y="-265.16" font-family="Ume P Gothic Balsa" font-size="10.00">dissolution</text>
</g>
<!-- la&#45;&gt;dissolution -->
<g id="edge55" class="edge"><title>la&#45;&gt;dissolution</title>
<path fill="none" stroke="none" d="M134.215,-219.409C128.637,-226.005 122.917,-233.573 118.089,-240.747"/>
<polygon fill="none" stroke="none" points="117.882,-241.072 114.926,-239.198 112.528,-249.518 117.882,-241.072"/>
</g>
<!-- vieillesse -->
<g id="node45" class="node"><title>vieillesse</title>
<polygon fill="none" stroke="none" points="208.404,-283.975 154.404,-283.975 154.404,-247.975 208.404,-247.975 208.404,-283.975"/>
<text text-anchor="middle" x="181.404" y="-263.475" font-family="Ume P Gothic Balsa" font-size="10.00">vieillesse</text>
</g>
<!-- la&#45;&gt;vieillesse -->
<g id="edge57" class="edge"><title>la&#45;&gt;vieillesse</title>
<path fill="none" stroke="none" d="M163.729,-219.258C165.922,-225.054 168.405,-231.618 170.803,-237.955"/>
<polygon fill="none" stroke="none" points="170.907,-238.231 167.634,-239.47 174.446,-247.584 170.907,-238.231"/>
</g>
<!-- mort -->
<g id="node47" class="node"><title>mort</title>
<polygon fill="none" stroke="none" points="202.805,-155.418 148.805,-155.418 148.805,-119.418 202.805,-119.418 202.805,-155.418"/>
<text text-anchor="middle" x="175.805" y="-134.918" font-family="Ume P Gothic Balsa" font-size="10.00">mort</text>
</g>
<!-- la&#45;&gt;mort -->
<g id="edge60" class="edge"><title>la&#45;&gt;mort</title>
<path fill="none" stroke="none" d="M162.27,-183.108C163.892,-177.632 165.713,-171.486 167.481,-165.519"/>
<polygon fill="none" stroke="none" points="167.52,-165.386 170.876,-166.38 170.361,-155.797 167.52,-165.386"/>
</g>
<!-- Balsamine -->
<g id="node58" class="node"><title>Balsamine</title>
<polygon fill="none" stroke="none" points="112.458,-203.404 58.4584,-203.404 58.4584,-167.404 112.458,-167.404 112.458,-203.404"/>
<text text-anchor="middle" x="85.4584" y="-182.904" font-family="Ume P Gothic Balsa" font-size="10.00">Balsamine</text>
</g>
<!-- la&#45;&gt;Balsamine -->
<g id="edge75" class="edge"><title>la&#45;&gt;Balsamine</title>
<path fill="none" stroke="none" d="M129.894,-195.241C127.404,-194.69 124.854,-194.125 122.297,-193.559"/>
<polygon fill="none" stroke="none" points="122.271,-193.554 123.027,-190.136 112.507,-191.392 122.271,-193.554"/>
</g>
<!-- Fédération -->
<g id="node61" class="node"><title>Fédération</title>
<polygon fill="none" stroke="none" points="100.684,-230.402 46.6842,-230.402 46.6842,-194.402 100.684,-194.402 100.684,-230.402"/>
<text text-anchor="middle" x="73.6842" y="-209.902" font-family="Ume P Gothic Balsa" font-size="10.00">Fédération</text>
</g>
<!-- la&#45;&gt;Fédération -->
<g id="edge80" class="edge"><title>la&#45;&gt;Fédération</title>
<path fill="none" stroke="none" d="M129.655,-204.882C123.703,-205.681 117.304,-206.541 111.035,-207.383"/>
<polygon fill="none" stroke="none" points="110.622,-207.439 110.155,-203.97 100.711,-208.771 110.622,-207.439"/>
</g>
<!-- Danse -->
<g id="node65" class="node"><title>Danse</title>
<polygon fill="none" stroke="none" points="246.217,-293.524 192.217,-293.524 192.217,-257.524 246.217,-257.524 246.217,-293.524"/>
<text text-anchor="middle" x="219.217" y="-273.024" font-family="Ume P Gothic Balsa" font-size="10.00">Danse</text>
</g>
<!-- la&#45;&gt;Danse -->
<g id="edge86" class="edge"><title>la&#45;&gt;Danse</title>
<path fill="none" stroke="none" d="M172.307,-219.587C179.853,-228.585 189.072,-239.578 197.334,-249.43"/>
<polygon fill="none" stroke="none" points="197.565,-249.705 194.883,-251.955 203.991,-257.368 197.565,-249.705"/>
</g>
<!-- d -->
<g id="node8" class="node"><title>d</title>
<polygon fill="none" stroke="none" points="207.457,-176.887 153.457,-176.887 153.457,-140.887 207.457,-140.887 207.457,-176.887"/>
<text text-anchor="middle" x="180.457" y="-156.387" font-family="Ume P Gothic Balsa" font-size="10.00">d</text>
</g>
<!-- trajectoire&#45;&gt;d -->
<g id="edge7" class="edge"><title>trajectoire&#45;&gt;d</title>
<path fill="none" stroke="none" d="M143.355,-146.784C143.458,-146.817 143.56,-146.851 143.663,-146.884"/>
<polygon fill="none" stroke="none" points="143.792,-146.926 142.706,-150.254 153.299,-150.028 143.792,-146.926"/>
</g>
<!-- un -->
<g id="node9" class="node"><title>un</title>
<polygon fill="none" stroke="none" points="281.227,-196.675 227.227,-196.675 227.227,-160.675 281.227,-160.675 281.227,-196.675"/>
<text text-anchor="middle" x="254.227" y="-176.175" font-family="Ume P Gothic Balsa" font-size="10.00">un</text>
</g>
<!-- d&#45;&gt;un -->
<g id="edge8" class="edge"><title>d&#45;&gt;un</title>
<path fill="none" stroke="none" d="M207.508,-166.143C210.715,-167.004 214.03,-167.893 217.344,-168.782"/>
<polygon fill="none" stroke="none" points="217.522,-168.829 216.615,-172.21 227.18,-171.42 217.522,-168.829"/>
</g>
<!-- amour -->
<g id="node23" class="node"><title>amour</title>
<polygon fill="none" stroke="none" points="253.296,-224.911 199.296,-224.911 199.296,-188.911 253.296,-188.911 253.296,-224.911"/>
<text text-anchor="middle" x="226.296" y="-204.411" font-family="Ume P Gothic Balsa" font-size="10.00">amour</text>
</g>
<!-- d&#45;&gt;amour -->
<g id="edge25" class="edge"><title>d&#45;&gt;amour</title>
<path fill="none" stroke="none" d="M197.787,-177.043C199.156,-178.477 200.554,-179.941 201.958,-181.413"/>
<polygon fill="none" stroke="none" points="202.037,-181.496 199.506,-183.912 208.942,-188.73 202.037,-181.496"/>
</g>
<!-- couple -->
<g id="node10" class="node"><title>couple</title>
<polygon fill="none" stroke="none" points="300.625,-115.752 246.625,-115.752 246.625,-79.7519 300.625,-79.7519 300.625,-115.752"/>
<text text-anchor="middle" x="273.625" y="-95.2519" font-family="Ume P Gothic Balsa" font-size="10.00">couple</text>
</g>
<!-- un&#45;&gt;couple -->
<g id="edge9" class="edge"><title>un&#45;&gt;couple</title>
<path fill="none" stroke="none" d="M258.629,-160.313C261.077,-150.102 264.173,-137.182 266.917,-125.738"/>
<polygon fill="none" stroke="none" points="266.976,-125.488 270.38,-126.304 269.308,-115.763 266.976,-125.488"/>
</g>
<!-- lieu -->
<g id="node26" class="node"><title>lieu</title>
<polygon fill="none" stroke="none" points="339.364,-233.662 285.364,-233.662 285.364,-197.662 339.364,-197.662 339.364,-233.662"/>
<text text-anchor="middle" x="312.364" y="-213.162" font-family="Ume P Gothic Balsa" font-size="10.00">lieu</text>
</g>
<!-- un&#45;&gt;lieu -->
<g id="edge29" class="edge"><title>un&#45;&gt;lieu</title>
<path fill="none" stroke="none" d="M281.253,-195.869C281.416,-195.973 281.58,-196.077 281.743,-196.181"/>
<polygon fill="none" stroke="none" points="276.736,-192.995 274.857,-195.949 285.173,-198.363 276.736,-192.995"/>
</g>
<!-- à -->
<g id="node11" class="node"><title>à</title>
<polygon fill="none" stroke="none" points="249.827,-168.511 195.827,-168.511 195.827,-132.511 249.827,-132.511 249.827,-168.511"/>
<text text-anchor="middle" x="222.827" y="-148.011" font-family="Ume P Gothic Balsa" font-size="10.00">à</text>
</g>
<!-- couple&#45;&gt;à -->
<g id="edge10" class="edge"><title>couple&#45;&gt;à</title>
<path fill="none" stroke="none" d="M256.143,-115.908C253.237,-118.926 250.178,-122.104 247.139,-125.26"/>
<polygon fill="none" stroke="none" points="247.105,-125.296 244.584,-122.868 240.169,-132.499 247.105,-125.296"/>
</g>
<!-- à&#45;&gt;la -->
<g id="edge46" class="edge"><title>à&#45;&gt;la</title>
<path fill="none" stroke="none" d="M195.773,-154.065C186.177,-159.312 175.981,-167.069 168.238,-174.989"/>
<polygon fill="none" stroke="none" points="167.961,-175.308 165.313,-173.02 161.424,-182.876 167.961,-175.308"/>
</g>
<!-- à&#45;&gt;la -->
<g id="edge54" class="edge"><title>à&#45;&gt;la</title>
<path fill="none" stroke="none" d="M218.48,-168.621C212.578,-176.651 202.922,-185.372 192.902,-192.175"/>
<polygon fill="none" stroke="none" points="192.606,-192.357 190.773,-189.376 184.088,-197.595 192.606,-192.357"/>
</g>
<!-- à&#45;&gt;la -->
<g id="edge11" class="edge"><title>à&#45;&gt;la</title>
<path fill="none" stroke="none" d="M199.4,-168.532C195.986,-171.158 192.422,-173.899 188.874,-176.628"/>
<polygon fill="none" stroke="none" points="188.627,-176.818 186.493,-174.044 180.701,-182.915 188.627,-176.818"/>
</g>
<!-- de -->
<g id="node13" class="node"><title>de</title>
<polygon fill="none" stroke="none" points="158.003,-168.604 104.003,-168.604 104.003,-132.604 158.003,-132.604 158.003,-168.604"/>
<text text-anchor="middle" x="131.003" y="-148.104" font-family="Ume P Gothic Balsa" font-size="10.00">de</text>
</g>
<!-- fin&#45;&gt;de -->
<g id="edge13" class="edge"><title>fin&#45;&gt;de</title>
<path fill="none" stroke="none" d="M175.445,-147.066C173.044,-147.257 170.587,-147.453 168.121,-147.649"/>
<polygon fill="none" stroke="none" points="168.024,-147.656 167.746,-144.168 158.056,-148.45 168.024,-147.656"/>
</g>
<!-- de&#45;&gt;la -->
<g id="edge74" class="edge"><title>de&#45;&gt;la</title>
<path fill="none" stroke="none" d="M125.644,-168.807C125.956,-170.424 126.378,-172.079 126.898,-173.744"/>
<polygon fill="none" stroke="none" points="126.997,-173.981 123.766,-175.327 130.842,-183.212 126.997,-173.981"/>
</g>
<!-- de&#45;&gt;la -->
<g id="edge79" class="edge"><title>de&#45;&gt;la</title>
<path fill="none" stroke="none" d="M157.154,-168.783C157.911,-170.242 158.609,-171.733 159.238,-173.236"/>
<polygon fill="none" stroke="none" points="159.34,-173.568 155.995,-174.599 162.284,-183.126 159.34,-173.568"/>
</g>
<!-- de&#45;&gt;la -->
<g id="edge85" class="edge"><title>de&#45;&gt;la</title>
<path fill="none" stroke="none" d="M140.354,-168.877C141.245,-170.619 142.161,-172.409 143.083,-174.21"/>
<polygon fill="none" stroke="none" points="143.098,-174.241 139.982,-175.835 147.654,-183.143 143.098,-174.241"/>
</g>
<!-- leur -->
<g id="node14" class="node"><title>leur</title>
<polygon fill="none" stroke="none" points="228.702,-181.173 174.702,-181.173 174.702,-145.173 228.702,-145.173 228.702,-181.173"/>
<text text-anchor="middle" x="201.702" y="-160.673" font-family="Ume P Gothic Balsa" font-size="10.00">leur</text>
</g>
<!-- de&#45;&gt;leur -->
<g id="edge14" class="edge"><title>de&#45;&gt;leur</title>
<path fill="none" stroke="none" d="M158.135,-155.427C160.203,-155.795 162.312,-156.17 164.43,-156.546"/>
<polygon fill="none" stroke="none" points="164.446,-156.549 163.834,-159.995 174.292,-158.3 164.446,-156.549"/>
</g>
<!-- l -->
<g id="node18" class="node"><title>l</title>
<polygon fill="none" stroke="none" points="190.245,-120.615 136.245,-120.615 136.245,-84.6147 190.245,-84.6147 190.245,-120.615"/>
<text text-anchor="middle" x="163.245" y="-100.115" font-family="Ume P Gothic Balsa" font-size="10.00">l</text>
</g>
<!-- de&#45;&gt;l -->
<g id="edge50" class="edge"><title>de&#45;&gt;l</title>
<path fill="none" stroke="none" d="M143.192,-132.461C143.914,-131.386 144.648,-130.295 145.386,-129.196"/>
<polygon fill="none" stroke="none" points="145.462,-129.084 148.367,-131.035 151.039,-120.783 145.462,-129.084"/>
</g>
<!-- cette -->
<g id="node20" class="node"><title>cette</title>
<polygon fill="none" stroke="none" points="102.062,-154.947 48.0625,-154.947 48.0625,-118.947 102.062,-118.947 102.062,-154.947"/>
<text text-anchor="middle" x="75.0625" y="-134.447" font-family="Ume P Gothic Balsa" font-size="10.00">cette</text>
</g>
<!-- de&#45;&gt;cette -->
<g id="edge21" class="edge"><title>de&#45;&gt;cette</title>
<path fill="none" stroke="none" d="M103.688,-143.936C103.577,-143.909 103.466,-143.882 103.355,-143.854"/>
<polygon fill="none" stroke="none" points="112.071,-145.983 112.902,-142.583 102.357,-143.611 112.071,-145.983"/>
</g>
<!-- fusion -->
<g id="node37" class="node"><title>fusion</title>
<polygon fill="none" stroke="none" points="236.986,-110.294 182.986,-110.294 182.986,-74.2943 236.986,-74.2943 236.986,-110.294"/>
<text text-anchor="middle" x="209.986" y="-89.7943" font-family="Ume P Gothic Balsa" font-size="10.00">fusion</text>
</g>
<!-- de&#45;&gt;fusion -->
<g id="edge42" class="edge"><title>de&#45;&gt;fusion</title>
<path fill="none" stroke="none" d="M155.561,-132.474C162.396,-127.428 169.931,-121.865 177.159,-116.529"/>
<polygon fill="none" stroke="none" points="177.398,-116.352 179.477,-119.168 185.443,-110.413 177.398,-116.352"/>
</g>
<!-- Charleroi -->
<g id="node68" class="node"><title>Charleroi</title>
<polygon fill="none" stroke="none" points="209.191,-244.329 155.191,-244.329 155.191,-208.329 209.191,-208.329 209.191,-244.329"/>
<text text-anchor="middle" x="182.191" y="-223.829" font-family="Ume P Gothic Balsa" font-size="10.00">Charleroi</text>
</g>
<!-- de&#45;&gt;Charleroi -->
<g id="edge91" class="edge"><title>de&#45;&gt;Charleroi</title>
<path fill="none" stroke="none" d="M143.394,-168.935C149.619,-178.143 157.278,-189.474 164.142,-199.629"/>
<polygon fill="none" stroke="none" points="164.314,-199.882 161.414,-201.842 169.914,-208.167 164.314,-199.882"/>
</g>
<!-- vie -->
<g id="node15" class="node"><title>vie</title>
<polygon fill="none" stroke="none" points="201.248,-102.723 147.248,-102.723 147.248,-66.7232 201.248,-66.7232 201.248,-102.723"/>
<text text-anchor="middle" x="174.248" y="-82.2232" font-family="Ume P Gothic Balsa" font-size="10.00">vie</text>
</g>
<!-- leur&#45;&gt;vie -->
<g id="edge15" class="edge"><title>leur&#45;&gt;vie</title>
<path fill="none" stroke="none" d="M195.334,-144.978C191.939,-135.274 187.69,-123.133 183.898,-112.297"/>
<polygon fill="none" stroke="none" points="183.884,-112.258 187.188,-111.102 180.581,-102.82 183.884,-112.258"/>
</g>
<!-- rencontre -->
<g id="node30" class="node"><title>rencontre</title>
<polygon fill="none" stroke="none" points="264.475,-112.038 210.475,-112.038 210.475,-76.0376 264.475,-76.0376 264.475,-112.038"/>
<text text-anchor="middle" x="237.475" y="-91.5376" font-family="Ume P Gothic Balsa" font-size="10.00">rencontre</text>
</g>
<!-- leur&#45;&gt;rencontre -->
<g id="edge34" class="edge"><title>leur&#45;&gt;rencontre</title>
<path fill="none" stroke="none" d="M211.101,-145.008C214.851,-137.762 219.248,-129.264 223.365,-121.306"/>
<polygon fill="none" stroke="none" points="223.419,-121.202 226.528,-122.811 228.015,-112.321 223.419,-121.202"/>
</g>
<!-- En -->
<g id="node16" class="node"><title>En</title>
<polygon fill="none" stroke="none" points="270.674,-66.1715 216.674,-66.1715 216.674,-30.1715 270.674,-30.1715 270.674,-66.1715"/>
<text text-anchor="middle" x="243.674" y="-45.6715" font-family="Ume P Gothic Balsa" font-size="10.00">En</text>
</g>
<!-- vie&#45;&gt;En -->
<g id="edge16" class="edge"><title>vie&#45;&gt;En</title>
<path fill="none" stroke="none" d="M201.288,-70.4867C203.33,-69.4118 205.409,-68.3172 207.495,-67.219"/>
<polygon fill="none" stroke="none" points="207.744,-67.088 209.375,-70.185 216.593,-62.4293 207.744,-67.088"/>
</g>
<!-- retraçant -->
<g id="node17" class="node"><title>retraçant</title>
<polygon fill="none" stroke="none" points="193.151,-54.8247 139.151,-54.8247 139.151,-18.8247 193.151,-18.8247 193.151,-54.8247"/>
<text text-anchor="middle" x="166.151" y="-34.3247" font-family="Ume P Gothic Balsa" font-size="10.00">retraçant</text>
</g>
<!-- En&#45;&gt;retraçant -->
<g id="edge17" class="edge"><title>En&#45;&gt;retraçant</title>
<path fill="none" stroke="none" d="M216.56,-44.2029C212.336,-43.5846 207.908,-42.9365 203.504,-42.292"/>
<polygon fill="none" stroke="none" points="203.275,-42.2585 203.782,-38.7954 193.381,-40.8102 203.275,-42.2585"/>
</g>
<!-- retraçant&#45;&gt;l -->
<g id="edge18" class="edge"><title>retraçant&#45;&gt;l</title>
<path fill="none" stroke="none" d="M165.342,-55.1509C165.083,-60.9966 164.791,-67.6115 164.509,-74.0066"/>
<polygon fill="none" stroke="none" points="164.492,-74.3965 160.995,-74.2421 164.05,-84.3868 164.492,-74.3965"/>
</g>
<!-- évolution -->
<g id="node19" class="node"><title>évolution</title>
<polygon fill="none" stroke="none" points="211.185,-201.061 157.185,-201.061 157.185,-165.061 211.185,-165.061 211.185,-201.061"/>
<text text-anchor="middle" x="184.185" y="-180.561" font-family="Ume P Gothic Balsa" font-size="10.00">évolution</text>
</g>
<!-- l&#45;&gt;évolution -->
<g id="edge19" class="edge"><title>l&#45;&gt;évolution</title>
<path fill="none" stroke="none" d="M167.997,-120.869C170.621,-130.949 173.936,-143.684 176.881,-155.001"/>
<polygon fill="none" stroke="none" points="176.933,-155.201 173.546,-156.083 179.453,-164.878 176.933,-155.201"/>
</g>
<!-- être -->
<g id="node42" class="node"><title>être</title>
<polygon fill="none" stroke="none" points="114.609,-126.037 60.6092,-126.037 60.6092,-90.0366 114.609,-90.0366 114.609,-126.037"/>
<text text-anchor="middle" x="87.6092" y="-105.537" font-family="Ume P Gothic Balsa" font-size="10.00">être</text>
</g>
<!-- l&#45;&gt;être -->
<g id="edge51" class="edge"><title>l&#45;&gt;être</title>
<path fill="none" stroke="none" d="M135.939,-104.572C132.252,-104.836 128.421,-105.111 124.601,-105.385"/>
<polygon fill="none" stroke="none" points="124.596,-105.385 124.346,-101.894 114.622,-106.1 124.596,-105.385"/>
</g>
<!-- évolution&#45;&gt;de -->
<g id="edge20" class="edge"><title>évolution&#45;&gt;de</title>
<path fill="none" stroke="none" d="M156.971,-166.452C156.92,-166.421 156.869,-166.39 156.818,-166.358"/>
<polygon fill="none" stroke="none" points="165.201,-171.477 167.025,-168.489 156.664,-166.265 165.201,-171.477"/>
</g>
<!-- longue -->
<g id="node21" class="node"><title>longue</title>
<polygon fill="none" stroke="none" points="176.256,-167.007 122.256,-167.007 122.256,-131.007 176.256,-131.007 176.256,-167.007"/>
<text text-anchor="middle" x="149.256" y="-146.507" font-family="Ume P Gothic Balsa" font-size="10.00">longue</text>
</g>
<!-- cette&#45;&gt;longue -->
<g id="edge22" class="edge"><title>cette&#45;&gt;longue</title>
<path fill="none" stroke="none" d="M102.268,-141.369C105.494,-141.894 108.828,-142.436 112.161,-142.977"/>
<polygon fill="none" stroke="none" points="112.183,-142.981 111.622,-146.436 122.054,-144.585 112.183,-142.981"/>
</g>
<!-- histoire -->
<g id="node22" class="node"><title>histoire</title>
<polygon fill="none" stroke="none" points="255.951,-202.895 201.951,-202.895 201.951,-166.895 255.951,-166.895 255.951,-202.895"/>
<text text-anchor="middle" x="228.951" y="-182.395" font-family="Ume P Gothic Balsa" font-size="10.00">histoire</text>
</g>
<!-- longue&#45;&gt;histoire -->
<g id="edge23" class="edge"><title>longue&#45;&gt;histoire</title>
<path fill="none" stroke="none" d="M176.683,-161.358C181.748,-163.639 187.111,-166.054 192.396,-168.434"/>
<polygon fill="none" stroke="none" points="192.626,-168.537 191.189,-171.728 201.744,-172.643 192.626,-168.537"/>
</g>
<!-- histoire&#45;&gt;d -->
<g id="edge24" class="edge"><title>histoire&#45;&gt;d</title>
<path fill="none" stroke="none" d="M201.869,-170.37C201.825,-170.347 201.782,-170.324 201.738,-170.301"/>
<polygon fill="none" stroke="none" points="210.422,-174.961 212.077,-171.876 201.608,-170.231 210.422,-174.961"/>
</g>
<!-- on -->
<g id="node24" class="node"><title>on</title>
<polygon fill="none" stroke="none" points="326.632,-263.594 272.632,-263.594 272.632,-227.594 326.632,-227.594 326.632,-263.594"/>
<text text-anchor="middle" x="299.632" y="-243.094" font-family="Ume P Gothic Balsa" font-size="10.00">on</text>
</g>
<!-- amour&#45;&gt;on -->
<g id="edge26" class="edge"><title>amour&#45;&gt;on</title>
<path fill="none" stroke="none" d="M253.604,-221.315C256.892,-223.05 260.288,-224.841 263.676,-226.628"/>
<polygon fill="none" stroke="none" points="263.701,-226.641 262.068,-229.737 272.546,-231.306 263.701,-226.641"/>
</g>
<!-- explore -->
<g id="node25" class="node"><title>explore</title>
<polygon fill="none" stroke="none" points="362.243,-205.3 308.243,-205.3 308.243,-169.3 362.243,-169.3 362.243,-205.3"/>
<text text-anchor="middle" x="335.243" y="-184.8" font-family="Ume P Gothic Balsa" font-size="10.00">explore</text>
</g>
<!-- on&#45;&gt;explore -->
<g id="edge27" class="edge"><title>on&#45;&gt;explore</title>
<path fill="none" stroke="none" d="M310.704,-227.469C313.226,-223.341 315.959,-218.868 318.654,-214.455"/>
<polygon fill="none" stroke="none" points="318.842,-214.148 321.828,-215.973 324.055,-205.615 318.842,-214.148"/>
</g>
<!-- explore&#45;&gt;un -->
<g id="edge28" class="edge"><title>explore&#45;&gt;un</title>
<path fill="none" stroke="none" d="M307.815,-184.38C302.612,-183.826 297.086,-183.238 291.636,-182.658"/>
<polygon fill="none" stroke="none" points="291.296,-182.622 291.667,-179.141 281.352,-181.563 291.296,-182.622"/>
</g>
<!-- clos -->
<g id="node27" class="node"><title>clos</title>
<polygon fill="none" stroke="none" points="342.604,-303.696 288.604,-303.696 288.604,-267.696 342.604,-267.696 342.604,-303.696"/>
<text text-anchor="middle" x="315.604" y="-283.196" font-family="Ume P Gothic Balsa" font-size="10.00">clos</text>
</g>
<!-- lieu&#45;&gt;clos -->
<g id="edge30" class="edge"><title>lieu&#45;&gt;clos</title>
<path fill="none" stroke="none" d="M313.198,-233.698C313.532,-240.912 313.924,-249.395 314.294,-257.392"/>
<polygon fill="none" stroke="none" points="314.299,-257.489 310.802,-257.651 314.761,-267.478 314.299,-257.489"/>
</g>
<!-- intime -->
<g id="node28" class="node"><title>intime</title>
<polygon fill="none" stroke="none" points="318.956,-216.511 264.956,-216.511 264.956,-180.511 318.956,-180.511 318.956,-216.511"/>
<text text-anchor="middle" x="291.956" y="-196.011" font-family="Ume P Gothic Balsa" font-size="10.00">intime</text>
</g>
<!-- clos&#45;&gt;intime -->
<g id="edge31" class="edge"><title>clos&#45;&gt;intime</title>
<path fill="none" stroke="none" d="M310.704,-267.631C307.47,-255.708 303.169,-239.85 299.502,-226.331"/>
<polygon fill="none" stroke="none" points="299.468,-226.204 302.845,-225.288 296.85,-216.553 299.468,-226.204"/>
</g>
<!-- De -->
<g id="node29" class="node"><title>De</title>
<polygon fill="none" stroke="none" points="259.733,-261.828 205.733,-261.828 205.733,-225.828 259.733,-225.828 259.733,-261.828"/>
<text text-anchor="middle" x="232.733" y="-241.328" font-family="Ume P Gothic Balsa" font-size="10.00">De</text>
</g>
<!-- intime&#45;&gt;De -->
<g id="edge32" class="edge"><title>intime&#45;&gt;De</title>
<path fill="none" stroke="none" d="M268.209,-216.682C267.002,-217.606 265.782,-218.539 264.557,-219.477"/>
<polygon fill="none" stroke="none" points="264.427,-219.576 262.3,-216.796 256.486,-225.653 264.427,-219.576"/>
</g>
<!-- De&#45;&gt;leur -->
<g id="edge33" class="edge"><title>De&#45;&gt;leur</title>
<path fill="none" stroke="none" d="M225.692,-225.526C221.764,-215.317 216.791,-202.391 212.392,-190.959"/>
<polygon fill="none" stroke="none" points="212.306,-190.735 215.573,-189.478 208.716,-181.402 212.306,-190.735"/>
</g>
<!-- aux -->
<g id="node31" class="node"><title>aux</title>
<polygon fill="none" stroke="none" points="340.083,-123.431 286.083,-123.431 286.083,-87.4312 340.083,-87.4312 340.083,-123.431"/>
<text text-anchor="middle" x="313.083" y="-102.931" font-family="Ume P Gothic Balsa" font-size="10.00">aux</text>
</g>
<!-- rencontre&#45;&gt;aux -->
<g id="edge35" class="edge"><title>rencontre&#45;&gt;aux</title>
<path fill="none" stroke="none" d="M264.771,-98.151C268.457,-98.7063 272.287,-99.2835 276.105,-99.8589"/>
<polygon fill="none" stroke="none" points="276.192,-99.8719 275.671,-103.333 286.08,-101.362 276.192,-99.8719"/>
</g>
<!-- premiers -->
<g id="node32" class="node"><title>premiers</title>
<polygon fill="none" stroke="none" points="314.421,-187.638 260.421,-187.638 260.421,-151.638 314.421,-151.638 314.421,-187.638"/>
<text text-anchor="middle" x="287.421" y="-167.138" font-family="Ume P Gothic Balsa" font-size="10.00">premiers</text>
</g>
<!-- aux&#45;&gt;premiers -->
<g id="edge36" class="edge"><title>aux&#45;&gt;premiers</title>
<path fill="none" stroke="none" d="M305.798,-123.659C303.503,-129.401 300.915,-135.876 298.421,-142.116"/>
<polygon fill="none" stroke="none" points="298.347,-142.302 295.097,-141.003 294.636,-151.588 298.347,-142.302"/>
</g>
<!-- émois -->
<g id="node33" class="node"><title>émois</title>
<polygon fill="none" stroke="none" points="242.946,-136.049 188.946,-136.049 188.946,-100.049 242.946,-100.049 242.946,-136.049"/>
<text text-anchor="middle" x="215.946" y="-115.549" font-family="Ume P Gothic Balsa" font-size="10.00">émois</text>
</g>
<!-- premiers&#45;&gt;émois -->
<g id="edge37" class="edge"><title>premiers&#45;&gt;émois</title>
<path fill="none" stroke="none" d="M262.423,-151.595C258.203,-148.549 253.764,-145.345 249.371,-142.174"/>
<polygon fill="none" stroke="none" points="249.16,-142.022 251.208,-139.184 241.051,-136.169 249.16,-142.022"/>
</g>
<!-- du -->
<g id="node34" class="node"><title>du</title>
<polygon fill="none" stroke="none" points="166.811,-127.591 112.811,-127.591 112.811,-91.591 166.811,-91.591 166.811,-127.591"/>
<text text-anchor="middle" x="139.811" y="-107.091" font-family="Ume P Gothic Balsa" font-size="10.00">du</text>
</g>
<!-- émois&#45;&gt;du -->
<g id="edge38" class="edge"><title>émois&#45;&gt;du</title>
<path fill="none" stroke="none" d="M188.889,-115.043C185.12,-114.624 181.193,-114.188 177.275,-113.753"/>
<polygon fill="none" stroke="none" points="176.976,-113.72 177.362,-110.241 167.037,-112.616 176.976,-113.72"/>
</g>
<!-- désir -->
<g id="node35" class="node"><title>désir</title>
<polygon fill="none" stroke="none" points="116.995,-169.361 62.9952,-169.361 62.9952,-133.361 116.995,-133.361 116.995,-169.361"/>
<text text-anchor="middle" x="89.9952" y="-148.861" font-family="Ume P Gothic Balsa" font-size="10.00">désir</text>
</g>
<!-- du&#45;&gt;désir -->
<g id="edge39" class="edge"><title>du&#45;&gt;désir</title>
<path fill="none" stroke="none" d="M118.106,-127.79C117.968,-127.906 117.831,-128.021 117.693,-128.137"/>
<polygon fill="none" stroke="none" points="119.13,-126.932 116.881,-124.25 111.467,-133.357 119.13,-126.932"/>
</g>
<!-- irrépressible -->
<g id="node36" class="node"><title>irrépressible</title>
<polygon fill="none" stroke="none" points="153.143,-252.212 99.1427,-252.212 99.1427,-216.212 153.143,-216.212 153.143,-252.212"/>
<text text-anchor="middle" x="126.143" y="-231.712" font-family="Ume P Gothic Balsa" font-size="10.00">irrépressible</text>
</g>
<!-- désir&#45;&gt;irrépressible -->
<g id="edge40" class="edge"><title>désir&#45;&gt;irrépressible</title>
<path fill="none" stroke="none" d="M98.0175,-169.748C102.777,-180.657 108.9,-194.691 114.217,-206.878"/>
<polygon fill="none" stroke="none" points="114.268,-206.995 111.06,-208.395 118.267,-216.161 114.268,-206.995"/>
</g>
<!-- irrépressible&#45;&gt;de -->
<g id="edge41" class="edge"><title>irrépressible&#45;&gt;de</title>
<path fill="none" stroke="none" d="M127.197,-216.07C127.828,-205.224 128.642,-191.208 129.356,-178.93"/>
<polygon fill="none" stroke="none" points="129.37,-178.693 132.864,-178.896 129.95,-168.71 129.37,-178.693"/>
</g>
<!-- antidote -->
<g id="node38" class="node"><title>antidote</title>
<polygon fill="none" stroke="none" points="282.402,-163.917 228.402,-163.917 228.402,-127.917 282.402,-127.917 282.402,-163.917"/>
<text text-anchor="middle" x="255.402" y="-143.417" font-family="Ume P Gothic Balsa" font-size="10.00">antidote</text>
</g>
<!-- fusion&#45;&gt;antidote -->
<g id="edge43" class="edge"><title>fusion&#45;&gt;antidote</title>
<path fill="none" stroke="none" d="M225.362,-110.449C227.951,-113.506 230.683,-116.732 233.402,-119.941"/>
<polygon fill="none" stroke="none" points="233.579,-120.151 230.908,-122.413 240.042,-127.782 233.579,-120.151"/>
</g>
<!-- provisoire -->
<g id="node39" class="node"><title>provisoire</title>
<polygon fill="none" stroke="none" points="227.486,-232.626 173.486,-232.626 173.486,-196.626 227.486,-196.626 227.486,-232.626"/>
<text text-anchor="middle" x="200.486" y="-212.126" font-family="Ume P Gothic Balsa" font-size="10.00">provisoire</text>
</g>
<!-- antidote&#45;&gt;provisoire -->
<g id="edge44" class="edge"><title>antidote&#45;&gt;provisoire</title>
<path fill="none" stroke="none" d="M240.973,-163.97C234.967,-171.484 227.878,-180.354 221.325,-188.554"/>
<polygon fill="none" stroke="none" points="221.252,-188.644 218.518,-186.459 215.009,-196.455 221.252,-188.644"/>
</g>
<!-- provisoire&#45;&gt;à -->
<g id="edge45" class="edge"><title>provisoire&#45;&gt;à</title>
<path fill="none" stroke="none" d="M206.829,-196.424C208.826,-190.691 211.08,-184.225 213.251,-177.994"/>
<polygon fill="none" stroke="none" points="213.256,-177.979 216.561,-179.13 216.546,-168.536 213.256,-177.979"/>
</g>
<!-- intrinsèque -->
<g id="node41" class="node"><title>intrinsèque</title>
<polygon fill="none" stroke="none" points="121.294,-223.241 67.2939,-223.241 67.2939,-187.241 121.294,-187.241 121.294,-223.241"/>
<text text-anchor="middle" x="94.2939" y="-202.741" font-family="Ume P Gothic Balsa" font-size="10.00">intrinsèque</text>
</g>
<!-- solitude&#45;&gt;intrinsèque -->
<g id="edge48" class="edge"><title>solitude&#45;&gt;intrinsèque</title>
<path fill="none" stroke="none" d="M124.379,-251.116C120.443,-245.114 115.981,-238.309 111.72,-231.813"/>
<polygon fill="none" stroke="none" points="111.589,-231.613 114.516,-229.693 106.105,-223.25 111.589,-231.613"/>
</g>
<!-- intrinsèque&#45;&gt;de -->
<g id="edge49" class="edge"><title>intrinsèque&#45;&gt;de</title>
<path fill="none" stroke="none" d="M106.517,-187.047C108.6,-183.947 110.803,-180.669 112.998,-177.402"/>
<polygon fill="none" stroke="none" points="113.131,-177.204 116.036,-179.156 118.707,-168.904 113.131,-177.204"/>
</g>
<!-- jusqu -->
<g id="node43" class="node"><title>jusqu</title>
<polygon fill="none" stroke="none" points="173.499,-146.092 119.499,-146.092 119.499,-110.092 173.499,-110.092 173.499,-146.092"/>
<text text-anchor="middle" x="146.499" y="-125.592" font-family="Ume P Gothic Balsa" font-size="10.00">jusqu</text>
</g>
<!-- être&#45;&gt;jusqu -->
<g id="edge52" class="edge"><title>être&#45;&gt;jusqu</title>
<path fill="none" stroke="none" d="M114.641,-117.242C114.739,-117.276 114.838,-117.309 114.936,-117.343"/>
<polygon fill="none" stroke="none" points="109.902,-115.628 108.773,-118.941 119.368,-118.852 109.902,-115.628"/>
</g>
<!-- jusqu&#45;&gt;à -->
<g id="edge53" class="edge"><title>jusqu&#45;&gt;à</title>
<path fill="none" stroke="none" d="M173.624,-136.059C177.674,-137.248 181.904,-138.491 186.112,-139.727"/>
<polygon fill="none" stroke="none" points="186.195,-139.751 185.208,-143.109 195.789,-142.569 186.195,-139.751"/>
</g>
<!-- dissolution&#45;&gt;la -->
<g id="edge56" class="edge"><title>dissolution&#45;&gt;la</title>
<path fill="none" stroke="none" d="M129.407,-249.47C134.986,-242.875 140.706,-235.307 145.534,-228.133"/>
<polygon fill="none" stroke="none" points="145.741,-227.807 148.697,-229.681 151.095,-219.362 145.741,-227.807"/>
</g>
<!-- et -->
<g id="node46" class="node"><title>et</title>
<polygon fill="none" stroke="none" points="280.024,-223.15 226.024,-223.15 226.024,-187.15 280.024,-187.15 280.024,-223.15"/>
<text text-anchor="middle" x="253.024" y="-202.65" font-family="Ume P Gothic Balsa" font-size="10.00">et</text>
</g>
<!-- vieillesse&#45;&gt;et -->
<g id="edge58" class="edge"><title>vieillesse&#45;&gt;et</title>
<path fill="none" stroke="none" d="M202.893,-247.726C209.408,-242.193 216.681,-236.016 223.621,-230.122"/>
<polygon fill="none" stroke="none" points="223.929,-229.86 226.195,-232.528 231.551,-223.387 223.929,-229.86"/>
</g>
<!-- et&#45;&gt;la -->
<g id="edge59" class="edge"><title>et&#45;&gt;la</title>
<path fill="none" stroke="none" d="M225.994,-204.045C216.166,-203.643 204.876,-203.182 194.309,-202.75"/>
<polygon fill="none" stroke="none" points="194.057,-202.739 194.2,-199.242 184.065,-202.331 194.057,-202.739"/>
</g>
<!-- interprétation -->
<g id="node49" class="node"><title>interprétation</title>
<polygon fill="none" stroke="none" points="340.03,-169.768 281.03,-169.768 281.03,-133.768 340.03,-133.768 340.03,-169.768"/>
<text text-anchor="middle" x="310.53" y="-149.268" font-family="Ume P Gothic Balsa" font-size="10.00">interprétation</text>
</g>
<!-- et&#45;&gt;interprétation -->
<g id="edge63" class="edge"><title>et&#45;&gt;interprétation</title>
<path fill="none" stroke="none" d="M272.493,-187.077C276.053,-183.773 279.825,-180.271 283.558,-176.806"/>
<polygon fill="none" stroke="none" points="283.752,-176.626 286.133,-179.191 291.081,-169.822 283.752,-176.626"/>
</g>
<!-- Jorge -->
<g id="node53" class="node"><title>Jorge</title>
<polygon fill="none" stroke="none" points="309.876,-298.617 255.876,-298.617 255.876,-262.617 309.876,-262.617 309.876,-298.617"/>
<text text-anchor="middle" x="282.876" y="-278.117" font-family="Ume P Gothic Balsa" font-size="10.00">Jorge</text>
</g>
<!-- et&#45;&gt;Jorge -->
<g id="edge68" class="edge"><title>et&#45;&gt;Jorge</title>
<path fill="none" stroke="none" d="M260.251,-223.419C263.771,-232.318 268.078,-243.206 271.986,-253.085"/>
<polygon fill="none" stroke="none" points="272.038,-253.218 268.784,-254.506 275.717,-262.517 272.038,-253.218"/>
</g>
<!-- le -->
<g id="node66" class="node"><title>le</title>
<polygon fill="none" stroke="none" points="305.732,-156.369 251.732,-156.369 251.732,-120.369 305.732,-120.369 305.732,-156.369"/>
<text text-anchor="middle" x="278.732" y="-135.869" font-family="Ume P Gothic Balsa" font-size="10.00">le</text>
</g>
<!-- et&#45;&gt;le -->
<g id="edge88" class="edge"><title>et&#45;&gt;le</title>
<path fill="none" stroke="none" d="M260.049,-186.902C262.486,-180.571 265.278,-173.319 267.948,-166.384"/>
<polygon fill="none" stroke="none" points="268.123,-165.928 271.39,-167.185 271.716,-156.596 268.123,-165.928"/>
</g>
<!-- Chorégraphie -->
<g id="node48" class="node"><title>Chorégraphie</title>
<polygon fill="none" stroke="none" points="277.271,-140.124 222.271,-140.124 222.271,-104.124 277.271,-104.124 277.271,-140.124"/>
<text text-anchor="middle" x="249.771" y="-119.624" font-family="Ume P Gothic Balsa" font-size="10.00">Chorégraphie</text>
</g>
<!-- mort&#45;&gt;Chorégraphie -->
<g id="edge61" class="edge"><title>mort&#45;&gt;Chorégraphie</title>
<path fill="none" stroke="none" d="M202.927,-131.81C205.788,-131.219 208.733,-130.61 211.687,-129.999"/>
<polygon fill="none" stroke="none" points="211.866,-129.962 212.575,-133.389 221.659,-127.937 211.866,-129.962"/>
</g>
<!-- Chorégraphie&#45;&gt;et -->
<g id="edge62" class="edge"><title>Chorégraphie&#45;&gt;et</title>
<path fill="none" stroke="none" d="M250.477,-140.14C250.896,-150.837 251.437,-164.638 251.912,-176.771"/>
<polygon fill="none" stroke="none" points="251.917,-176.891 248.42,-177.028 252.309,-186.883 251.917,-176.891"/>
</g>
<!-- Éléonore -->
<g id="node50" class="node"><title>Éléonore</title>
<polygon fill="none" stroke="none" points="379.62,-236.006 325.62,-236.006 325.62,-200.006 379.62,-200.006 379.62,-236.006"/>
<text text-anchor="middle" x="352.62" y="-215.506" font-family="Ume P Gothic Balsa" font-size="10.00">Éléonore</text>
</g>
<!-- interprétation&#45;&gt;Éléonore -->
<g id="edge64" class="edge"><title>interprétation&#45;&gt;Éléonore</title>
<path fill="none" stroke="none" d="M322.031,-169.867C326.207,-176.439 331.019,-184.012 335.572,-191.176"/>
<polygon fill="none" stroke="none" points="335.769,-191.487 332.815,-193.365 341.133,-199.928 335.769,-191.487"/>
</g>
<!-- Valère -->
<g id="node51" class="node"><title>Valère</title>
<polygon fill="none" stroke="none" points="305.186,-249.289 251.186,-249.289 251.186,-213.289 305.186,-213.289 305.186,-249.289"/>
<text text-anchor="middle" x="278.186" y="-228.789" font-family="Ume P Gothic Balsa" font-size="10.00">Valère</text>
</g>
<!-- Éléonore&#45;&gt;Valère -->
<g id="edge65" class="edge"><title>Éléonore&#45;&gt;Valère</title>
<path fill="none" stroke="none" d="M325.326,-222.877C322.09,-223.454 318.746,-224.051 315.401,-224.648"/>
<polygon fill="none" stroke="none" points="315.321,-224.662 314.706,-221.217 305.477,-226.419 315.321,-224.662"/>
</g>
<!-- Lachky -->
<g id="node52" class="node"><title>Lachky</title>
<polygon fill="none" stroke="none" points="268.809,-312.366 214.809,-312.366 214.809,-276.366 268.809,-276.366 268.809,-312.366"/>
<text text-anchor="middle" x="241.809" y="-291.866" font-family="Ume P Gothic Balsa" font-size="10.00">Lachky</text>
</g>
<!-- Valère&#45;&gt;Lachky -->
<g id="edge66" class="edge"><title>Valère&#45;&gt;Lachky</title>
<path fill="none" stroke="none" d="M267.664,-249.534C264.525,-254.978 261.012,-261.069 257.612,-266.964"/>
<polygon fill="none" stroke="none" points="257.429,-267.282 254.397,-265.533 252.433,-275.944 257.429,-267.282"/>
</g>
<!-- Lachky&#45;&gt;et -->
<g id="edge67" class="edge"><title>Lachky&#45;&gt;et</title>
<path fill="none" stroke="none" d="M244.079,-276.312C245.629,-263.978 247.715,-247.384 249.483,-233.324"/>
<polygon fill="none" stroke="none" points="249.511,-233.1 252.984,-233.536 250.758,-223.178 249.511,-233.1"/>
</g>
<!-- Jauregi -->
<g id="node54" class="node"><title>Jauregi</title>
<polygon fill="none" stroke="none" points="233.981,-318.031 179.981,-318.031 179.981,-282.031 233.981,-282.031 233.981,-318.031"/>
<text text-anchor="middle" x="206.981" y="-297.531" font-family="Ume P Gothic Balsa" font-size="10.00">Jauregi</text>
</g>
<!-- Jorge&#45;&gt;Jauregi -->
<g id="edge69" class="edge"><title>Jorge&#45;&gt;Jauregi</title>
<path fill="none" stroke="none" d="M255.476,-287.626C251.777,-288.572 247.932,-289.556 244.099,-290.536"/>
<polygon fill="none" stroke="none" points="243.774,-290.619 242.907,-287.228 234.086,-293.097 243.774,-290.619"/>
</g>
<!-- Allue -->
<g id="node55" class="node"><title>Allue</title>
<polygon fill="none" stroke="none" points="179.883,-267.116 125.883,-267.116 125.883,-231.116 179.883,-231.116 179.883,-267.116"/>
<text text-anchor="middle" x="152.883" y="-246.616" font-family="Ume P Gothic Balsa" font-size="10.00">Allue</text>
</g>
<!-- Jauregi&#45;&gt;Allue -->
<g id="edge70" class="edge"><title>Jauregi&#45;&gt;Allue</title>
<path fill="none" stroke="none" d="M187.756,-281.937C185.045,-279.386 182.22,-276.727 179.403,-274.075"/>
<polygon fill="none" stroke="none" points="179.329,-274.005 181.727,-271.456 172.047,-267.152 179.329,-274.005"/>
</g>
<!-- Une -->
<g id="node56" class="node"><title>Une</title>
<polygon fill="none" stroke="none" points="146.024,-199.29 92.0244,-199.29 92.0244,-163.29 146.024,-163.29 146.024,-199.29"/>
<text text-anchor="middle" x="119.024" y="-178.79" font-family="Ume P Gothic Balsa" font-size="10.00">Une</text>
</g>
<!-- Allue&#45;&gt;Une -->
<g id="edge71" class="edge"><title>Allue&#45;&gt;Une</title>
<path fill="none" stroke="none" d="M143.81,-230.94C140.394,-224.097 136.43,-216.156 132.687,-208.659"/>
<polygon fill="none" stroke="none" points="132.59,-208.463 135.721,-206.9 128.123,-199.516 132.59,-208.463"/>
</g>
<!-- coproduction -->
<g id="node57" class="node"><title>coproduction</title>
<polygon fill="none" stroke="none" points="134.486,-108.38 77.9855,-108.38 77.9855,-72.3801 134.486,-72.3801 134.486,-108.38"/>
<text text-anchor="middle" x="106.236" y="-87.8801" font-family="Ume P Gothic Balsa" font-size="10.00">coproduction</text>
</g>
<!-- Une&#45;&gt;coproduction -->
<g id="edge72" class="edge"><title>Une&#45;&gt;coproduction</title>
<path fill="none" stroke="none" d="M116.436,-162.893C114.639,-150.117 112.211,-132.859 110.175,-118.384"/>
<polygon fill="none" stroke="none" points="110.169,-118.342 113.635,-117.854 108.776,-108.439 110.169,-118.342"/>
</g>
<!-- coproduction&#45;&gt;de -->
<g id="edge73" class="edge"><title>coproduction&#45;&gt;de</title>
<path fill="none" stroke="none" d="M113.666,-108.449C115.577,-113.094 117.675,-118.197 119.732,-123.199"/>
<polygon fill="none" stroke="none" points="119.773,-123.299 116.536,-124.63 123.577,-132.547 119.773,-123.299"/>
</g>
<!-- avec -->
<g id="node59" class="node"><title>avec</title>
<polygon fill="none" stroke="none" points="53.5672,-237.9 -0.432772,-237.9 -0.432772,-201.9 53.5672,-201.9 53.5672,-237.9"/>
<text text-anchor="middle" x="26.5672" y="-217.4" font-family="Ume P Gothic Balsa" font-size="10.00">avec</text>
</g>
<!-- Balsamine&#45;&gt;avec -->
<g id="edge76" class="edge"><title>Balsamine&#45;&gt;avec</title>
<path fill="none" stroke="none" d="M58.4259,-201.239C58.3276,-201.296 58.2293,-201.354 58.131,-201.411"/>
<polygon fill="none" stroke="none" points="62.328,-198.953 60.559,-195.933 53.6992,-204.007 62.328,-198.953"/>
</g>
<!-- l’aide -->
<g id="node60" class="node"><title>l’aide</title>
<polygon fill="none" stroke="none" points="117.005,-251.55 63.0052,-251.55 63.0052,-215.55 117.005,-215.55 117.005,-251.55"/>
<text text-anchor="middle" x="90.0052" y="-231.05" font-family="Ume P Gothic Balsa" font-size="10.00">l’aide</text>
</g>
<!-- avec&#45;&gt;l’aide -->
<g id="edge77" class="edge"><title>avec&#45;&gt;l’aide</title>
<path fill="none" stroke="none" d="M53.8388,-225.768C53.9312,-225.788 54.0236,-225.808 54.116,-225.828"/>
<polygon fill="none" stroke="none" points="52.9804,-225.583 52.2441,-229.005 62.7567,-227.687 52.9804,-225.583"/>
</g>
<!-- l’aide&#45;&gt;de -->
<g id="edge78" class="edge"><title>l’aide&#45;&gt;de</title>
<path fill="none" stroke="none" d="M99.1039,-215.142C104.502,-204.22 111.447,-190.17 117.477,-177.969"/>
<polygon fill="none" stroke="none" points="117.64,-177.64 120.777,-179.191 122.071,-168.675 117.64,-177.64"/>
</g>
<!-- Wallonie -->
<g id="node62" class="node"><title>Wallonie</title>
<polygon fill="none" stroke="none" points="163.019,-220.944 109.019,-220.944 109.019,-184.944 163.019,-184.944 163.019,-220.944"/>
<text text-anchor="middle" x="136.019" y="-200.444" font-family="Ume P Gothic Balsa" font-size="10.00">Wallonie</text>
</g>
<!-- Fédération&#45;&gt;Wallonie -->
<g id="edge81" class="edge"><title>Fédération&#45;&gt;Wallonie</title>
<path fill="none" stroke="none" d="M100.844,-208.281C101.008,-208.256 101.172,-208.231 101.336,-208.206"/>
<polygon fill="none" stroke="none" points="98.8704,-208.581 99.3955,-212.041 108.757,-207.08 98.8704,-208.581"/>
</g>
<!-- Bruxelles -->
<g id="node63" class="node"><title>Bruxelles</title>
<polygon fill="none" stroke="none" points="93.6016,-264.805 39.6016,-264.805 39.6016,-228.805 93.6016,-228.805 93.6016,-264.805"/>
<text text-anchor="middle" x="66.6016" y="-244.305" font-family="Ume P Gothic Balsa" font-size="10.00">Bruxelles</text>
</g>
<!-- Wallonie&#45;&gt;Bruxelles -->
<g id="edge82" class="edge"><title>Wallonie&#45;&gt;Bruxelles</title>
<path fill="none" stroke="none" d="M108.981,-220.027C106.783,-221.416 104.541,-222.833 102.294,-224.253"/>
<polygon fill="none" stroke="none" points="102.133,-224.354 100.264,-221.395 93.6792,-229.696 102.133,-224.354"/>
</g>
<!-- Service -->
<g id="node64" class="node"><title>Service</title>
<polygon fill="none" stroke="none" points="78.9205,-196.183 24.9205,-196.183 24.9205,-160.183 78.9205,-160.183 78.9205,-196.183"/>
<text text-anchor="middle" x="51.9205" y="-175.683" font-family="Ume P Gothic Balsa" font-size="10.00">Service</text>
</g>
<!-- Bruxelles&#45;&gt;Service -->
<g id="edge83" class="edge"><title>Bruxelles&#45;&gt;Service</title>
<path fill="none" stroke="none" d="M62.7443,-228.775C61.2725,-221.896 59.5574,-213.879 57.9322,-206.283"/>
<polygon fill="none" stroke="none" points="57.8952,-206.109 61.3177,-205.377 55.803,-196.331 57.8952,-206.109"/>
</g>
<!-- Service&#45;&gt;de -->
<g id="edge84" class="edge"><title>Service&#45;&gt;de</title>
<path fill="none" stroke="none" d="M79.1361,-168.692C83.9824,-167.002 89.1031,-165.216 94.1645,-163.451"/>
<polygon fill="none" stroke="none" points="94.2947,-163.406 95.4472,-166.71 103.737,-160.113 94.2947,-163.406"/>
</g>
<!-- Danse&#45;&gt;et -->
<g id="edge87" class="edge"><title>Danse&#45;&gt;et</title>
<path fill="none" stroke="none" d="M227.923,-257.401C231.562,-249.826 235.87,-240.859 239.88,-232.511"/>
<polygon fill="none" stroke="none" points="239.9,-232.47 243.055,-233.986 244.23,-223.456 239.9,-232.47"/>
</g>
<!-- soutien -->
<g id="node67" class="node"><title>soutien</title>
<polygon fill="none" stroke="none" points="225.309,-131.445 171.309,-131.445 171.309,-95.4451 225.309,-95.4451 225.309,-131.445"/>
<text text-anchor="middle" x="198.309" y="-110.945" font-family="Ume P Gothic Balsa" font-size="10.00">soutien</text>
</g>
<!-- le&#45;&gt;soutien -->
<g id="edge89" class="edge"><title>le&#45;&gt;soutien</title>
<path fill="none" stroke="none" d="M251.504,-129.931C246.264,-128.307 240.694,-126.581 235.207,-124.88"/>
<polygon fill="none" stroke="none" points="235.06,-124.835 236.096,-121.492 225.508,-121.875 235.06,-124.835"/>
</g>
<!-- soutien&#45;&gt;de -->
<g id="edge90" class="edge"><title>soutien&#45;&gt;de</title>
<path fill="none" stroke="none" d="M170.933,-128.559C169.614,-129.287 168.281,-130.023 166.943,-130.761"/>
<polygon fill="none" stroke="none" points="166.891,-130.791 165.199,-127.727 158.136,-135.624 166.891,-130.791"/>
</g>
<!-- Danses -->
<g id="node69" class="node"><title>Danses</title>
<polygon fill="none" stroke="none" points="279.88,-269.755 225.88,-269.755 225.88,-233.755 279.88,-233.755 279.88,-269.755"/>
<text text-anchor="middle" x="252.88" y="-249.255" font-family="Ume P Gothic Balsa" font-size="10.00">Danses</text>
</g>
<!-- Charleroi&#45;&gt;Danses -->
<g id="edge92" class="edge"><title>Charleroi&#45;&gt;Danses</title>
<path fill="none" stroke="none" d="M209.319,-236.087C211.47,-236.86 213.665,-237.65 215.867,-238.442"/>
<polygon fill="none" stroke="none" points="216.064,-238.513 214.88,-241.806 225.474,-241.897 216.064,-238.513"/>
</g>
</g>
</svg>
