<?xml version="1.0" encoding="UTF-8" standalone="no"?>
<!DOCTYPE svg PUBLIC "-//W3C//DTD SVG 1.1//EN"
 "http://www.w3.org/Graphics/SVG/1.1/DTD/svg11.dtd">
<!-- Generated by graphviz version 2.28.0 (20120426.1432)
 -->
<!-- Title: _anonymous_0 Pages: 1 -->
<svg width="401pt" height="446pt"
 viewBox="0.00 0.00 401.00 446.00" xmlns="http://www.w3.org/2000/svg" xmlns:xlink="http://www.w3.org/1999/xlink">
<g id="graph1" class="graph" transform="scale(1 1) rotate(0) translate(4 442)">
<title>_anonymous_0</title>
<!-- Melanie -->
<g id="node1" class="node"><title>Melanie</title>
<polygon fill="none" stroke="none" points="298.739,-218.097 244.739,-218.097 244.739,-182.097 298.739,-182.097 298.739,-218.097"/>
<text text-anchor="middle" x="271.739" y="-197.597" font-family="Ume P Gothic Balsa" font-size="10.00">Melanie</text>
</g>
<!-- Daniels -->
<g id="node3" class="node"><title>Daniels</title>
<polygon fill="none" stroke="none" points="350.106,-155.65 296.106,-155.65 296.106,-119.65 350.106,-119.65 350.106,-155.65"/>
<text text-anchor="middle" x="323.106" y="-135.15" font-family="Ume P Gothic Balsa" font-size="10.00">Daniels</text>
</g>
<!-- Melanie&#45;&gt;Daniels -->
<g id="edge2" class="edge"><title>Melanie&#45;&gt;Daniels</title>
<path fill="none" stroke="none" d="M296.18,-181.809C301.136,-176.319 306.146,-170.201 310.518,-164.297"/>
<polygon fill="none" stroke="none" points="310.658,-164.097 313.527,-166.102 316.385,-155.9 310.658,-164.097"/>
</g>
<!-- Melanie&#45;&gt;Daniels -->
<g id="edge71" class="edge"><title>Melanie&#45;&gt;Daniels</title>
<path fill="none" stroke="none" d="M278.452,-181.861C282.197,-176.118 287.011,-169.69 292.101,-163.539"/>
<polygon fill="none" stroke="none" points="292.101,-163.539 294.751,-165.826 298.637,-155.97 292.101,-163.539"/>
</g>
<!-- est -->
<g id="node4" class="node"><title>est</title>
<polygon fill="none" stroke="none" points="305.399,-110.544 251.399,-110.544 251.399,-74.5444 305.399,-74.5444 305.399,-110.544"/>
<text text-anchor="middle" x="278.399" y="-90.0444" font-family="Ume P Gothic Balsa" font-size="10.00">est</text>
</g>
<!-- Daniels&#45;&gt;est -->
<g id="edge3" class="edge"><title>Daniels&#45;&gt;est</title>
<path fill="none" stroke="none" d="M305.18,-119.564C304.633,-119.012 304.083,-118.457 303.53,-117.9"/>
<polygon fill="none" stroke="none" points="303.369,-117.737 305.855,-115.273 296.33,-110.635 303.369,-117.737"/>
</g>
<!-- protagoniste -->
<g id="node54" class="node"><title>protagoniste</title>
<polygon fill="none" stroke="none" points="375.654,-226.313 321.654,-226.313 321.654,-190.313 375.654,-190.313 375.654,-226.313"/>
<text text-anchor="middle" x="348.654" y="-205.813" font-family="Ume P Gothic Balsa" font-size="10.00">protagoniste</text>
</g>
<!-- Daniels&#45;&gt;protagoniste -->
<g id="edge72" class="edge"><title>Daniels&#45;&gt;protagoniste</title>
<path fill="none" stroke="none" d="M329.686,-155.847C332.377,-163.29 335.551,-172.071 338.526,-180.298"/>
<polygon fill="none" stroke="none" points="338.609,-180.527 335.317,-181.717 342.009,-189.931 338.609,-180.527"/>
</g>
<!-- une -->
<g id="node5" class="node"><title>une</title>
<polygon fill="none" stroke="none" points="251.684,-174.147 197.684,-174.147 197.684,-138.147 251.684,-138.147 251.684,-174.147"/>
<text text-anchor="middle" x="224.684" y="-153.647" font-family="Ume P Gothic Balsa" font-size="10.00">une</text>
</g>
<!-- est&#45;&gt;une -->
<g id="edge4" class="edge"><title>est&#45;&gt;une</title>
<path fill="none" stroke="none" d="M263.15,-110.6C258.091,-116.591 252.351,-123.388 246.877,-129.869"/>
<polygon fill="none" stroke="none" points="246.61,-130.185 243.936,-127.927 240.158,-137.825 246.61,-130.185"/>
</g>
<!-- satire -->
<g id="node6" class="node"><title>satire</title>
<polygon fill="none" stroke="none" points="234.158,-113.676 180.158,-113.676 180.158,-77.6763 234.158,-77.6763 234.158,-113.676"/>
<text text-anchor="middle" x="207.158" y="-93.1763" font-family="Ume P Gothic Balsa" font-size="10.00">satire</text>
</g>
<!-- une&#45;&gt;satire -->
<g id="edge5" class="edge"><title>une&#45;&gt;satire</title>
<path fill="none" stroke="none" d="M219.426,-138.004C218.109,-133.46 216.665,-128.479 215.246,-123.58"/>
<polygon fill="none" stroke="none" points="215.197,-123.411 218.558,-122.437 212.413,-113.807 215.197,-123.411"/>
</g>
<!-- équipe -->
<g id="node26" class="node"><title>équipe</title>
<polygon fill="none" stroke="none" points="277.561,-268.147 223.561,-268.147 223.561,-232.147 277.561,-232.147 277.561,-268.147"/>
<text text-anchor="middle" x="250.561" y="-247.647" font-family="Ume P Gothic Balsa" font-size="10.00">équipe</text>
</g>
<!-- une&#45;&gt;équipe -->
<g id="edge37" class="edge"><title>une&#45;&gt;équipe</title>
<path fill="none" stroke="none" d="M229.674,-174.271C233.397,-187.796 238.553,-206.528 242.811,-221.996"/>
<polygon fill="none" stroke="none" points="242.933,-222.437 239.558,-223.366 245.587,-232.079 242.933,-222.437"/>
</g>
<!-- suite -->
<g id="node30" class="node"><title>suite</title>
<polygon fill="none" stroke="none" points="273.167,-105.294 219.167,-105.294 219.167,-69.2939 273.167,-69.2939 273.167,-105.294"/>
<text text-anchor="middle" x="246.167" y="-84.7939" font-family="Ume P Gothic Balsa" font-size="10.00">suite</text>
</g>
<!-- une&#45;&gt;suite -->
<g id="edge44" class="edge"><title>une&#45;&gt;suite</title>
<path fill="none" stroke="none" d="M230.329,-138.057C232.507,-131.075 235.049,-122.927 237.451,-115.228"/>
<polygon fill="none" stroke="none" points="237.507,-115.049 240.849,-116.091 240.486,-105.503 237.507,-115.049"/>
</g>
<!-- qui -->
<g id="node7" class="node"><title>qui</title>
<polygon fill="none" stroke="none" points="180.518,-48.6868 126.518,-48.6868 126.518,-12.6868 180.518,-12.6868 180.518,-48.6868"/>
<text text-anchor="middle" x="153.518" y="-28.1868" font-family="Ume P Gothic Balsa" font-size="10.00">qui</text>
</g>
<!-- satire&#45;&gt;qui -->
<g id="edge6" class="edge"><title>satire&#45;&gt;qui</title>
<path fill="none" stroke="none" d="M192.216,-77.5731C186.869,-71.0943 180.732,-63.6589 174.945,-56.647"/>
<polygon fill="none" stroke="none" points="174.745,-56.4052 177.444,-54.1773 168.38,-48.6929 174.745,-56.4052"/>
</g>
<!-- interroge -->
<g id="node8" class="node"><title>interroge</title>
<polygon fill="none" stroke="none" points="249.994,-87.4971 195.994,-87.4971 195.994,-51.4971 249.994,-51.4971 249.994,-87.4971"/>
<text text-anchor="middle" x="222.994" y="-66.9971" font-family="Ume P Gothic Balsa" font-size="10.00">interroge</text>
</g>
<!-- qui&#45;&gt;interroge -->
<g id="edge7" class="edge"><title>qui&#45;&gt;interroge</title>
<path fill="none" stroke="none" d="M180.578,-45.803C182.621,-46.9443 184.702,-48.1065 186.789,-49.2726"/>
<polygon fill="none" stroke="none" points="187.163,-49.4814 185.456,-52.537 195.893,-54.3583 187.163,-49.4814"/>
</g>
<!-- la -->
<g id="node9" class="node"><title>la</title>
<polygon fill="none" stroke="none" points="202.18,-155.731 148.18,-155.731 148.18,-119.731 202.18,-119.731 202.18,-155.731"/>
<text text-anchor="middle" x="175.18" y="-135.231" font-family="Ume P Gothic Balsa" font-size="10.00">la</text>
</g>
<!-- interroge&#45;&gt;la -->
<g id="edge8" class="edge"><title>interroge&#45;&gt;la</title>
<path fill="none" stroke="none" d="M210.181,-87.7824C205.143,-94.972 199.26,-103.367 193.771,-111.2"/>
<polygon fill="none" stroke="none" points="193.767,-111.205 190.901,-109.197 188.029,-119.395 193.767,-111.205"/>
</g>
<!-- création -->
<g id="node10" class="node"><title>création</title>
<polygon fill="none" stroke="none" points="265.855,-136.223 211.855,-136.223 211.855,-100.223 265.855,-100.223 265.855,-136.223"/>
<text text-anchor="middle" x="238.855" y="-115.723" font-family="Ume P Gothic Balsa" font-size="10.00">création</text>
</g>
<!-- la&#45;&gt;création -->
<g id="edge9" class="edge"><title>la&#45;&gt;création</title>
<path fill="none" stroke="none" d="M202.184,-129.458C202.282,-129.428 202.379,-129.398 202.477,-129.368"/>
<polygon fill="none" stroke="none" points="202.045,-129.5 203.07,-132.847 211.606,-126.571 202.045,-129.5"/>
</g>
<!-- crise -->
<g id="node14" class="node"><title>crise</title>
<polygon fill="none" stroke="none" points="146.985,-211.607 92.9853,-211.607 92.9853,-175.607 146.985,-175.607 146.985,-211.607"/>
<text text-anchor="middle" x="119.985" y="-191.107" font-family="Ume P Gothic Balsa" font-size="10.00">crise</text>
</g>
<!-- la&#45;&gt;crise -->
<g id="edge16" class="edge"><title>la&#45;&gt;crise</title>
<path fill="none" stroke="none" d="M157.107,-156.027C153.256,-159.926 149.122,-164.11 145.062,-168.221"/>
<polygon fill="none" stroke="none" points="144.938,-168.347 142.448,-165.887 137.91,-175.461 144.938,-168.347"/>
</g>
<!-- scène -->
<g id="node63" class="node"><title>scène</title>
<polygon fill="none" stroke="none" points="180.976,-229.177 126.976,-229.177 126.976,-193.177 180.976,-193.177 180.976,-229.177"/>
<text text-anchor="middle" x="153.976" y="-208.677" font-family="Ume P Gothic Balsa" font-size="10.00">scène</text>
</g>
<!-- la&#45;&gt;scène -->
<g id="edge113" class="edge"><title>la&#45;&gt;scène</title>
<path fill="none" stroke="none" d="M169.939,-155.886C167.568,-164.096 164.713,-173.986 162.077,-183.118"/>
<polygon fill="none" stroke="none" points="162.005,-183.368 158.642,-182.397 159.231,-192.976 162.005,-183.368"/>
</g>
<!-- Balsamine -->
<g id="node76" class="node"><title>Balsamine</title>
<polygon fill="none" stroke="none" points="133.881,-194.941 79.8807,-194.941 79.8807,-158.941 133.881,-158.941 133.881,-194.941"/>
<text text-anchor="middle" x="106.881" y="-174.441" font-family="Ume P Gothic Balsa" font-size="10.00">Balsamine</text>
</g>
<!-- la&#45;&gt;Balsamine -->
<g id="edge101" class="edge"><title>la&#45;&gt;Balsamine</title>
<path fill="none" stroke="none" d="M147.794,-153.453C146.263,-154.332 144.713,-155.221 143.157,-156.115"/>
<polygon fill="none" stroke="none" points="142.946,-156.236 141.203,-153.201 134.273,-161.215 142.946,-156.236"/>
</g>
<!-- Fédération -->
<g id="node82" class="node"><title>Fédération</title>
<polygon fill="none" stroke="none" points="229.708,-233.528 175.708,-233.528 175.708,-197.528 229.708,-197.528 229.708,-233.528"/>
<text text-anchor="middle" x="202.708" y="-213.028" font-family="Ume P Gothic Balsa" font-size="10.00">Fédération</text>
</g>
<!-- la&#45;&gt;Fédération -->
<g id="edge116" class="edge"><title>la&#45;&gt;Fédération</title>
<path fill="none" stroke="none" d="M181.565,-155.774C184.911,-165.231 189.083,-177.022 192.835,-187.625"/>
<polygon fill="none" stroke="none" points="192.927,-187.885 189.627,-189.053 196.263,-197.312 192.927,-187.885"/>
</g>
<!-- en -->
<g id="node11" class="node"><title>en</title>
<polygon fill="none" stroke="none" points="220.759,-183.457 166.759,-183.457 166.759,-147.457 220.759,-147.457 220.759,-183.457"/>
<text text-anchor="middle" x="193.759" y="-162.957" font-family="Ume P Gothic Balsa" font-size="10.00">en</text>
</g>
<!-- création&#45;&gt;en -->
<g id="edge10" class="edge"><title>création&#45;&gt;en</title>
<path fill="none" stroke="none" d="M221.549,-136.35C220.354,-137.602 219.137,-138.875 217.915,-140.156"/>
<polygon fill="none" stroke="none" points="217.85,-140.224 215.319,-137.807 210.945,-147.456 217.85,-140.224"/>
</g>
<!-- Égarée -->
<g id="node16" class="node"><title>Égarée</title>
<polygon fill="none" stroke="none" points="339.895,-91.3995 285.895,-91.3995 285.895,-55.3995 339.895,-55.3995 339.895,-91.3995"/>
<text text-anchor="middle" x="312.895" y="-70.8995" font-family="Ume P Gothic Balsa" font-size="10.00">Égarée</text>
</g>
<!-- création&#45;&gt;Égarée -->
<g id="edge21" class="edge"><title>création&#45;&gt;Égarée</title>
<path fill="none" stroke="none" d="M266.005,-101.787C269.626,-99.5942 273.384,-97.3195 277.124,-95.055"/>
<polygon fill="none" stroke="none" points="277.195,-95.0124 279.007,-98.0065 285.749,-89.8335 277.195,-95.0124"/>
</g>
<!-- temps -->
<g id="node12" class="node"><title>temps</title>
<polygon fill="none" stroke="none" points="204.857,-119.287 150.857,-119.287 150.857,-83.2865 204.857,-83.2865 204.857,-119.287"/>
<text text-anchor="middle" x="177.857" y="-98.7865" font-family="Ume P Gothic Balsa" font-size="10.00">temps</text>
</g>
<!-- en&#45;&gt;temps -->
<g id="edge18" class="edge"><title>en&#45;&gt;temps</title>
<path fill="none" stroke="none" d="M196.122,-147.331C195.399,-141.753 194.13,-135.479 192.534,-129.399"/>
<polygon fill="none" stroke="none" points="192.441,-129.086 195.795,-128.084 189.58,-119.504 192.441,-129.086"/>
</g>
<!-- en&#45;&gt;temps -->
<g id="edge11" class="edge"><title>en&#45;&gt;temps</title>
<path fill="none" stroke="none" d="M182.019,-147.189C180.19,-141.784 178.552,-135.737 177.303,-129.848"/>
<polygon fill="none" stroke="none" points="177.233,-129.447 180.681,-128.846 175.518,-119.595 177.233,-129.447"/>
</g>
<!-- question -->
<g id="node22" class="node"><title>question</title>
<polygon fill="none" stroke="none" points="175.498,-262.969 121.498,-262.969 121.498,-226.969 175.498,-226.969 175.498,-262.969"/>
<text text-anchor="middle" x="148.498" y="-242.469" font-family="Ume P Gothic Balsa" font-size="10.00">question</text>
</g>
<!-- en&#45;&gt;question -->
<g id="edge30" class="edge"><title>en&#45;&gt;question</title>
<path fill="none" stroke="none" d="M183.489,-183.499C177.685,-193.695 170.317,-206.639 163.84,-218.016"/>
<polygon fill="none" stroke="none" points="163.831,-218.032 160.79,-216.301 158.884,-226.723 163.831,-218.032"/>
</g>
<!-- en&#45;&gt;scène -->
<g id="edge84" class="edge"><title>en&#45;&gt;scène</title>
<path fill="none" stroke="none" d="M178.036,-183.527C177.531,-184.107 177.022,-184.692 176.511,-185.279"/>
<polygon fill="none" stroke="none" points="176.41,-185.395 173.77,-183.097 169.846,-192.939 176.41,-185.395"/>
</g>
<!-- cours -->
<g id="node72" class="node"><title>cours</title>
<polygon fill="none" stroke="none" points="140.018,-142.673 86.0183,-142.673 86.0183,-106.673 140.018,-106.673 140.018,-142.673"/>
<text text-anchor="middle" x="113.018" y="-122.173" font-family="Ume P Gothic Balsa" font-size="10.00">cours</text>
</g>
<!-- en&#45;&gt;cours -->
<g id="edge94" class="edge"><title>en&#45;&gt;cours</title>
<path fill="none" stroke="none" d="M166.424,-151.649C160.84,-148.828 154.883,-145.819 149.048,-142.872"/>
<polygon fill="none" stroke="none" points="148.977,-142.836 150.555,-139.712 140.051,-138.328 148.977,-142.836"/>
</g>
<!-- de -->
<g id="node13" class="node"><title>de</title>
<polygon fill="none" stroke="none" points="232.046,-207.744 178.046,-207.744 178.046,-171.744 232.046,-171.744 232.046,-207.744"/>
<text text-anchor="middle" x="205.046" y="-187.244" font-family="Ume P Gothic Balsa" font-size="10.00">de</text>
</g>
<!-- temps&#45;&gt;de -->
<g id="edge12" class="edge"><title>temps&#45;&gt;de</title>
<path fill="none" stroke="none" d="M177.224,-119.691C179.442,-131.968 184.075,-148.31 189.1,-162.129"/>
<polygon fill="none" stroke="none" points="189.178,-162.33 185.916,-163.597 192.799,-171.651 189.178,-162.33"/>
</g>
<!-- temps&#45;&gt;de -->
<g id="edge19" class="edge"><title>temps&#45;&gt;de</title>
<path fill="none" stroke="none" d="M190.145,-119.478C195.203,-131.617 200.355,-147.797 203.62,-161.579"/>
<polygon fill="none" stroke="none" points="203.658,-161.759 200.233,-162.479 205.716,-171.544 203.658,-161.759"/>
</g>
<!-- de&#45;&gt;Melanie -->
<g id="edge70" class="edge"><title>de&#45;&gt;Melanie</title>
<path fill="none" stroke="none" d="M232.173,-193.955C232.93,-194.073 233.692,-194.191 234.456,-194.31"/>
<polygon fill="none" stroke="none" points="234.539,-194.322 234.002,-197.781 244.42,-195.856 234.539,-194.322"/>
</g>
<!-- de&#45;&gt;la -->
<g id="edge112" class="edge"><title>de&#45;&gt;la</title>
<path fill="none" stroke="none" d="M209.371,-171.567C208.788,-169.084 207.943,-166.511 206.888,-163.937"/>
<polygon fill="none" stroke="none" points="206.765,-163.695 209.886,-162.111 202.24,-154.778 206.765,-163.695"/>
</g>
<!-- de&#45;&gt;la -->
<g id="edge115" class="edge"><title>de&#45;&gt;la</title>
<path fill="none" stroke="none" d="M177.999,-172.718C176.56,-170.356 175.259,-167.892 174.142,-165.408"/>
<polygon fill="none" stroke="none" points="174.122,-165.349 177.43,-164.205 170.853,-155.898 174.122,-165.349"/>
</g>
<!-- de&#45;&gt;la -->
<g id="edge100" class="edge"><title>de&#45;&gt;la</title>
<path fill="none" stroke="none" d="M194.6,-171.552C193.335,-169.348 192.021,-167.061 190.702,-164.763"/>
<polygon fill="none" stroke="none" points="190.65,-164.672 193.685,-162.929 185.67,-156 190.65,-164.672"/>
</g>
<!-- de&#45;&gt;création -->
<g id="edge20" class="edge"><title>de&#45;&gt;création</title>
<path fill="none" stroke="none" d="M213.578,-171.696C217.313,-163.795 221.777,-154.35 225.908,-145.612"/>
<polygon fill="none" stroke="none" points="225.935,-145.554 229.1,-147.05 230.209,-136.514 225.935,-145.554"/>
</g>
<!-- de&#45;&gt;crise -->
<g id="edge13" class="edge"><title>de&#45;&gt;crise</title>
<path fill="none" stroke="none" d="M177.664,-190.988C171.226,-191.28 164.255,-191.597 157.459,-191.906"/>
<polygon fill="none" stroke="none" points="157.015,-191.926 156.856,-188.429 147.025,-192.379 157.015,-191.926"/>
</g>
<!-- production -->
<g id="node20" class="node"><title>production</title>
<polygon fill="none" stroke="none" points="161.435,-170.6 107.435,-170.6 107.435,-134.6 161.435,-134.6 161.435,-170.6"/>
<text text-anchor="middle" x="134.435" y="-150.1" font-family="Ume P Gothic Balsa" font-size="10.00">production</text>
</g>
<!-- de&#45;&gt;production -->
<g id="edge26" class="edge"><title>de&#45;&gt;production</title>
<path fill="none" stroke="none" d="M177.948,-175.49C175.634,-174.272 173.27,-173.029 170.899,-171.782"/>
<polygon fill="none" stroke="none" points="170.661,-171.656 172.29,-168.559 161.811,-167.001 170.661,-171.656"/>
</g>
<!-- tournage -->
<g id="node27" class="node"><title>tournage</title>
<polygon fill="none" stroke="none" points="258.14,-283.79 204.14,-283.79 204.14,-247.79 258.14,-247.79 258.14,-283.79"/>
<text text-anchor="middle" x="231.14" y="-263.29" font-family="Ume P Gothic Balsa" font-size="10.00">tournage</text>
</g>
<!-- de&#45;&gt;tournage -->
<g id="edge39" class="edge"><title>de&#45;&gt;tournage</title>
<path fill="none" stroke="none" d="M211.23,-207.766C214.327,-216.792 218.145,-227.92 221.607,-238.008"/>
<polygon fill="none" stroke="none" points="221.664,-238.175 218.354,-239.311 224.91,-247.634 221.664,-238.175"/>
</g>
<!-- réaliser -->
<g id="node29" class="node"><title>réaliser</title>
<polygon fill="none" stroke="none" points="296.264,-232.024 242.264,-232.024 242.264,-196.024 296.264,-196.024 296.264,-232.024"/>
<text text-anchor="middle" x="269.264" y="-211.524" font-family="Ume P Gothic Balsa" font-size="10.00">réaliser</text>
</g>
<!-- de&#45;&gt;réaliser -->
<g id="edge42" class="edge"><title>de&#45;&gt;réaliser</title>
<path fill="none" stroke="none" d="M232.28,-200.041C232.383,-200.08 232.485,-200.119 232.588,-200.158"/>
<polygon fill="none" stroke="none" points="232.839,-200.252 231.601,-203.526 242.193,-203.789 232.839,-200.252"/>
</g>
<!-- PARADIES -->
<g id="node75" class="node"><title>PARADIES</title>
<polygon fill="none" stroke="none" points="189.28,-278.283 135.28,-278.283 135.28,-242.283 189.28,-242.283 189.28,-278.283"/>
<text text-anchor="middle" x="162.28" y="-257.783" font-family="Ume P Gothic Balsa" font-size="10.00">PARADIES</text>
</g>
<!-- de&#45;&gt;PARADIES -->
<g id="edge98" class="edge"><title>de&#45;&gt;PARADIES</title>
<path fill="none" stroke="none" d="M185.762,-208.047C180.381,-215.715 174.855,-224.76 170.406,-233.164"/>
<polygon fill="none" stroke="none" points="170.335,-233.307 167.197,-231.757 165.906,-242.273 170.335,-233.307"/>
</g>
<!-- crise&#45;&gt;en -->
<g id="edge17" class="edge"><title>crise&#45;&gt;en</title>
<path fill="none" stroke="none" d="M147.037,-183.285C150.345,-182.023 153.766,-180.717 157.185,-179.413"/>
<polygon fill="none" stroke="none" points="157.368,-179.343 158.615,-182.613 166.71,-175.778 157.368,-179.343"/>
</g>
<!-- et -->
<g id="node15" class="node"><title>et</title>
<polygon fill="none" stroke="none" points="219.769,-221.421 165.769,-221.421 165.769,-185.421 219.769,-185.421 219.769,-221.421"/>
<text text-anchor="middle" x="192.769" y="-200.921" font-family="Ume P Gothic Balsa" font-size="10.00">et</text>
</g>
<!-- crise&#45;&gt;et -->
<g id="edge14" class="edge"><title>crise&#45;&gt;et</title>
<path fill="none" stroke="none" d="M147.087,-197.262C149.798,-197.627 152.582,-198.002 155.374,-198.379"/>
<polygon fill="none" stroke="none" points="155.491,-198.395 155.024,-201.863 165.402,-199.731 155.491,-198.395"/>
</g>
<!-- et&#45;&gt;la -->
<g id="edge15" class="edge"><title>et&#45;&gt;la</title>
<path fill="none" stroke="none" d="M187.87,-185.122C186.269,-179.143 184.452,-172.358 182.703,-165.828"/>
<polygon fill="none" stroke="none" points="182.64,-165.591 186.021,-164.685 180.053,-155.931 182.64,-165.591"/>
</g>
<!-- des -->
<g id="node18" class="node"><title>des</title>
<polygon fill="none" stroke="none" points="222.865,-138.677 168.865,-138.677 168.865,-102.677 222.865,-102.677 222.865,-138.677"/>
<text text-anchor="middle" x="195.865" y="-118.177" font-family="Ume P Gothic Balsa" font-size="10.00">des</text>
</g>
<!-- et&#45;&gt;des -->
<g id="edge33" class="edge"><title>et&#45;&gt;des</title>
<path fill="none" stroke="none" d="M193.456,-185.057C193.856,-174.378 194.368,-160.7 194.817,-148.7"/>
<polygon fill="none" stroke="none" points="194.817,-148.697 198.314,-148.828 195.191,-138.704 194.817,-148.697"/>
</g>
<!-- du -->
<g id="node35" class="node"><title>du</title>
<polygon fill="none" stroke="none" points="307.565,-184.915 253.565,-184.915 253.565,-148.915 307.565,-148.915 307.565,-184.915"/>
<text text-anchor="middle" x="280.565" y="-164.415" font-family="Ume P Gothic Balsa" font-size="10.00">du</text>
</g>
<!-- et&#45;&gt;du -->
<g id="edge103" class="edge"><title>et&#45;&gt;du</title>
<path fill="none" stroke="none" d="M220.067,-192.07C227.582,-188.945 235.858,-185.504 243.813,-182.197"/>
<polygon fill="none" stroke="none" points="244.05,-182.098 245.394,-185.33 253.284,-178.259 244.05,-182.098"/>
</g>
<!-- mise -->
<g id="node62" class="node"><title>mise</title>
<polygon fill="none" stroke="none" points="146.175,-242.74 92.1747,-242.74 92.1747,-206.74 146.175,-206.74 146.175,-242.74"/>
<text text-anchor="middle" x="119.175" y="-222.24" font-family="Ume P Gothic Balsa" font-size="10.00">mise</text>
</g>
<!-- et&#45;&gt;mise -->
<g id="edge82" class="edge"><title>et&#45;&gt;mise</title>
<path fill="none" stroke="none" d="M165.365,-211.359C162.356,-212.231 159.258,-213.129 156.157,-214.027"/>
<polygon fill="none" stroke="none" points="155.961,-214.083 154.988,-210.722 146.356,-216.866 155.961,-214.083"/>
</g>
<!-- entre -->
<g id="node17" class="node"><title>entre</title>
<polygon fill="none" stroke="none" points="309.585,-158.582 255.585,-158.582 255.585,-122.582 309.585,-122.582 309.585,-158.582"/>
<text text-anchor="middle" x="282.585" y="-138.082" font-family="Ume P Gothic Balsa" font-size="10.00">entre</text>
</g>
<!-- Égarée&#45;&gt;entre -->
<g id="edge22" class="edge"><title>Égarée&#45;&gt;entre</title>
<path fill="none" stroke="none" d="M304.772,-91.4032C301.782,-98.0302 298.323,-105.697 295.039,-112.977"/>
<polygon fill="none" stroke="none" points="294.842,-113.414 291.652,-111.974 290.73,-122.529 294.842,-113.414"/>
</g>
<!-- entre&#45;&gt;des -->
<g id="edge23" class="edge"><title>entre&#45;&gt;des</title>
<path fill="none" stroke="none" d="M255.146,-134.284C248.118,-132.671 240.443,-130.909 233.015,-129.204"/>
<polygon fill="none" stroke="none" points="232.872,-129.171 233.655,-125.76 223.125,-126.934 232.872,-129.171"/>
</g>
<!-- contraintes -->
<g id="node19" class="node"><title>contraintes</title>
<polygon fill="none" stroke="none" points="175.401,-176.837 121.401,-176.837 121.401,-140.837 175.401,-140.837 175.401,-176.837"/>
<text text-anchor="middle" x="148.401" y="-156.337" font-family="Ume P Gothic Balsa" font-size="10.00">contraintes</text>
</g>
<!-- des&#45;&gt;contraintes -->
<g id="edge24" class="edge"><title>des&#45;&gt;contraintes</title>
<path fill="none" stroke="none" d="M173.245,-138.863C173.15,-138.94 173.054,-139.016 172.958,-139.093"/>
<polygon fill="none" stroke="none" points="178.745,-134.441 176.552,-131.713 170.951,-140.707 178.745,-134.441"/>
</g>
<!-- remises -->
<g id="node21" class="node"><title>remises</title>
<polygon fill="none" stroke="none" points="154.002,-125.6 100.002,-125.6 100.002,-89.6003 154.002,-89.6003 154.002,-125.6"/>
<text text-anchor="middle" x="127.002" y="-105.1" font-family="Ume P Gothic Balsa" font-size="10.00">remises</text>
</g>
<!-- des&#45;&gt;remises -->
<g id="edge28" class="edge"><title>des&#45;&gt;remises</title>
<path fill="none" stroke="none" d="M168.649,-115.509C167.145,-115.223 165.622,-114.934 164.092,-114.643"/>
<polygon fill="none" stroke="none" points="163.845,-114.597 164.498,-111.158 154.021,-112.731 163.845,-114.597"/>
</g>
<!-- relations -->
<g id="node24" class="node"><title>relations</title>
<polygon fill="none" stroke="none" points="194.869,-213.307 140.869,-213.307 140.869,-177.307 194.869,-177.307 194.869,-213.307"/>
<text text-anchor="middle" x="167.869" y="-192.807" font-family="Ume P Gothic Balsa" font-size="10.00">relations</text>
</g>
<!-- des&#45;&gt;relations -->
<g id="edge34" class="edge"><title>des&#45;&gt;relations</title>
<path fill="none" stroke="none" d="M189.088,-138.743C185.845,-147.387 181.89,-157.93 178.278,-167.561"/>
<polygon fill="none" stroke="none" points="178.193,-167.786 174.916,-166.557 174.681,-177.149 178.193,-167.786"/>
</g>
<!-- chefs -->
<g id="node33" class="node"><title>chefs</title>
<polygon fill="none" stroke="none" points="269.143,-69.9021 215.143,-69.9021 215.143,-33.9021 269.143,-33.9021 269.143,-69.9021"/>
<text text-anchor="middle" x="242.143" y="-49.4021" font-family="Ume P Gothic Balsa" font-size="10.00">chefs</text>
</g>
<!-- des&#45;&gt;chefs -->
<g id="edge48" class="edge"><title>des&#45;&gt;chefs</title>
<path fill="none" stroke="none" d="M208.024,-102.607C212.98,-95.2418 218.811,-86.5765 224.237,-78.5132"/>
<polygon fill="none" stroke="none" points="224.322,-78.3865 227.226,-80.3405 229.905,-70.0899 224.322,-78.3865"/>
</g>
<!-- arts -->
<g id="node81" class="node"><title>arts</title>
<polygon fill="none" stroke="none" points="163.363,-204.401 109.363,-204.401 109.363,-168.401 163.363,-168.401 163.363,-204.401"/>
<text text-anchor="middle" x="136.363" y="-183.901" font-family="Ume P Gothic Balsa" font-size="10.00">arts</text>
</g>
<!-- des&#45;&gt;arts -->
<g id="edge110" class="edge"><title>des&#45;&gt;arts</title>
<path fill="none" stroke="none" d="M179.291,-138.985C173.23,-145.679 166.255,-153.384 159.713,-160.609"/>
<polygon fill="none" stroke="none" points="159.56,-160.778 156.966,-158.429 152.849,-168.191 159.56,-160.778"/>
</g>
<!-- contraintes&#45;&gt;de -->
<g id="edge25" class="edge"><title>contraintes&#45;&gt;de</title>
<path fill="none" stroke="none" d="M175.728,-173.747C175.813,-173.794 175.898,-173.84 175.983,-173.886"/>
<polygon fill="none" stroke="none" points="168.987,-170.069 167.311,-173.142 177.766,-174.859 168.987,-170.069"/>
</g>
<!-- production&#45;&gt;des -->
<g id="edge27" class="edge"><title>production&#45;&gt;des</title>
<path fill="none" stroke="none" d="M161.558,-138.505C161.702,-138.43 161.847,-138.355 161.992,-138.279"/>
<polygon fill="none" stroke="none" points="159.656,-139.493 161.27,-142.599 168.53,-134.882 159.656,-139.493"/>
</g>
<!-- remises&#45;&gt;en -->
<g id="edge29" class="edge"><title>remises&#45;&gt;en</title>
<path fill="none" stroke="none" d="M148.124,-125.906C153.36,-130.444 159.063,-135.387 164.607,-140.192"/>
<polygon fill="none" stroke="none" points="164.988,-140.522 162.696,-143.167 172.545,-147.071 164.988,-140.522"/>
</g>
<!-- incessantes -->
<g id="node23" class="node"><title>incessantes</title>
<polygon fill="none" stroke="none" points="221.372,-305.223 167.372,-305.223 167.372,-269.223 221.372,-269.223 221.372,-305.223"/>
<text text-anchor="middle" x="194.372" y="-284.723" font-family="Ume P Gothic Balsa" font-size="10.00">incessantes</text>
</g>
<!-- question&#45;&gt;incessantes -->
<g id="edge31" class="edge"><title>question&#45;&gt;incessantes</title>
<path fill="none" stroke="none" d="M168.219,-263.134C168.353,-263.257 168.486,-263.38 168.62,-263.503"/>
<polygon fill="none" stroke="none" points="167.313,-262.299 164.941,-264.873 174.668,-269.074 167.313,-262.299"/>
</g>
<!-- incessantes&#45;&gt;et -->
<g id="edge32" class="edge"><title>incessantes&#45;&gt;et</title>
<path fill="none" stroke="none" d="M194.024,-269.039C193.816,-258.167 193.548,-244.119 193.312,-231.812"/>
<polygon fill="none" stroke="none" points="193.308,-231.567 196.807,-231.5 193.116,-221.569 193.308,-231.567"/>
</g>
<!-- houleuses -->
<g id="node25" class="node"><title>houleuses</title>
<polygon fill="none" stroke="none" points="250.259,-260.27 196.259,-260.27 196.259,-224.27 250.259,-224.27 250.259,-260.27"/>
<text text-anchor="middle" x="223.259" y="-239.77" font-family="Ume P Gothic Balsa" font-size="10.00">houleuses</text>
</g>
<!-- relations&#45;&gt;houleuses -->
<g id="edge35" class="edge"><title>relations&#45;&gt;houleuses</title>
<path fill="none" stroke="none" d="M189.126,-213.33C190.681,-214.649 192.266,-215.993 193.858,-217.343"/>
<polygon fill="none" stroke="none" points="194.157,-217.595 191.893,-220.265 201.784,-224.062 194.157,-217.595"/>
</g>
<!-- houleuses&#45;&gt;une -->
<g id="edge36" class="edge"><title>houleuses&#45;&gt;une</title>
<path fill="none" stroke="none" d="M223.561,-224.005C223.75,-212.587 223.997,-197.64 224.212,-184.682"/>
<polygon fill="none" stroke="none" points="224.217,-184.384 227.716,-184.442 224.382,-174.385 224.217,-184.384"/>
</g>
<!-- équipe&#45;&gt;de -->
<g id="edge38" class="edge"><title>équipe&#45;&gt;de</title>
<path fill="none" stroke="none" d="M236.905,-232.024C233.125,-227.007 228.943,-221.458 224.887,-216.075"/>
<polygon fill="none" stroke="none" points="224.711,-215.841 227.506,-213.735 218.692,-207.854 224.711,-215.841"/>
</g>
<!-- ambitionne -->
<g id="node28" class="node"><title>ambitionne</title>
<polygon fill="none" stroke="none" points="318.695,-235.727 264.695,-235.727 264.695,-199.727 318.695,-199.727 318.695,-235.727"/>
<text text-anchor="middle" x="291.695" y="-215.227" font-family="Ume P Gothic Balsa" font-size="10.00">ambitionne</text>
</g>
<!-- tournage&#45;&gt;ambitionne -->
<g id="edge40" class="edge"><title>tournage&#45;&gt;ambitionne</title>
<path fill="none" stroke="none" d="M254.033,-247.62C256.294,-245.825 258.613,-243.984 260.936,-242.141"/>
<polygon fill="none" stroke="none" points="260.936,-242.14 263.112,-244.882 268.769,-235.923 260.936,-242.14"/>
</g>
<!-- ambitionne&#45;&gt;de -->
<g id="edge41" class="edge"><title>ambitionne&#45;&gt;de</title>
<path fill="none" stroke="none" d="M264.279,-208.873C257.177,-206.58 249.413,-204.072 241.913,-201.65"/>
<polygon fill="none" stroke="none" points="241.8,-201.614 242.876,-198.283 232.284,-198.541 241.8,-201.614"/>
</g>
<!-- réaliser&#45;&gt;une -->
<g id="edge43" class="edge"><title>réaliser&#45;&gt;une</title>
<path fill="none" stroke="none" d="M255.159,-195.712C251.988,-191.595 248.56,-187.145 245.187,-182.766"/>
<polygon fill="none" stroke="none" points="244.953,-182.462 247.726,-180.326 238.851,-174.539 244.953,-182.462"/>
</g>
<!-- à -->
<g id="node31" class="node"><title>à</title>
<polygon fill="none" stroke="none" points="292.447,-36.4088 238.447,-36.4088 238.447,-0.408751 292.447,-0.408751 292.447,-36.4088"/>
<text text-anchor="middle" x="265.447" y="-15.9088" font-family="Ume P Gothic Balsa" font-size="10.00">à</text>
</g>
<!-- suite&#45;&gt;à -->
<g id="edge45" class="edge"><title>suite&#45;&gt;à</title>
<path fill="none" stroke="none" d="M251.233,-69.1952C253.188,-62.2105 255.469,-54.0586 257.625,-46.3562"/>
<polygon fill="none" stroke="none" points="257.653,-46.2558 261.023,-47.1991 260.348,-36.6258 257.653,-46.2558"/>
</g>
<!-- l’un -->
<g id="node32" class="node"><title>l’un</title>
<polygon fill="none" stroke="none" points="227.286,-52.1939 173.286,-52.1939 173.286,-16.1939 227.286,-16.1939 227.286,-52.1939"/>
<text text-anchor="middle" x="200.286" y="-31.6939" font-family="Ume P Gothic Balsa" font-size="10.00">l’un</text>
</g>
<!-- à&#45;&gt;l’un -->
<g id="edge46" class="edge"><title>à&#45;&gt;l’un</title>
<path fill="none" stroke="none" d="M238.19,-25.0116C237.972,-25.0644 237.754,-25.1173 237.536,-25.1702"/>
<polygon fill="none" stroke="none" points="237.362,-25.2123 236.538,-21.8106 227.643,-27.5667 237.362,-25.2123"/>
</g>
<!-- l’un&#45;&gt;des -->
<g id="edge47" class="edge"><title>l’un&#45;&gt;des</title>
<path fill="none" stroke="none" d="M199.349,-52.5347C198.759,-64.0781 197.985,-79.2129 197.317,-92.2863"/>
<polygon fill="none" stroke="none" points="197.297,-92.672 193.802,-92.4932 196.786,-102.659 197.297,-92.672"/>
</g>
<!-- d’œuvre -->
<g id="node34" class="node"><title>d’œuvre</title>
<polygon fill="none" stroke="none" points="300.662,-129.895 246.662,-129.895 246.662,-93.8954 300.662,-93.8954 300.662,-129.895"/>
<text text-anchor="middle" x="273.662" y="-109.395" font-family="Ume P Gothic Balsa" font-size="10.00">d’œuvre</text>
</g>
<!-- chefs&#45;&gt;d’œuvre -->
<g id="edge49" class="edge"><title>chefs&#45;&gt;d’œuvre</title>
<path fill="none" stroke="none" d="M251.771,-70.228C254.154,-74.7637 256.758,-79.7211 259.313,-84.5836"/>
<polygon fill="none" stroke="none" points="259.442,-84.829 256.343,-86.4568 264.093,-93.6816 259.442,-84.829"/>
</g>
<!-- d’œuvre&#45;&gt;du -->
<g id="edge50" class="edge"><title>d’œuvre&#45;&gt;du</title>
<path fill="none" stroke="none" d="M275.922,-129.911C276.276,-132.732 276.649,-135.704 277.023,-138.688"/>
<polygon fill="none" stroke="none" points="277.031,-138.749 273.558,-139.184 278.276,-148.671 277.031,-138.749"/>
</g>
<!-- cinéma -->
<g id="node36" class="node"><title>cinéma</title>
<polygon fill="none" stroke="none" points="359.858,-249.927 305.858,-249.927 305.858,-213.927 359.858,-213.927 359.858,-249.927"/>
<text text-anchor="middle" x="332.858" y="-229.427" font-family="Ume P Gothic Balsa" font-size="10.00">cinéma</text>
</g>
<!-- du&#45;&gt;cinéma -->
<g id="edge51" class="edge"><title>du&#45;&gt;cinéma</title>
<path fill="none" stroke="none" d="M295.131,-185.025C300.344,-191.506 306.327,-198.943 311.969,-205.958"/>
<polygon fill="none" stroke="none" points="312.102,-206.123 309.374,-208.316 318.369,-213.915 312.102,-206.123"/>
</g>
<!-- film -->
<g id="node55" class="node"><title>film</title>
<polygon fill="none" stroke="none" points="312.403,-272.244 258.403,-272.244 258.403,-236.244 312.403,-236.244 312.403,-272.244"/>
<text text-anchor="middle" x="285.403" y="-251.744" font-family="Ume P Gothic Balsa" font-size="10.00">film</text>
</g>
<!-- du&#45;&gt;film -->
<g id="edge74" class="edge"><title>du&#45;&gt;film</title>
<path fill="none" stroke="none" d="M281.567,-185.01C282.222,-196.836 283.092,-212.526 283.837,-225.979"/>
<polygon fill="none" stroke="none" points="283.848,-226.188 280.354,-226.381 284.402,-236.172 283.848,-226.188"/>
</g>
<!-- KunstenFESTIVALdesArts -->
<g id="node77" class="node"><title>KunstenFESTIVALdesArts</title>
<polygon fill="none" stroke="none" points="393.122,-124.518 284.622,-124.518 284.622,-88.518 393.122,-88.518 393.122,-124.518"/>
<text text-anchor="middle" x="338.872" y="-104.018" font-family="Ume P Gothic Balsa" font-size="10.00">KunstenFESTIVALdesArts</text>
</g>
<!-- du&#45;&gt;KunstenFESTIVALdesArts -->
<g id="edge104" class="edge"><title>du&#45;&gt;KunstenFESTIVALdesArts</title>
<path fill="none" stroke="none" d="M298.059,-148.794C303.132,-143.539 308.77,-137.699 314.196,-132.079"/>
<polygon fill="none" stroke="none" points="314.444,-131.821 316.962,-134.252 321.39,-124.626 314.444,-131.821"/>
</g>
<!-- Service -->
<g id="node79" class="node"><title>Service</title>
<polygon fill="none" stroke="none" points="252.882,-149.675 198.882,-149.675 198.882,-113.675 252.882,-113.675 252.882,-149.675"/>
<text text-anchor="middle" x="225.882" y="-129.175" font-family="Ume P Gothic Balsa" font-size="10.00">Service</text>
</g>
<!-- du&#45;&gt;Service -->
<g id="edge107" class="edge"><title>du&#45;&gt;Service</title>
<path fill="none" stroke="none" d="M253.544,-149.502C253.436,-149.432 253.329,-149.363 253.221,-149.294"/>
<polygon fill="none" stroke="none" points="261.304,-154.504 263.201,-151.562 252.898,-149.085 261.304,-154.504"/>
</g>
<!-- d’épouvante -->
<g id="node37" class="node"><title>d’épouvante</title>
<polygon fill="none" stroke="none" points="346.514,-323.454 292.014,-323.454 292.014,-287.454 346.514,-287.454 346.514,-323.454"/>
<text text-anchor="middle" x="319.264" y="-302.954" font-family="Ume P Gothic Balsa" font-size="10.00">d’épouvante</text>
</g>
<!-- cinéma&#45;&gt;d’épouvante -->
<g id="edge52" class="edge"><title>cinéma&#45;&gt;d’épouvante</title>
<path fill="none" stroke="none" d="M329.497,-250.102C327.978,-258.321 326.147,-268.222 324.457,-277.364"/>
<polygon fill="none" stroke="none" points="324.451,-277.4 321.009,-276.763 322.633,-287.233 324.451,-277.4"/>
</g>
<!-- Les -->
<g id="node38" class="node"><title>Les</title>
<polygon fill="none" stroke="none" points="296.83,-368.41 242.83,-368.41 242.83,-332.41 296.83,-332.41 296.83,-368.41"/>
<text text-anchor="middle" x="269.83" y="-347.91" font-family="Ume P Gothic Balsa" font-size="10.00">Les</text>
</g>
<!-- d’épouvante&#45;&gt;Les -->
<g id="edge53" class="edge"><title>d’épouvante&#45;&gt;Les</title>
<path fill="none" stroke="none" d="M299.442,-323.48C298.737,-324.122 298.026,-324.768 297.313,-325.417"/>
<polygon fill="none" stroke="none" points="297.055,-325.652 294.7,-323.062 289.656,-332.38 297.055,-325.652"/>
</g>
<!-- Oiseaux -->
<g id="node39" class="node"><title>Oiseaux</title>
<polygon fill="none" stroke="none" points="213.867,-372.948 159.867,-372.948 159.867,-336.948 213.867,-336.948 213.867,-372.948"/>
<text text-anchor="middle" x="186.867" y="-352.448" font-family="Ume P Gothic Balsa" font-size="10.00">Oiseaux</text>
</g>
<!-- Les&#45;&gt;Oiseaux -->
<g id="edge54" class="edge"><title>Les&#45;&gt;Oiseaux</title>
<path fill="none" stroke="none" d="M242.665,-351.896C236.792,-352.217 230.482,-352.562 224.294,-352.901"/>
<polygon fill="none" stroke="none" points="224.079,-352.912 223.887,-349.417 214.093,-353.458 224.079,-352.912"/>
</g>
<!-- The -->
<g id="node40" class="node"><title>The</title>
<polygon fill="none" stroke="none" points="163.68,-413.084 109.68,-413.084 109.68,-377.084 163.68,-377.084 163.68,-413.084"/>
<text text-anchor="middle" x="136.68" y="-392.584" font-family="Ume P Gothic Balsa" font-size="10.00">The</text>
</g>
<!-- Oiseaux&#45;&gt;The -->
<g id="edge55" class="edge"><title>Oiseaux&#45;&gt;The</title>
<path fill="none" stroke="none" d="M164.123,-373.137C164.026,-373.215 163.928,-373.292 163.831,-373.37"/>
<polygon fill="none" stroke="none" points="167.252,-370.634 165.066,-367.901 159.442,-376.88 167.252,-370.634"/>
</g>
<!-- Birds -->
<g id="node41" class="node"><title>Birds</title>
<polygon fill="none" stroke="none" points="117.492,-349.049 63.492,-349.049 63.492,-313.049 117.492,-313.049 117.492,-349.049"/>
<text text-anchor="middle" x="90.492" y="-328.549" font-family="Ume P Gothic Balsa" font-size="10.00">Birds</text>
</g>
<!-- The&#45;&gt;Birds -->
<g id="edge56" class="edge"><title>The&#45;&gt;Birds</title>
<path fill="none" stroke="none" d="M123.568,-376.905C119.142,-370.77 114.111,-363.794 109.332,-357.168"/>
<polygon fill="none" stroke="none" points="109.327,-357.162 112.165,-355.114 103.477,-349.051 109.327,-357.162"/>
</g>
<!-- d’Alfred -->
<g id="node42" class="node"><title>d’Alfred</title>
<polygon fill="none" stroke="none" points="53.8568,-359.61 -0.143159,-359.61 -0.143159,-323.61 53.8568,-323.61 53.8568,-359.61"/>
<text text-anchor="middle" x="26.8568" y="-339.11" font-family="Ume P Gothic Balsa" font-size="10.00">d’Alfred</text>
</g>
<!-- Birds&#45;&gt;d’Alfred -->
<g id="edge57" class="edge"><title>Birds&#45;&gt;d’Alfred</title>
<path fill="none" stroke="none" d="M63.1356,-335.589C63.043,-335.605 62.9503,-335.62 62.8576,-335.635"/>
<polygon fill="none" stroke="none" points="64.0551,-335.436 63.482,-331.984 54.1901,-337.074 64.0551,-335.436"/>
</g>
<!-- Hitchcock -->
<g id="node43" class="node"><title>Hitchcock</title>
<polygon fill="none" stroke="none" points="112.63,-387.077 58.6304,-387.077 58.6304,-351.077 112.63,-351.077 112.63,-387.077"/>
<text text-anchor="middle" x="85.6304" y="-366.577" font-family="Ume P Gothic Balsa" font-size="10.00">Hitchcock</text>
</g>
<!-- d’Alfred&#45;&gt;Hitchcock -->
<g id="edge58" class="edge"><title>d’Alfred&#45;&gt;Hitchcock</title>
<path fill="none" stroke="none" d="M54.1789,-354.379C54.2688,-354.421 54.3587,-354.463 54.4487,-354.505"/>
<polygon fill="none" stroke="none" points="49.4421,-352.165 47.9602,-355.336 58.5016,-356.399 49.4421,-352.165"/>
</g>
<!-- Pourtant -->
<g id="node44" class="node"><title>Pourtant</title>
<polygon fill="none" stroke="none" points="194.376,-399.131 140.376,-399.131 140.376,-363.131 194.376,-363.131 194.376,-399.131"/>
<text text-anchor="middle" x="167.376" y="-378.631" font-family="Ume P Gothic Balsa" font-size="10.00">Pourtant</text>
</g>
<!-- Hitchcock&#45;&gt;Pourtant -->
<g id="edge59" class="edge"><title>Hitchcock&#45;&gt;Pourtant</title>
<path fill="none" stroke="none" d="M112.851,-373.091C118.366,-373.904 124.256,-374.773 130.05,-375.627"/>
<polygon fill="none" stroke="none" points="130.382,-375.676 129.871,-379.138 140.275,-377.135 130.382,-375.676"/>
</g>
<!-- lorsque -->
<g id="node45" class="node"><title>lorsque</title>
<polygon fill="none" stroke="none" points="245.488,-438.138 191.488,-438.138 191.488,-402.138 245.488,-402.138 245.488,-438.138"/>
<text text-anchor="middle" x="218.488" y="-417.638" font-family="Ume P Gothic Balsa" font-size="10.00">lorsque</text>
</g>
<!-- Pourtant&#45;&gt;lorsque -->
<g id="edge60" class="edge"><title>Pourtant&#45;&gt;lorsque</title>
<path fill="none" stroke="none" d="M191.136,-399.264C191.293,-399.384 191.449,-399.503 191.606,-399.623"/>
<polygon fill="none" stroke="none" points="186.946,-396.066 184.823,-398.848 194.896,-402.133 186.946,-396.066"/>
</g>
<!-- débarque -->
<g id="node46" class="node"><title>débarque</title>
<polygon fill="none" stroke="none" points="320.804,-408.581 266.804,-408.581 266.804,-372.581 320.804,-372.581 320.804,-408.581"/>
<text text-anchor="middle" x="293.804" y="-388.081" font-family="Ume P Gothic Balsa" font-size="10.00">débarque</text>
</g>
<!-- lorsque&#45;&gt;débarque -->
<g id="edge61" class="edge"><title>lorsque&#45;&gt;débarque</title>
<path fill="none" stroke="none" d="M245.678,-409.467C249.411,-408.002 253.293,-406.479 257.161,-404.961"/>
<polygon fill="none" stroke="none" points="257.344,-404.889 258.623,-408.148 266.653,-401.236 257.344,-404.889"/>
</g>
<!-- l’actrice -->
<g id="node47" class="node"><title>l’actrice</title>
<polygon fill="none" stroke="none" points="249.602,-370.156 195.602,-370.156 195.602,-334.156 249.602,-334.156 249.602,-370.156"/>
<text text-anchor="middle" x="222.602" y="-349.656" font-family="Ume P Gothic Balsa" font-size="10.00">l’actrice</text>
</g>
<!-- débarque&#45;&gt;l’actrice -->
<g id="edge62" class="edge"><title>débarque&#45;&gt;l’actrice</title>
<path fill="none" stroke="none" d="M266.479,-375.835C263.905,-374.446 261.271,-373.024 258.633,-371.601"/>
<polygon fill="none" stroke="none" points="258.537,-371.549 260.199,-368.469 249.736,-366.799 258.537,-371.549"/>
</g>
<!-- américaine -->
<g id="node48" class="node"><title>américaine</title>
<polygon fill="none" stroke="none" points="289.419,-303.904 235.419,-303.904 235.419,-267.904 289.419,-267.904 289.419,-303.904"/>
<text text-anchor="middle" x="262.419" y="-283.404" font-family="Ume P Gothic Balsa" font-size="10.00">américaine</text>
</g>
<!-- l’actrice&#45;&gt;américaine -->
<g id="edge63" class="edge"><title>l’actrice&#45;&gt;américaine</title>
<path fill="none" stroke="none" d="M233.482,-334.053C237.433,-327.48 241.984,-319.905 246.291,-312.739"/>
<polygon fill="none" stroke="none" points="246.401,-312.557 249.401,-314.36 251.552,-303.986 246.401,-312.557"/>
</g>
<!-- pressentie -->
<g id="node49" class="node"><title>pressentie</title>
<polygon fill="none" stroke="none" points="268.508,-233.234 214.508,-233.234 214.508,-197.234 268.508,-197.234 268.508,-233.234"/>
<text text-anchor="middle" x="241.508" y="-212.734" font-family="Ume P Gothic Balsa" font-size="10.00">pressentie</text>
</g>
<!-- américaine&#45;&gt;pressentie -->
<g id="edge64" class="edge"><title>américaine&#45;&gt;pressentie</title>
<path fill="none" stroke="none" d="M257.034,-267.705C254.831,-260.262 252.233,-251.48 249.798,-243.252"/>
<polygon fill="none" stroke="none" points="249.785,-243.206 253.141,-242.213 246.947,-233.617 249.785,-243.206"/>
</g>
<!-- pour -->
<g id="node50" class="node"><title>pour</title>
<polygon fill="none" stroke="none" points="317.475,-297.535 263.475,-297.535 263.475,-261.535 317.475,-261.535 317.475,-297.535"/>
<text text-anchor="middle" x="290.475" y="-277.035" font-family="Ume P Gothic Balsa" font-size="10.00">pour</text>
</g>
<!-- pressentie&#45;&gt;pour -->
<g id="edge65" class="edge"><title>pressentie&#45;&gt;pour</title>
<path fill="none" stroke="none" d="M255.409,-233.488C260.101,-239.649 265.434,-246.654 270.501,-253.307"/>
<polygon fill="none" stroke="none" points="270.65,-253.502 267.865,-255.623 276.708,-261.458 270.65,-253.502"/>
</g>
<!-- reprendre -->
<g id="node51" class="node"><title>reprendre</title>
<polygon fill="none" stroke="none" points="374.644,-358.057 320.644,-358.057 320.644,-322.057 374.644,-322.057 374.644,-358.057"/>
<text text-anchor="middle" x="347.644" y="-337.557" font-family="Ume P Gothic Balsa" font-size="10.00">reprendre</text>
</g>
<!-- pour&#45;&gt;reprendre -->
<g id="edge66" class="edge"><title>pour&#45;&gt;reprendre</title>
<path fill="none" stroke="none" d="M307.627,-297.694C312.602,-302.96 318.13,-308.812 323.449,-314.444"/>
<polygon fill="none" stroke="none" points="323.637,-314.642 321.092,-317.045 330.503,-321.911 323.637,-314.642"/>
</g>
<!-- le -->
<g id="node52" class="node"><title>le</title>
<polygon fill="none" stroke="none" points="353.351,-280.886 299.351,-280.886 299.351,-244.886 353.351,-244.886 353.351,-280.886"/>
<text text-anchor="middle" x="326.351" y="-260.386" font-family="Ume P Gothic Balsa" font-size="10.00">le</text>
</g>
<!-- reprendre&#45;&gt;le -->
<g id="edge67" class="edge"><title>reprendre&#45;&gt;le</title>
<path fill="none" stroke="none" d="M342.598,-321.769C340.052,-312.542 336.909,-301.152 334.068,-290.855"/>
<polygon fill="none" stroke="none" points="334.021,-290.683 337.395,-289.752 331.361,-281.043 334.021,-290.683"/>
</g>
<!-- rôle -->
<g id="node53" class="node"><title>rôle</title>
<polygon fill="none" stroke="none" points="330.49,-214.269 276.49,-214.269 276.49,-178.269 330.49,-178.269 330.49,-214.269"/>
<text text-anchor="middle" x="303.49" y="-193.769" font-family="Ume P Gothic Balsa" font-size="10.00">rôle</text>
</g>
<!-- le&#45;&gt;rôle -->
<g id="edge68" class="edge"><title>le&#45;&gt;rôle</title>
<path fill="none" stroke="none" d="M320.104,-244.683C317.937,-238.367 315.454,-231.133 313.08,-224.215"/>
<polygon fill="none" stroke="none" points="312.975,-223.909 316.286,-222.773 309.729,-214.451 312.975,-223.909"/>
</g>
<!-- rôle&#45;&gt;de -->
<g id="edge69" class="edge"><title>rôle&#45;&gt;de</title>
<path fill="none" stroke="none" d="M276.329,-194.469C265.785,-193.77 253.537,-192.958 242.199,-192.207"/>
<polygon fill="none" stroke="none" points="242.096,-192.2 242.328,-188.708 232.118,-191.539 242.096,-192.2"/>
</g>
<!-- protagoniste&#45;&gt;du -->
<g id="edge73" class="edge"><title>protagoniste&#45;&gt;du</title>
<path fill="none" stroke="none" d="M321.352,-191.713C319.826,-190.785 318.281,-189.846 316.73,-188.903"/>
<polygon fill="none" stroke="none" points="316.418,-188.713 318.236,-185.723 307.873,-183.518 316.418,-188.713"/>
</g>
<!-- original -->
<g id="node56" class="node"><title>original</title>
<polygon fill="none" stroke="none" points="270.317,-341.341 216.317,-341.341 216.317,-305.341 270.317,-305.341 270.317,-341.341"/>
<text text-anchor="middle" x="243.317" y="-320.841" font-family="Ume P Gothic Balsa" font-size="10.00">original</text>
</g>
<!-- film&#45;&gt;original -->
<g id="edge75" class="edge"><title>film&#45;&gt;original</title>
<path fill="none" stroke="none" d="M274.345,-272.398C269.886,-279.719 264.649,-288.319 259.759,-296.347"/>
<polygon fill="none" stroke="none" points="259.649,-296.528 256.66,-294.707 254.447,-305.068 259.649,-296.528"/>
</g>
<!-- les -->
<g id="node57" class="node"><title>les</title>
<polygon fill="none" stroke="none" points="202.462,-328.85 148.462,-328.85 148.462,-292.85 202.462,-292.85 202.462,-328.85"/>
<text text-anchor="middle" x="175.462" y="-308.35" font-family="Ume P Gothic Balsa" font-size="10.00">les</text>
</g>
<!-- original&#45;&gt;les -->
<g id="edge76" class="edge"><title>original&#45;&gt;les</title>
<path fill="none" stroke="none" d="M216.109,-318.333C215.003,-318.129 213.887,-317.924 212.766,-317.717"/>
<polygon fill="none" stroke="none" points="212.511,-317.671 213.145,-314.228 202.676,-315.86 212.511,-317.671"/>
</g>
<!-- véritables -->
<g id="node58" class="node"><title>véritables</title>
<polygon fill="none" stroke="none" points="121.663,-314.669 67.6626,-314.669 67.6626,-278.669 121.663,-278.669 121.663,-314.669"/>
<text text-anchor="middle" x="94.6626" y="-294.169" font-family="Ume P Gothic Balsa" font-size="10.00">véritables</text>
</g>
<!-- les&#45;&gt;véritables -->
<g id="edge77" class="edge"><title>les&#45;&gt;véritables</title>
<path fill="none" stroke="none" d="M148.107,-306.049C142.918,-305.138 137.407,-304.171 131.971,-303.217"/>
<polygon fill="none" stroke="none" points="131.565,-303.146 132.17,-299.698 121.715,-301.417 131.565,-303.146"/>
</g>
<!-- ennuis -->
<g id="node59" class="node"><title>ennuis</title>
<polygon fill="none" stroke="none" points="120.333,-246.659 66.3325,-246.659 66.3325,-210.659 120.333,-210.659 120.333,-246.659"/>
<text text-anchor="middle" x="93.3325" y="-226.159" font-family="Ume P Gothic Balsa" font-size="10.00">ennuis</text>
</g>
<!-- véritables&#45;&gt;ennuis -->
<g id="edge78" class="edge"><title>véritables&#45;&gt;ennuis</title>
<path fill="none" stroke="none" d="M94.3062,-278.443C94.178,-271.887 94.0301,-264.326 93.8889,-257.107"/>
<polygon fill="none" stroke="none" points="93.8856,-256.933 97.3849,-256.864 93.69,-246.935 93.8856,-256.933"/>
</g>
<!-- commencent -->
<g id="node60" class="node"><title>commencent</title>
<polygon fill="none" stroke="none" points="201.146,-247.805 146.646,-247.805 146.646,-211.805 201.146,-211.805 201.146,-247.805"/>
<text text-anchor="middle" x="173.896" y="-227.305" font-family="Ume P Gothic Balsa" font-size="10.00">commencent</text>
</g>
<!-- ennuis&#45;&gt;commencent -->
<g id="edge79" class="edge"><title>ennuis&#45;&gt;commencent</title>
<path fill="none" stroke="none" d="M120.608,-229.047C125.67,-229.119 131.04,-229.195 136.346,-229.271"/>
<polygon fill="none" stroke="none" points="136.376,-229.271 136.326,-232.771 146.375,-229.413 136.376,-229.271"/>
</g>
<!-- Conception -->
<g id="node61" class="node"><title>Conception</title>
<polygon fill="none" stroke="none" points="152.142,-271.797 98.1421,-271.797 98.1421,-235.797 152.142,-235.797 152.142,-271.797"/>
<text text-anchor="middle" x="125.142" y="-251.297" font-family="Ume P Gothic Balsa" font-size="10.00">Conception</text>
</g>
<!-- commencent&#45;&gt;Conception -->
<g id="edge80" class="edge"><title>commencent&#45;&gt;Conception</title>
<path fill="none" stroke="none" d="M146.384,-243.344C146.341,-243.365 146.298,-243.386 146.255,-243.407"/>
<polygon fill="none" stroke="none" points="155.098,-239.052 153.552,-235.911 146.125,-243.471 155.098,-239.052"/>
</g>
<!-- Conception&#45;&gt;et -->
<g id="edge81" class="edge"><title>Conception&#45;&gt;et</title>
<path fill="none" stroke="none" d="M149.557,-235.61C152.962,-233.074 156.505,-230.434 160.033,-227.807"/>
<polygon fill="none" stroke="none" points="160.143,-227.724 162.234,-230.531 168.163,-221.75 160.143,-227.724"/>
</g>
<!-- mise&#45;&gt;en -->
<g id="edge83" class="edge"><title>mise&#45;&gt;en</title>
<path fill="none" stroke="none" d="M141.958,-206.631C148.547,-201.394 155.852,-195.587 162.849,-190.026"/>
<polygon fill="none" stroke="none" points="163.03,-189.882 165.208,-192.622 170.858,-183.659 163.03,-189.882"/>
</g>
<!-- scène&#45;&gt;de -->
<g id="edge114" class="edge"><title>scène&#45;&gt;de</title>
<path fill="none" stroke="none" d="M181.007,-199.833C181.054,-199.813 181.102,-199.793 181.15,-199.773"/>
<polygon fill="none" stroke="none" points="172.072,-203.586 173.428,-206.814 181.294,-199.712 172.072,-203.586"/>
</g>
<!-- Claude Schmitz -->
<g id="node64" class="node"><title>Claude Schmitz</title>
<polygon fill="none" stroke="none" points="167.756,-305.309 101.756,-305.309 101.756,-269.309 167.756,-269.309 167.756,-305.309"/>
<text text-anchor="middle" x="134.756" y="-284.809" font-family="Ume P Gothic Balsa" font-size="10.00">Claude Schmitz</text>
</g>
<!-- scène&#45;&gt;Claude Schmitz -->
<g id="edge85" class="edge"><title>scène&#45;&gt;Claude Schmitz</title>
<path fill="none" stroke="none" d="M149.421,-229.219C147.164,-238.161 144.386,-249.164 141.858,-259.18"/>
<polygon fill="none" stroke="none" points="141.793,-259.437 138.399,-258.58 139.345,-269.133 141.793,-259.437"/>
</g>
<!-- Avec -->
<g id="node65" class="node"><title>Avec</title>
<polygon fill="none" stroke="none" points="225.789,-264.709 171.789,-264.709 171.789,-228.709 225.789,-228.709 225.789,-264.709"/>
<text text-anchor="middle" x="198.789" y="-244.209" font-family="Ume P Gothic Balsa" font-size="10.00">Avec</text>
</g>
<!-- Claude Schmitz&#45;&gt;Avec -->
<g id="edge86" class="edge"><title>Claude Schmitz&#45;&gt;Avec</title>
<path fill="none" stroke="none" d="M163.402,-269.147C163.485,-269.094 163.568,-269.041 163.651,-268.988"/>
<polygon fill="none" stroke="none" points="162.967,-269.422 164.842,-272.378 171.413,-264.067 162.967,-269.422"/>
</g>
<!-- Marie -->
<g id="node66" class="node"><title>Marie</title>
<polygon fill="none" stroke="none" points="268.213,-212.16 214.213,-212.16 214.213,-176.16 268.213,-176.16 268.213,-212.16"/>
<text text-anchor="middle" x="241.213" y="-191.66" font-family="Ume P Gothic Balsa" font-size="10.00">Marie</text>
</g>
<!-- Avec&#45;&gt;Marie -->
<g id="edge87" class="edge"><title>Avec&#45;&gt;Marie</title>
<path fill="none" stroke="none" d="M213.389,-228.625C215.564,-225.931 217.842,-223.109 220.118,-220.289"/>
<polygon fill="none" stroke="none" points="220.16,-220.237 222.884,-222.436 226.442,-212.457 220.16,-220.237"/>
</g>
<!-- Bos -->
<g id="node67" class="node"><title>Bos</title>
<polygon fill="none" stroke="none" points="253.917,-115.521 199.917,-115.521 199.917,-79.5205 253.917,-79.5205 253.917,-115.521"/>
<text text-anchor="middle" x="226.917" y="-95.0205" font-family="Ume P Gothic Balsa" font-size="10.00">Bos</text>
</g>
<!-- Marie&#45;&gt;Bos -->
<g id="edge88" class="edge"><title>Marie&#45;&gt;Bos</title>
<path fill="none" stroke="none" d="M238.524,-175.983C236.427,-161.81 233.478,-141.876 231.077,-125.648"/>
<polygon fill="none" stroke="none" points="231.057,-125.509 234.519,-124.996 229.593,-115.616 231.057,-125.509"/>
</g>
<!-- Arié Mandelbaum -->
<g id="node68" class="node"><title>Arié Mandelbaum</title>
<polygon fill="none" stroke="none" points="210.39,-135.934 138.39,-135.934 138.39,-99.9344 210.39,-99.9344 210.39,-135.934"/>
<text text-anchor="middle" x="174.39" y="-115.434" font-family="Ume P Gothic Balsa" font-size="10.00">Arié Mandelbaum</text>
</g>
<!-- Bos&#45;&gt;Arié Mandelbaum -->
<g id="edge89" class="edge"><title>Bos&#45;&gt;Arié Mandelbaum</title>
<path fill="none" stroke="none" d="M199.73,-108.086C199.68,-108.106 199.63,-108.125 199.58,-108.145"/>
<polygon fill="none" stroke="none" points="208.751,-104.577 207.482,-101.314 199.43,-108.203 208.751,-104.577"/>
</g>
<!-- Kate -->
<g id="node69" class="node"><title>Kate</title>
<polygon fill="none" stroke="none" points="269.268,-170.102 215.268,-170.102 215.268,-134.102 269.268,-134.102 269.268,-170.102"/>
<text text-anchor="middle" x="242.268" y="-149.602" font-family="Ume P Gothic Balsa" font-size="10.00">Kate</text>
</g>
<!-- Arié Mandelbaum&#45;&gt;Kate -->
<g id="edge90" class="edge"><title>Arié Mandelbaum&#45;&gt;Kate</title>
<path fill="none" stroke="none" d="M210.317,-136.019C210.42,-136.071 210.523,-136.123 210.627,-136.175"/>
<polygon fill="none" stroke="none" points="206.311,-134.002 204.737,-137.128 215.243,-138.498 206.311,-134.002"/>
</g>
<!-- Moran -->
<g id="node70" class="node"><title>Moran</title>
<polygon fill="none" stroke="none" points="355.344,-192.207 301.344,-192.207 301.344,-156.207 355.344,-156.207 355.344,-192.207"/>
<text text-anchor="middle" x="328.344" y="-171.707" font-family="Ume P Gothic Balsa" font-size="10.00">Moran</text>
</g>
<!-- Kate&#45;&gt;Moran -->
<g id="edge91" class="edge"><title>Kate&#45;&gt;Moran</title>
<path fill="none" stroke="none" d="M269.503,-159.096C276.479,-160.888 284.097,-162.844 291.469,-164.738"/>
<polygon fill="none" stroke="none" points="291.6,-164.771 290.73,-168.161 301.286,-167.259 291.6,-164.771"/>
</g>
<!-- distribution -->
<g id="node71" class="node"><title>distribution</title>
<polygon fill="none" stroke="none" points="291.99,-160.45 237.99,-160.45 237.99,-124.45 291.99,-124.45 291.99,-160.45"/>
<text text-anchor="middle" x="264.99" y="-139.95" font-family="Ume P Gothic Balsa" font-size="10.00">distribution</text>
</g>
<!-- Moran&#45;&gt;distribution -->
<g id="edge92" class="edge"><title>Moran&#45;&gt;distribution</title>
<path fill="none" stroke="none" d="M301.108,-160.555C301.016,-160.509 300.924,-160.463 300.831,-160.416"/>
<polygon fill="none" stroke="none" points="301.142,-160.572 302.71,-157.443 292.202,-156.091 301.142,-160.572"/>
</g>
<!-- distribution&#45;&gt;en -->
<g id="edge93" class="edge"><title>distribution&#45;&gt;en</title>
<path fill="none" stroke="none" d="M237.654,-151.279C235.337,-152.028 232.97,-152.792 230.596,-153.559"/>
<polygon fill="none" stroke="none" points="230.42,-153.616 229.344,-150.285 220.904,-156.689 230.42,-153.616"/>
</g>
<!-- Une -->
<g id="node73" class="node"><title>Une</title>
<polygon fill="none" stroke="none" points="106.835,-198.099 52.835,-198.099 52.835,-162.099 106.835,-162.099 106.835,-198.099"/>
<text text-anchor="middle" x="79.835" y="-177.599" font-family="Ume P Gothic Balsa" font-size="10.00">Une</text>
</g>
<!-- cours&#45;&gt;Une -->
<g id="edge95" class="edge"><title>cours&#45;&gt;Une</title>
<path fill="none" stroke="none" d="M102.153,-142.821C100.127,-146.205 97.971,-149.806 95.8284,-153.385"/>
<polygon fill="none" stroke="none" points="95.7483,-153.519 92.7453,-151.721 90.6115,-162.099 95.7483,-153.519"/>
</g>
<!-- coproduction -->
<g id="node74" class="node"><title>coproduction</title>
<polygon fill="none" stroke="none" points="169.776,-154.384 113.276,-154.384 113.276,-118.384 169.776,-118.384 169.776,-154.384"/>
<text text-anchor="middle" x="141.526" y="-133.884" font-family="Ume P Gothic Balsa" font-size="10.00">coproduction</text>
</g>
<!-- Une&#45;&gt;coproduction -->
<g id="edge96" class="edge"><title>Une&#45;&gt;coproduction</title>
<path fill="none" stroke="none" d="M105.283,-162.066C106.038,-161.531 106.798,-160.993 107.56,-160.453"/>
<polygon fill="none" stroke="none" points="107.578,-160.44 109.602,-163.295 115.738,-154.658 107.578,-160.44"/>
</g>
<!-- coproduction&#45;&gt;de -->
<g id="edge97" class="edge"><title>coproduction&#45;&gt;de</title>
<path fill="none" stroke="none" d="M163.031,-154.449C167.17,-157.926 171.569,-161.622 175.903,-165.263"/>
<polygon fill="none" stroke="none" points="175.906,-165.265 173.655,-167.945 183.563,-171.697 175.906,-165.265"/>
</g>
<!-- PARADIES&#45;&gt;de -->
<g id="edge99" class="edge"><title>PARADIES&#45;&gt;de</title>
<path fill="none" stroke="none" d="M181.564,-241.98C186.945,-234.312 192.472,-225.267 196.921,-216.863"/>
<polygon fill="none" stroke="none" points="196.992,-216.72 200.129,-218.27 201.421,-207.754 196.992,-216.72"/>
</g>
<!-- Balsamine&#45;&gt;et -->
<g id="edge102" class="edge"><title>Balsamine&#45;&gt;et</title>
<path fill="none" stroke="none" d="M134.056,-185.319C140.949,-187.444 148.471,-189.763 155.76,-192.011"/>
<polygon fill="none" stroke="none" points="155.919,-192.06 154.888,-195.404 165.475,-195.006 155.919,-192.06"/>
</g>
<!-- Avec l’aide -->
<g id="node78" class="node"><title>Avec l’aide</title>
<polygon fill="none" stroke="none" points="386.802,-183.714 332.802,-183.714 332.802,-147.714 386.802,-147.714 386.802,-183.714"/>
<text text-anchor="middle" x="359.802" y="-163.214" font-family="Ume P Gothic Balsa" font-size="10.00">Avec l’aide</text>
</g>
<!-- KunstenFESTIVALdesArts&#45;&gt;Avec l’aide -->
<g id="edge105" class="edge"><title>KunstenFESTIVALdesArts&#45;&gt;Avec l’aide</title>
<path fill="none" stroke="none" d="M345.265,-124.6C346.739,-128.767 348.34,-133.295 349.923,-137.773"/>
<polygon fill="none" stroke="none" points="349.97,-137.905 346.67,-139.072 353.303,-147.333 349.97,-137.905"/>
</g>
<!-- Avec l’aide&#45;&gt;du -->
<g id="edge106" class="edge"><title>Avec l’aide&#45;&gt;du</title>
<path fill="none" stroke="none" d="M332.533,-166.127C327.749,-166.2 322.697,-166.276 317.699,-166.352"/>
<polygon fill="none" stroke="none" points="317.614,-166.353 317.561,-162.854 307.616,-166.505 317.614,-166.353"/>
</g>
<!-- général -->
<g id="node80" class="node"><title>général</title>
<polygon fill="none" stroke="none" points="176.499,-92.4098 122.499,-92.4098 122.499,-56.4098 176.499,-56.4098 176.499,-92.4098"/>
<text text-anchor="middle" x="149.499" y="-71.9098" font-family="Ume P Gothic Balsa" font-size="10.00">général</text>
</g>
<!-- Service&#45;&gt;général -->
<g id="edge108" class="edge"><title>Service&#45;&gt;général</title>
<path fill="none" stroke="none" d="M201.714,-113.556C195.384,-108.81 188.456,-103.616 181.776,-98.6079"/>
<polygon fill="none" stroke="none" points="181.511,-98.4095 183.611,-95.6092 173.51,-92.411 181.511,-98.4095"/>
</g>
<!-- Théâtre -->
<g id="node85" class="node"><title>Théâtre</title>
<polygon fill="none" stroke="none" points="203.745,-80.1657 149.745,-80.1657 149.745,-44.1657 203.745,-44.1657 203.745,-80.1657"/>
<text text-anchor="middle" x="176.745" y="-59.6657" font-family="Ume P Gothic Balsa" font-size="10.00">Théâtre</text>
</g>
<!-- Service&#45;&gt;Théâtre -->
<g id="edge120" class="edge"><title>Service&#45;&gt;Théâtre</title>
<path fill="none" stroke="none" d="M212.972,-113.412C207.654,-105.889 201.387,-97.0241 195.574,-88.8012"/>
<polygon fill="none" stroke="none" points="195.512,-88.7135 198.37,-86.6931 189.739,-80.5478 195.512,-88.7135"/>
</g>
<!-- général&#45;&gt;des -->
<g id="edge109" class="edge"><title>général&#45;&gt;des</title>
<path fill="none" stroke="none" d="M167.558,-92.4303C168.502,-93.3722 169.458,-94.3261 170.419,-95.2852"/>
<polygon fill="none" stroke="none" points="170.7,-95.5658 168.228,-98.0433 177.779,-102.629 170.7,-95.5658"/>
</g>
<!-- arts&#45;&gt;de -->
<g id="edge111" class="edge"><title>arts&#45;&gt;de</title>
<path fill="none" stroke="none" d="M163.509,-187.722C164.816,-187.786 166.139,-187.851 167.467,-187.915"/>
<polygon fill="none" stroke="none" points="167.66,-187.924 167.49,-191.42 177.648,-188.411 167.66,-187.924"/>
</g>
<!-- Wallonie -->
<g id="node83" class="node"><title>Wallonie</title>
<polygon fill="none" stroke="none" points="285.406,-197.173 231.406,-197.173 231.406,-161.173 285.406,-161.173 285.406,-197.173"/>
<text text-anchor="middle" x="258.406" y="-176.673" font-family="Ume P Gothic Balsa" font-size="10.00">Wallonie</text>
</g>
<!-- Fédération&#45;&gt;Wallonie -->
<g id="edge117" class="edge"><title>Fédération&#45;&gt;Wallonie</title>
<path fill="none" stroke="none" d="M229.904,-197.776C230.015,-197.704 230.125,-197.632 230.236,-197.56"/>
<polygon fill="none" stroke="none" points="222.856,-202.377 224.769,-205.308 231.23,-196.911 222.856,-202.377"/>
</g>
<!-- Bruxelles -->
<g id="node84" class="node"><title>Bruxelles</title>
<polygon fill="none" stroke="none" points="324.772,-130.805 270.772,-130.805 270.772,-94.8046 324.772,-94.8046 324.772,-130.805"/>
<text text-anchor="middle" x="297.772" y="-110.305" font-family="Ume P Gothic Balsa" font-size="10.00">Bruxelles</text>
</g>
<!-- Wallonie&#45;&gt;Bruxelles -->
<g id="edge118" class="edge"><title>Wallonie&#45;&gt;Bruxelles</title>
<path fill="none" stroke="none" d="M269.163,-161.038C273.069,-154.453 277.569,-146.866 281.827,-139.687"/>
<polygon fill="none" stroke="none" points="281.927,-139.519 284.937,-141.305 287.028,-130.918 281.927,-139.519"/>
</g>
<!-- Bruxelles&#45;&gt;Service -->
<g id="edge119" class="edge"><title>Bruxelles&#45;&gt;Service</title>
<path fill="none" stroke="none" d="M270.594,-119.939C268.089,-120.596 265.523,-121.27 262.95,-121.945"/>
<polygon fill="none" stroke="none" points="262.771,-121.992 261.883,-118.607 253.099,-124.531 262.771,-121.992"/>
</g>
</g>
</svg>
